<?xml version="1.0" encoding="UTF-8" standalone="no"?>
<!-- Created with Inkscape (http://www.inkscape.org/) -->

<svg
   xmlns:dc="http://purl.org/dc/elements/1.1/"
   xmlns:cc="http://creativecommons.org/ns#"
   xmlns:rdf="http://www.w3.org/1999/02/22-rdf-syntax-ns#"
   xmlns:svg="http://www.w3.org/2000/svg"
   xmlns="http://www.w3.org/2000/svg"
   xmlns:sodipodi="http://sodipodi.sourceforge.net/DTD/sodipodi-0.dtd"
   xmlns:inkscape="http://www.inkscape.org/namespaces/inkscape"
   width="483.77951"
   height="362.83463"
   id="svg2"
   sodipodi:version="0.32"
   inkscape:version="0.92.1 r15371"
   sodipodi:docname="problem2.svg"
   version="1.0"
   viewBox="0 0 128 95.999997">
  <defs
     id="defs4">
    <filter
       style="color-interpolation-filters:sRGB"
       inkscape:label="Roughen"
       id="filter13391-1">
      <feTurbulence
         type="fractalNoise"
         numOctaves="5"
         seed="1"
         baseFrequency="0.013 0.013"
         result="turbulence"
         id="feTurbulence13393-2" />
      <feDisplacementMap
         in="SourceGraphic"
         in2="turbulence"
         scale="10.2094"
         yChannelSelector="G"
         xChannelSelector="R"
         id="feDisplacementMap13395-8" />
    </filter>
    <marker
       inkscape:stockid="Arrow2Send"
       orient="auto"
       refY="0"
       refX="0"
       id="Arrow2Send-3"
       style="overflow:visible"
       inkscape:isstock="true">
      <path
         inkscape:connector-curvature="0"
         id="path6389-4"
         style="fill:#f34eaf;fill-opacity:1;fill-rule:evenodd;stroke:#f34eaf;stroke-width:0.625;stroke-linejoin:round;stroke-opacity:1"
         d="M 8.7185878,4.0337352 -2.2072895,0.01601326 8.7185884,-4.0017078 c -1.7454984,2.3720609 -1.7354408,5.6174519 -6e-7,8.035443 z"
         transform="matrix(-0.3,0,0,-0.3,0.69,0)" />
    </marker>
    <filter
       y="-0.2"
       height="1.4"
       inkscape:label="Rough and Dilate"
       inkscape:menu="Distort"
       inkscape:menu-tooltip="Create a turbulent contour around"
       style="color-interpolation-filters:sRGB"
       id="filter6525">
      <feMorphology
         radius="7"
         operator="dilate"
         result="result8"
         in="SourceGraphic"
         id="feMorphology6527" />
      <feComposite
         in2="result8"
         result="result10"
         in="SourceGraphic"
         operator="arithmetic"
         k1="0.5"
         k3="0.5"
         id="feComposite6529"
         k2="0"
         k4="0" />
      <feTurbulence
         result="result11"
         type="fractalNoise"
         numOctaves="3"
         baseFrequency="0.07"
         id="feTurbulence6531" />
      <feDisplacementMap
         result="result12"
         in2="result11"
         in="result10"
         xChannelSelector="R"
         scale="10"
         id="feDisplacementMap6533"
         yChannelSelector="A" />
      <feComposite
         operator="arithmetic"
         result="result13"
         in="SourceGraphic"
         in2="result12"
         k1="0.25"
         k2="0.25"
         k3="0.75"
         id="feComposite6535"
         k4="0" />
    </filter>
    <filter
       style="color-interpolation-filters:sRGB"
       inkscape:label="Roughen"
       id="filter6597">
      <feTurbulence
         type="fractalNoise"
         numOctaves="5"
         seed="69"
         baseFrequency="0.013 0.001"
         result="turbulence"
         id="feTurbulence6599" />
      <feDisplacementMap
         in="SourceGraphic"
         in2="turbulence"
         scale="41.4"
         yChannelSelector="G"
         xChannelSelector="R"
         id="feDisplacementMap6601" />
    </filter>
    <marker
       inkscape:stockid="TriangleInM"
       orient="auto"
       refY="0"
       refX="0"
       id="TriangleInM"
       style="overflow:visible"
       inkscape:isstock="true">
      <path
         inkscape:connector-curvature="0"
         id="path6492"
         d="M 5.77,0 -2.88,5 V -5 Z"
         style="fill:#ffffff;fill-opacity:1;fill-rule:evenodd;stroke:#000000;stroke-width:1.00000003pt;stroke-opacity:1"
         transform="scale(-0.4)" />
    </marker>
    <path
       d="m 425,25 c 110.4,0 200,89.6 200,200 0,110.4 -89.6,200 -200,200 -110.4,0 -200,89.6 -200,200 0,110.4 89.6,200 200,200 C 645.8,825 825,645.8 825,425 825,204.2 645.8,25 425,25 z m 0,537.5 c 34.5,0 62.5,28 62.5,62.5 0,34.5 -28,62.5 -62.5,62.5 -34.5,0 -62.5,-28 -62.5,-62.5 0,-34.5 28,-62.5 62.5,-62.5 z"
       id="y" />
    <path
       d="m 450,200 c 0,27.61424 -22.38576,50 -50,50 -27.61424,0 -50,-22.38576 -50,-50 0,-27.61424 22.38576,-50 50,-50 27.61424,0 50,22.38576 50,50 z"
       id="d" />
    <filter
       id="f">
      <feGaussianBlur
         id="feGaussianBlur4882"
         stdDeviation="12.375" />
    </filter>
  </defs>
  <sodipodi:namedview
     id="base"
     pagecolor="#ffffff"
     bordercolor="#666666"
     borderopacity="1.0"
     inkscape:pageopacity="0"
     inkscape:pageshadow="2"
     inkscape:zoom="0.9668316"
     inkscape:cx="96.622073"
     inkscape:cy="109.66611"
     inkscape:document-units="mm"
     inkscape:current-layer="g31531"
     inkscape:window-width="1278"
     inkscape:window-height="798"
     inkscape:window-x="1"
     inkscape:window-y="1"
     width="12.8cm"
     height="9.6cm"
     units="cm"
     showgrid="false"
     grid_units="mm"
     inkscape:object-paths="false"
     inkscape:grid-points="true"
     inkscape:grid-bbox="true"
     inkscape:guide-points="true"
     showguides="false"
     inkscape:guide-bbox="true"
     inkscape:window-maximized="0">
    <sodipodi:guide
       orientation="vertical"
       position="15.938931,0"
       id="guide3573"
       inkscape:locked="false" />
    <sodipodi:guide
       orientation="horizontal"
       position="0,3.1145038"
       id="guide3579"
       inkscape:locked="false" />
    <sodipodi:guide
       orientation="horizontal"
       position="0,80.610687"
       id="guide3988"
       inkscape:locked="false" />
    <sodipodi:guide
       orientation="horizontal"
       position="0,85.557253"
       id="guide4081"
       inkscape:locked="false" />
    <inkscape:grid
       id="GridFromPre046Settings"
       type="xygrid"
       originx="0"
       originy="0"
       spacingx="2.1333334"
       spacingy="2.1333334"
       color="#3f3fff"
       empcolor="#3f3fff"
       opacity="0.15"
       empopacity="0.38"
       empspacing="5" />
  </sodipodi:namedview>
  <metadata
     id="metadata7">
    <rdf:RDF>
      <cc:Work
         rdf:about="">
        <dc:format>image/svg+xml</dc:format>
        <dc:type
           rdf:resource="http://purl.org/dc/dcmitype/StillImage" />
        <dc:title></dc:title>
      </cc:Work>
    </rdf:RDF>
  </metadata>
  <g
     inkscape:label="Layer 1"
     inkscape:groupmode="layer"
     id="layer1"
     transform="translate(4.149475e-6,-698.0315)">
    <text
       xml:space="preserve"
       style="font-style:normal;font-weight:normal;line-height:0%;font-family:sans-serif;letter-spacing:0px;word-spacing:0px;fill:#000000;fill-opacity:1;stroke:none;stroke-width:1px;stroke-linecap:butt;stroke-linejoin:miter;stroke-opacity:1"
       x="77.408318"
       y="752.97314"
       id="text5335"><tspan
         sodipodi:role="line"
         id="tspan5337"
         x="77.408318"
         y="752.97314"
         style="font-style:normal;font-variant:normal;font-weight:normal;font-stretch:normal;font-size:11.28888893px;line-height:1.25;font-family:'DejaVu Serif';-inkscape-font-specification:'DejaVu Serif'"> </tspan></text>
    <g
       id="g31531"
       transform="matrix(0.42305207,0,0,0.42305207,-168.22716,514.30643)">
      <text
         xml:space="preserve"
         style="font-style:normal;font-weight:normal;font-size:8.00531864px;line-height:0%;font-family:sans-serif;letter-spacing:0px;word-spacing:0px;fill:#000000;fill-opacity:1;stroke:none;stroke-width:0.66710991px;stroke-linecap:butt;stroke-linejoin:miter;stroke-opacity:1"
         x="526.88385"
         y="586.89441"
         id="text8366"><tspan
           sodipodi:role="line"
           id="tspan8368"
           x="526.88385"
           y="586.89441"
           style="font-style:normal;font-variant:normal;font-weight:normal;font-stretch:normal;font-size:9.17276096px;line-height:1.25;font-family:sans-serif;-inkscape-font-specification:sans-serif;stroke-width:0.66710991px"> </tspan></text>
      <flowRoot
         transform="matrix(0.66710992,0,0,0.66710992,339.00712,313.25645)"
         xml:space="preserve"
         id="flowRoot10916"
         style="font-style:normal;font-variant:normal;font-weight:normal;font-stretch:normal;line-height:0.01%;font-family:sans-serif;-inkscape-font-specification:sans-serif;letter-spacing:0px;word-spacing:0px;fill:#000000;fill-opacity:1;stroke:none;stroke-width:1px;stroke-linecap:butt;stroke-linejoin:miter;stroke-opacity:1"><flowRegion
           id="flowRegion10918"><rect
             id="rect10920"
             width="150.51273"
             height="85.862968"
             x="151.52289"
             y="299.79855"
             style="font-style:normal;font-variant:normal;font-weight:normal;font-stretch:normal;font-size:13.75px;font-family:sans-serif;-inkscape-font-specification:sans-serif" /></flowRegion><flowPara
           id="flowPara10922"
           style="font-size:13.75px;line-height:1.25"> </flowPara></flowRoot>      <flowRoot
         transform="matrix(0.66710992,0,0,0.66710992,326.4988,340.77471)"
         xml:space="preserve"
         id="flowRoot12053"
         style="font-style:normal;font-weight:normal;line-height:0.01%;font-family:sans-serif;letter-spacing:0px;word-spacing:0px;fill:#000000;fill-opacity:1;stroke:none;stroke-width:1px;stroke-linecap:butt;stroke-linejoin:miter;stroke-opacity:1"><flowRegion
           id="flowRegion12055"
           style="font-family:sans-serif"><rect
             id="rect12057"
             width="70.710678"
             height="58.588848"
             x="554.57373"
             y="361.41788"
             style="font-family:sans-serif" /></flowRegion><flowPara
           id="flowPara12059"
           style="font-size:40px;line-height:1.25;font-family:sans-serif"> </flowPara></flowRoot>      <flowRoot
         xml:space="preserve"
         id="flowRoot12061"
         style="font-style:normal;font-weight:normal;line-height:0.01%;font-family:sans-serif;letter-spacing:0px;word-spacing:0px;fill:#000000;fill-opacity:1;stroke:none;stroke-width:1px;stroke-linecap:butt;stroke-linejoin:miter;stroke-opacity:1"
         transform="matrix(0.66710992,0,0,0.66710992,304.94893,249.2106)"><flowRegion
           id="flowRegion12063"
           style="font-family:sans-serif"><rect
             id="rect12065"
             width="290.92822"
             height="58.62722"
             x="280.82242"
             y="355.35693"
             style="font-family:sans-serif" /></flowRegion><flowPara
           style="font-style:normal;font-variant:normal;font-weight:normal;font-stretch:normal;font-size:13.75px;line-height:1.25;font-family:sans-serif;-inkscape-font-specification:'Sans Bold'"
           id="flowPara12085">There is no way to <flowSpan
   style="font-style:normal;font-variant:normal;font-weight:bold;font-stretch:normal;font-family:sans-serif;-inkscape-font-specification:'Sans Bold'"
   id="flowSpan12221">reproduce</flowSpan> the environment, even on the same machine at a different point in time.</flowPara></flowRoot>      <flowRoot
         xml:space="preserve"
         id="flowRoot12061-7"
         style="font-style:normal;font-weight:normal;line-height:0.01%;font-family:sans-serif;letter-spacing:0px;word-spacing:0px;fill:#000000;fill-opacity:1;stroke:none;stroke-width:1px;stroke-linecap:butt;stroke-linejoin:miter;stroke-opacity:1"
         transform="matrix(0.66710992,0,0,0.66710992,305.01314,294.5599)"><flowRegion
           id="flowRegion12063-0"
           style="font-family:sans-serif"><rect
             id="rect12065-0"
             width="288.70551"
             height="54.789055"
             x="280.82242"
             y="355.35693"
             style="font-family:sans-serif" /></flowRegion><flowPara
           style="font-style:normal;font-variant:normal;font-weight:normal;font-stretch:normal;font-size:13.75px;line-height:1.25;font-family:sans-serif;-inkscape-font-specification:Sans"
           id="flowPara12085-9">Due to a <flowSpan
   style="font-style:normal;font-variant:normal;font-weight:bold;font-stretch:normal;font-family:sans-serif;-inkscape-font-specification:'Sans Bold'"
   id="flowSpan13123">lack of isolation</flowSpan>, the environment will change or even break when the host system changes.</flowPara></flowRoot>      <text
         xml:space="preserve"
         style="font-style:normal;font-weight:normal;font-size:8.00531864px;line-height:0%;font-family:sans-serif;letter-spacing:0px;word-spacing:0px;fill:#4e65f3;fill-opacity:1;stroke:none;stroke-width:0.66710991px;stroke-linecap:butt;stroke-linejoin:miter;stroke-opacity:1"
         x="434.37772"
         y="510.24786"
         id="text12225"><tspan
           sodipodi:role="line"
           id="tspan12227"
           x="434.37772"
           y="510.24786"
           style="font-style:normal;font-variant:normal;font-weight:normal;font-stretch:normal;font-size:26.68439674px;line-height:1.25;font-family:'League Gothic';-inkscape-font-specification:'League Gothic';fill:#4e65f3;fill-opacity:1;stroke-width:0.66710991px">ad-hoc</tspan></text>
      <text
         xml:space="preserve"
         style="font-style:normal;font-weight:normal;font-size:8.00531864px;line-height:0%;font-family:sans-serif;letter-spacing:0px;word-spacing:0px;fill:#4e65f3;fill-opacity:1;stroke:none;stroke-width:0.66710991px;stroke-linecap:butt;stroke-linejoin:miter;stroke-opacity:1"
         x="429.17819"
         y="555.5351"
         id="text12225-8"><tspan
           sodipodi:role="line"
           id="tspan12227-0"
           x="429.17819"
           y="555.5351"
           style="font-style:normal;font-variant:normal;font-weight:normal;font-stretch:normal;font-size:26.68439674px;line-height:1.25;font-family:'League Gothic';-inkscape-font-specification:'League Gothic';fill:#4e65f3;fill-opacity:1;stroke-width:0.66710991px">volatile</tspan></text>
      <flowRoot
         xml:space="preserve"
         id="flowRoot12061-7-9"
         style="font-style:normal;font-weight:normal;line-height:0.01%;font-family:sans-serif;letter-spacing:0px;word-spacing:0px;fill:#000000;fill-opacity:1;stroke:none;stroke-width:1px;stroke-linecap:butt;stroke-linejoin:miter;stroke-opacity:1"
         transform="matrix(0.66710992,0,0,0.66710992,305.01314,339.089)"><flowRegion
           id="flowRegion12063-0-2"
           style="font-family:sans-serif"><rect
             id="rect12065-0-2"
             width="289.75613"
             height="52.001575"
             x="280.82242"
             y="355.35693"
             style="font-family:sans-serif" /></flowRegion><flowPara
           style="font-style:normal;font-variant:normal;font-weight:normal;font-stretch:normal;font-size:13.75px;line-height:1.25;font-family:sans-serif;-inkscape-font-specification:Sans"
           id="flowPara12085-9-1"><flowSpan
   style="font-style:normal;font-variant:normal;font-weight:bold;font-stretch:normal;font-family:sans-serif;-inkscape-font-specification:'Sans Bold'"
   id="flowSpan13127">No safe upgrades</flowSpan> or <flowSpan
   style="font-style:normal;font-variant:normal;font-weight:bold;font-stretch:normal;font-family:sans-serif;-inkscape-font-specification:'Sans Bold'"
   id="flowSpan13129">roll-backs</flowSpan>.</flowPara><flowPara
           style="font-style:normal;font-variant:normal;font-weight:normal;font-stretch:normal;font-size:13.75px;line-height:1.25;font-family:sans-serif;-inkscape-font-specification:Sans"
           id="flowPara5042">No separation for different workflows. <flowSpan
   style="font-style:normal;font-variant:normal;font-weight:bold;font-stretch:normal;font-family:sans-serif;-inkscape-font-specification:'Sans Bold'"
   id="flowSpan13125">Unportable</flowSpan>.</flowPara></flowRoot>      <text
         xml:space="preserve"
         style="font-style:normal;font-weight:normal;font-size:8.00531864px;line-height:0%;font-family:sans-serif;letter-spacing:0px;word-spacing:0px;fill:#4e65f3;fill-opacity:1;stroke:none;stroke-width:0.66710991px;stroke-linecap:butt;stroke-linejoin:miter;stroke-opacity:1"
         x="417.49078"
         y="599.96448"
         id="text12225-8-4"><tspan
           sodipodi:role="line"
           id="tspan12227-0-4"
           x="417.49078"
           y="599.96448"
           style="font-style:normal;font-variant:normal;font-weight:normal;font-stretch:normal;font-size:26.68439674px;line-height:1.25;font-family:'League Gothic';-inkscape-font-specification:'League Gothic';fill:#4e65f3;fill-opacity:1;stroke-width:0.66710991px">primitive</tspan></text>
    </g>
  </g>
</svg>
