commit,date,git,git-rel,svn,svn-rel,other,other-rel,total
ee3ce0d71d51d0b93d91a8ef1c82e8d233a74b33,2019-05-05,1731,0.886329,201,0.102919,21,0.010753,1953
152030ffdf548527d32458c5f3fbc98700aa7e69,2019-05-12,1749,0.886917,201,0.101927,22,0.011156,1972
1d86b05618a063378d7ffc89a9b4c33dd65a760c,2019-05-19,1761,0.887601,201,0.101310,22,0.011089,1984
f3addff21c074e3f655d2108be6a21b93f598498,2019-05-26,1768,0.887996,201,0.100954,22,0.011050,1991
1a2fa342f0eac9aea5f16d0bb660fdf89bc9651e,2019-06-02,1776,0.888444,201,0.100550,22,0.011006,1999
c447eb4d1d7c222a68b1fd2397e01ff56a473e62,2019-06-10,1789,0.888723,201,0.099851,23,0.011426,2013
86c05c4465dee12f140baff107dab1816214305b,2019-06-16,1805,0.889601,201,0.099064,23,0.011336,2029
a37cbc4cbda2c1850e38bc7d14d70cc3a266a8fb,2019-06-23,1830,0.890944,201,0.097858,23,0.011198,2054
e79281be105b16153c375af5506db31fd1e32698,2019-07-03,1866,0.892823,201,0.096172,23,0.011005,2090
079c93e1c1dd93639417095000d5e56d8db62d61,2019-07-07,1879,0.893485,201,0.095578,23,0.010937,2103
041e03847beda7fd9cfb92f87db14c5b33179f29,2019-07-14,1899,0.894068,201,0.094633,24,0.011299,2124
e6df9c7e85ea48765c152b27c88ba30c50c92bb2,2019-07-21,1917,0.894958,201,0.093838,24,0.011204,2142
7e5eda0c08112963be08ebe0c62eed651749e0a1,2019-07-28,1922,0.895203,201,0.093619,24,0.011178,2147
ac6b78488faa80a83e85ee38e4a701d9c3c90c46,2019-08-04,1940,0.896074,201,0.092841,24,0.011085,2165
c91364d36cf6c8fc4c696d151eb9fca7832cf898,2019-08-11,1963,0.891867,214,0.097229,24,0.010904,2201
37d40fa509cbbe48a1d7db1291338d7ccaeae830,2019-08-18,1974,0.892405,214,0.096745,24,0.010850,2212
3d76112769d2149e81b7cc774d859469d1f1909e,2019-08-25,1995,0.893417,214,0.095835,24,0.010748,2233
1719f4f1e3aba3af60b5f7e63b8db529ef777af5,2019-09-01,2013,0.893872,215,0.095471,24,0.010657,2252
37ecf2d905e6afc555150ffe51095415a0d27b89,2019-09-08,2034,0.891714,223,0.097764,24,0.010522,2281
991c44109f92aef099b3ec50501c7cd08978c793,2019-09-15,2053,0.892609,223,0.096957,24,0.010435,2300
ee0a392fa001b3e3aea05150dd985b59fb7e5e3b,2019-09-22,2083,0.893991,223,0.095708,24,0.010300,2330
52e62bbd76b06d754f409c0f277b80e6208fe152,2019-09-29,2111,0.894492,223,0.094492,26,0.011017,2360
5a54baf67cfb91ad5062a4a061bc6d083096f9d8,2019-10-06,2122,0.894981,223,0.094053,26,0.010966,2371
b51c402f23e77a17c564a035887e55b61ef7aecf,2019-10-13,2148,0.895746,223,0.092994,27,0.011259,2398
7757f44044926d1aaa3a9520c5ee6f841d68f58e,2019-10-20,2173,0.896822,223,0.092035,27,0.011143,2423
632c6f2e6e25da2ab335a9f3592956221bc742ed,2019-11-10,2219,0.865782,223,0.087007,121,0.047210,2563
cf9dad6c87bab87bc25e80b321158b0328db0d8a,2019-11-17,2257,0.867076,224,0.086055,122,0.046869,2603
68c47474bc8bc633fa3b13610d4f700891067bbc,2019-11-24,2277,0.867759,224,0.085366,123,0.046875,2624
0b4ced58c04004a3751c8b84b10b8a92c5289ad9,2019-12-01,2309,0.869352,224,0.084337,123,0.046310,2656
add773c37a10e2c900fcfaff745e095b7fe96fbb,2019-12-08,2325,0.870135,224,0.083832,123,0.046033,2672
4fb8e2744a62a7124521f8fa7fb160fa56e5d41d,2019-12-15,2346,0.871147,224,0.083179,123,0.045674,2693
630a4b77d6c6eaa32889408331c1b79b273b24b6,2019-12-22,2364,0.872003,224,0.082626,123,0.045371,2711
34085eabccb8a0ca280f8d1605fdf369a94dd88a,2019-12-29,2384,0.872621,225,0.082357,123,0.045022,2732
85ad4ffb25c941a2a37cb4af839de9ac141c8253,2020-01-05,2428,0.874640,225,0.081052,123,0.044308,2776
8dc2af3ba541141d8320e860cec31090d5b69dc0,2020-01-12,2468,0.876420,225,0.079901,123,0.043679,2816
2d4b248857f2758f545a1399969f372d1b717f55,2020-01-19,2457,0.875936,225,0.080214,123,0.043850,2805
99b23feeb9d06f07b4a04af624a69ed12637b112,2020-01-26,2484,0.877119,225,0.079449,123,0.043432,2832
3d0c79186c6fb5346cbe20115a4fde19bc678134,2020-02-02,2505,0.878023,225,0.078864,123,0.043113,2853
5998ac14f376194d3878f918cb9e04a6ff599d77,2020-02-09,2541,0.879543,225,0.077882,123,0.042575,2889
3c6aca4232d1a3638ec962bc7afe9121626c43ec,2020-02-16,2575,0.880944,225,0.076976,123,0.042080,2923
6634b29f501764f542e3a5fc91bb691ef18b5702,2020-02-23,2595,0.881753,225,0.076453,123,0.041794,2943
1d9b4664e30ce3f79606bf1167a2fca9bf4abba2,2020-03-01,2616,0.882591,225,0.075911,123,0.041498,2964
5fdc5b2d57d2e7ab04dbaf9c85e7f34eebe81495,2020-03-08,2621,0.882789,225,0.075783,123,0.041428,2969
77386648da9c6bd0601d389ddb94ddba088d8b87,2020-03-15,2640,0.883534,225,0.075301,123,0.041165,2988
405c0c947cfd59d7bfb81052545cd635970d2d0c,2020-03-22,2659,0.883976,226,0.075133,123,0.040891,3008
07ce7ae531d58a799eec3e9113c794b717deee8f,2020-03-29,2675,0.884590,226,0.074735,123,0.040675,3024
4da6de3e675bd8c79320b40c62b93eea7378d273,2020-04-05,2730,0.886652,226,0.073400,123,0.039948,3079
1518b4bceb9955ed6d94432d651b7a2a9f3052e1,2020-04-12,2745,0.887201,226,0.073045,123,0.039754,3094
fafe2343c29bcb02fcee79558fbd8ae2ba2c1214,2020-04-19,2758,0.887673,226,0.072739,123,0.039588,3107
9b7e41f2d720b2a5da0d52dea6e2017d2851a640,2020-04-26,2778,0.887824,228,0.072867,123,0.039310,3129
1463079a2dc855df2274a2429dd48adc4d31ffdb,2020-05-03,2801,0.888360,229,0.072629,123,0.039010,3153
ccc9240664b5ecded499111ba6c5d9bbd4e7241f,2020-05-10,2829,0.888784,230,0.072259,124,0.038957,3183
d308bc01e171f327084bfaa9fe79fb31fe662669,2020-05-17,2838,0.888819,231,0.072346,124,0.038835,3193
dfc426582f7e5a34a89015663cadbad3829f55e5,2020-05-24,2857,0.889200,231,0.071895,125,0.038904,3213
776ecaaa0fb7201ae34653aa4c33e240b6d7b901,2020-05-31,2880,0.889988,231,0.071384,125,0.038628,3236
ecbde6505cd12025d7fe92c2c9a56b969ff3cb8e,2020-06-07,2891,0.890360,231,0.071143,125,0.038497,3247
d291b454bd402c88eed1464a1dfa058a2f663874,2020-06-14,2918,0.889905,231,0.070448,130,0.039646,3279
f6c6970e0dbebb7cac679f46656c2655dfe532c2,2020-06-21,2935,0.890203,231,0.070064,131,0.039733,3297
ea33de6d704f30b3c827877173c513f6fce22f1e,2020-06-28,2975,0.891519,231,0.069224,131,0.039257,3337
4cd05788b548d60154f365542fd9446ac4bcfd9f,2020-07-05,3002,0.892125,232,0.068945,131,0.038930,3365
ea4915a74bc4c03495d4910c1e32a92c790b6626,2020-07-12,3026,0.892889,232,0.068457,131,0.038654,3389
7ffec020aec9ccbc531d24e65acd93e9f3962f9f,2020-07-19,3112,0.895282,233,0.067031,131,0.037687,3476
ce9c5bb79c3208162bb87c1bcbc90464601d28ba,2020-07-26,3142,0.896178,233,0.066458,131,0.037365,3506
95c9785b428bd332644de201c7f9ac7e8f4cd72f,2020-08-02,3165,0.896855,233,0.066024,131,0.037121,3529
cb97d076491495aa956dbff93679a51cc5708010,2020-08-09,3181,0.897320,233,0.065726,131,0.036953,3545
ee3be810d6f5721dce037c5d71c823335f9a6abb,2020-08-16,3244,0.899113,233,0.064579,131,0.036308,3608
dc12a37a0d70bd56a5fac59af5a5196d6b525482,2020-08-23,3292,0.900191,234,0.063987,131,0.035822,3657
73a3085e346f7e6286acdc3e7b0ea3194ff0c317,2020-08-30,3302,0.900709,234,0.063830,130,0.035461,3666
10ba62ec63f80044c8652a9869f13585f2014ebe,2020-09-06,3320,0.900461,236,0.064009,131,0.035530,3687
a3f6f27bbc87d3ae169323a419916e50dd379790,2020-09-13,3346,0.900673,237,0.063795,132,0.035532,3715
4d82e8e5c5f7e43dbaf5d009697915717d15b155,2020-09-20,3361,0.900107,240,0.064274,133,0.035619,3734
59223c5bc6816962b95d51fb2e8b7edd91c7fa95,2020-09-27,3379,0.877662,241,0.062597,230,0.059740,3850
cdcbb42aa398f697dfe86563b98bddc3cb3d525a,2020-10-04,3382,0.899468,242,0.064362,136,0.036170,3760
34d436a4082b5c5f23b00e13eb8e5a92d957d704,2020-10-11,3396,0.899364,244,0.064619,136,0.036017,3776
4d405914ed02bd5672d5527cf4fa6e529e7faab6,2020-10-18,3420,0.900000,244,0.064211,136,0.035789,3800
2e99651911e21df580ca608889f050763305159d,2020-10-25,3440,0.899817,246,0.064347,137,0.035836,3823
f445bc65764ffad2ae9f3b382ddb8feb4eeea2fb,2020-11-01,3454,0.900182,246,0.064113,137,0.035705,3837
d4dbcb81bc6abb27217fe5ec65a584a7a08ab196,2020-11-08,3469,0.900571,246,0.063863,137,0.035566,3852
81643c4cf3e61f5a98b92a72a92c230f5e7ca905,2020-11-15,3491,0.901136,246,0.063500,137,0.035364,3874
eeee65076e3199c778b177e06de3aae7696dbb9f,2020-11-22,3515,0.901976,245,0.062869,137,0.035155,3897
60a10a11819891d3d91e371364bbdcfab2449ebe,2020-11-29,3545,0.902725,245,0.062389,137,0.034887,3927
937bc5841429f40a64e6b25d5d4c2fe3276789f1,2020-12-06,3592,0.902513,251,0.063065,137,0.034422,3980
1adeb744560af94687eb7c3780c7145c52674070,2020-12-13,3629,0.903411,251,0.062484,137,0.034105,4017
f9978346e73359ac1d8b88c9ed874edc7225582b,2020-12-20,3647,0.903841,251,0.062206,137,0.033953,4035
5aae614868b8a7e3097ae70f6024352aa5c8de21,2020-12-27,3658,0.904103,251,0.062037,137,0.033861,4046
78a9cfa33e66c5647cea66980d83f49a43e27f60,2021-01-03,3686,0.904762,251,0.061610,137,0.033628,4074
9f829da86fceb78cc6fedfd30ee42071d3e402c4,2021-01-10,3719,0.905527,251,0.061115,137,0.033358,4107
23b8af7962114d80552f09ff2adc4c2f4eabf0f5,2021-01-17,3742,0.904739,257,0.062137,137,0.033124,4136
d94f7530434fe3efd61b7d3301eff7501ae044f6,2021-01-24,3757,0.905083,257,0.061913,137,0.033004,4151
a20b4f07bf90efa21acd035d9830bd8f4bf4240d,2021-01-31,3797,0.905989,257,0.061322,137,0.032689,4191
bf645c7fb158913305a884128131d17bdf29774e,2021-02-07,3860,0.907168,257,0.060400,138,0.032432,4255
6941dbf958a2294e0a058af3498df9c46a6a1e50,2021-02-15,3876,0.907728,257,0.060187,137,0.032084,4270
c7be46b7d754cbf0d0526b5d8a9d1ecee64b6154,2021-02-21,3908,0.908204,258,0.059958,137,0.031838,4303
20b5cf8304ef2c0fd16515f289ff0d5a21c7a96f,2021-03-01,3935,0.908776,258,0.059584,137,0.031640,4330
6bf49dfa2606071fcd023f5487b7798fa2383a5e,2021-03-07,3966,0.909424,258,0.059161,137,0.031415,4361
92d0949a268fe8479af5851d5bb3733e207a5c81,2021-03-14,3996,0.909836,258,0.058743,138,0.031421,4392
ba0dc1dbc150a95746ffb89596862533e533c2c9,2021-03-21,4022,0.910367,258,0.058397,138,0.031236,4418
ac6e19b08259f2085ae4757bf4efb095fbdd23e9,2021-03-28,4043,0.910791,258,0.058121,138,0.031088,4439
dda88cda120d75f7d139e54367c0d76e574091dc,2021-04-04,4110,0.911308,262,0.058093,138,0.030599,4510
280cfe63bdd6eb4dd5460385e7918e0808ffe511,2021-04-11,4125,0.910998,265,0.058525,138,0.030477,4528
da28f04a5fa2dba2e153c3af0908ab76c98b6811,2021-04-18,4138,0.910451,269,0.059186,138,0.030363,4545
860d28da6ef850d0c191d756d0804fef03f8e778,2021-04-25,4156,0.910605,269,0.058940,139,0.030456,4564
1b792e8b5275dc010c53d91062082340431204f2,2021-05-02,4171,0.910898,269,0.058746,139,0.030356,4579
cbb704b21eb319f4943f1e01f6c2785a8b7db349,2021-05-09,4211,0.909307,281,0.060678,139,0.030015,4631
860ca285b64ea22441a72c26c4715ccfc28a5b9f,2021-05-16,4241,0.909891,281,0.060287,139,0.029822,4661
d49402ab45486347cddfd000951a69f0c872cfda,2021-05-23,4273,0.910311,281,0.059864,140,0.029825,4694
d7d6c9e4e697c33634c89628d10995d0f070db96,2021-05-30,4304,0.910899,281,0.059471,140,0.029630,4725
d1e7b50dbf58c59c100f1bf5a7ea735daa3a203f,2021-06-06,4423,0.914032,281,0.058070,135,0.027898,4839
335f7668d43f4992148fe133dfa390b81056ebc6,2021-06-13,4467,0.914994,280,0.057354,135,0.027653,4882
dcd94ee855fa03596a8e84b7cffe1344bb6206ef,2021-06-20,4527,0.916026,280,0.056657,135,0.027317,4942
1afffdaa63d34a810943aa5a6b8cc03d42cc3bd2,2021-06-27,4563,0.916817,280,0.056259,134,0.026924,4977
243d74579d2afdcad1f709909a3ac149475b3e23,2021-07-04,4585,0.917000,280,0.056000,135,0.027000,5000
5c3489a3f7f33293dfdaff23374d93a01c838968,2021-07-11,4624,0.917460,281,0.055754,135,0.026786,5040
59d20bcfcc92e51fb451001ed52b21f6daf8013c,2021-07-18,4635,0.917640,281,0.055633,135,0.026727,5051
45881ea747bbff8f4819100264f70958f454090f,2021-07-25,4662,0.918078,281,0.055337,135,0.026585,5078
c8bcef2598c9cee91f2f48d78259c53bdaf27a60,2021-08-01,4688,0.918495,281,0.055055,135,0.026450,5104
aa816708b278cafd86b11c3f3ddcdf7b9930713e,2021-08-08,4713,0.918893,281,0.054787,135,0.026321,5129
ee467c853a184a7768ac171840357afde49c10e3,2021-08-15,4732,0.919192,281,0.054584,135,0.026224,5148
9e3b68203cba2b1bd96e524d3ae9dfc3336a72f7,2021-08-22,4756,0.919567,281,0.054331,135,0.026102,5172
0bc5448cf14c2f61eb591d47a5422fda638f08fc,2021-08-29,4770,0.919784,281,0.054184,135,0.026032,5186
19c3ca02073ea4d540d98a7bfafbed744f1cb637,2021-09-05,4789,0.919900,282,0.054168,135,0.025932,5206
ca23fd62f17fefcbac2aa48b4718245ab0209032,2021-09-12,4796,0.920008,282,0.054096,135,0.025897,5213
68fc1b405e6502dcd73e765d0822ad6208886310,2021-09-19,4809,0.920207,282,0.053961,135,0.025832,5226
47140fbf7217014e8811d30990b78a9fa888df45,2021-09-26,4829,0.920511,282,0.053755,135,0.025734,5246
080ba97652b471c4836dd7e37f4dc72e5e358870,2021-10-03,4854,0.920888,282,0.053500,135,0.025612,5271
7c3f28fdc4edc00f66801cd51a5ba08eee44f77f,2021-10-10,4867,0.921083,282,0.053369,135,0.025549,5284
258a27eea9aab4f8af995f95743ccd264b5efcb5,2021-10-17,4912,0.921749,282,0.052918,135,0.025333,5329
9c3b2cf0b3328a08d026dbbf4fea4c26eafc67ef,2021-10-24,4937,0.922114,282,0.052671,135,0.025215,5354
9f2c5e901e988b575d487629976d2d14be4ed61d,2021-10-31,4948,0.905564,282,0.051611,234,0.042826,5464
b11badfb4cd8124f2f467697cf2a4d15e7f20b19,2021-11-07,4956,0.905702,282,0.051535,234,0.042763,5472
7f7f739e235548ec2f9337b0ec1ef976a1437b30,2021-11-14,4970,0.905777,283,0.051576,234,0.042646,5487
348f1f7cb5e0a37f66268c4204777238f26ae947,2021-11-21,5015,0.905889,287,0.051842,234,0.042269,5536
f43a7838716b80e439d1d94c00da6880d6f2893f,2021-11-28,5041,0.906329,287,0.051600,234,0.042071,5562
030d9b261fc81cf8047cc8f4dfd1f8e59e1fd3b7,2021-12-05,5069,0.922811,287,0.052248,137,0.024941,5493
ab82bed5d14a57d95d278646efe9f930d12fc2ff,2021-12-12,5093,0.922979,287,0.052012,138,0.025009,5518
2607ff0b9c72f032da4f6bc6644c671f0553178e,2021-12-19,5135,0.917456,324,0.057888,138,0.024656,5597
fb95b755e2adfda90d4c8568e0d2c5eacea35d42,2021-12-30,5169,0.918770,326,0.057945,131,0.023285,5626
2c6dfeac6459901b500a81a1d733a48993792a11,2022-01-02,5197,0.919172,326,0.057658,131,0.023169,5654
195bb1fb9d55d8e5187d669c63a3cde747fc5f64,2022-01-09,5206,0.919301,326,0.057567,131,0.023133,5663
0891ac16d0c7eec2c5f0dfddfcc90f92927c8d96,2022-01-16,5268,0.920175,326,0.056943,131,0.022882,5725
d25a4e49d7c908ac6c2ae46b36778b5930ffbbf3,2022-01-23,5298,0.920271,328,0.056974,131,0.022755,5757
090e92581611bab97cfdc0b45cc224a3b3736beb,2022-01-30,5329,0.919269,337,0.058134,131,0.022598,5797
7c9ad54b0616112c7eea6dd02379616aef206490,2022-02-06,5348,0.919532,337,0.057944,131,0.022524,5816
9749fb2c3f2eb6e816d68bb9ed8ad29fea46ef2d,2022-02-13,5382,0.920000,337,0.057607,131,0.022393,5850
1a8b7257a6d657f145520ed67e2faa6f6174a84b,2022-02-20,5396,0.919877,339,0.057791,131,0.022332,5866
31ecd80db714abfc3ef536b458fc4c1ed778d3c6,2022-02-27,5409,0.920054,339,0.057663,131,0.022283,5879
78ff328d25eee0c75305efed58484ac2381e1766,2022-03-06,5503,0.921313,339,0.056755,131,0.021932,5973
1a36fb51a84fadf578151c614da9c9e420bbdff2,2022-03-13,5519,0.921523,339,0.056604,131,0.021873,5989
0d216771704bb93f72a0ef4d22f7af52df97b5de,2022-03-20,5531,0.921680,339,0.056491,131,0.021830,6001
2344fb10972a4cefead8e7aa3e0b807da4cf4570,2022-03-27,5536,0.921745,339,0.056444,131,0.021812,6006
7902d17bc877993936ae0c575bca3bac5d2e1f7f,2022-04-03,5542,0.921823,339,0.056387,131,0.021790,6012
2299d2c896cbd865a7f27d83f793c783e1211dfe,2022-04-10,5554,0.921979,339,0.056275,131,0.021746,6024
e5174200c4d78358e22e889da2b53dc06c202003,2022-04-17,5581,0.922327,339,0.056024,131,0.021649,6051
d13c7e905c0cd4ecc47df5b160b76d60a7639559,2022-04-24,5592,0.922468,339,0.055922,131,0.021610,6062
7b9ee58925406f5d608fca06db5479e16970dc91,2022-05-01,5602,0.922596,339,0.055830,131,0.021574,6072
fc7fc13716c9be03e2123b09d629c2e5e1328330,2022-05-08,5610,0.922546,340,0.055912,131,0.021543,6081
de68877a517ba058f67086d444d7265c9c803679,2022-05-15,5651,0.920808,354,0.057683,132,0.021509,6137
ad07af353877f8f438d92b04eeb4955f077ca499,2022-05-22,5687,0.921270,354,0.057347,132,0.021383,6173
926fcb488b756fb5d6c4c129c4348650919e5835,2022-05-29,5697,0.921397,354,0.057254,132,0.021349,6183
62da327848311a75723f16642c20d2925919237e,2022-06-05,5695,0.921223,354,0.057263,133,0.021514,6182
75eae3fd78abe3037b0e831958cfa667cc87f0b8,2022-06-12,5713,0.921452,354,0.057097,133,0.021452,6200
77db24ff5ba50c1169642a849211d558668487aa,2022-06-19,5732,0.921543,355,0.057074,133,0.021383,6220
08a2a72a124f21fffaee45d0c71aa34cf49b8d70,2022-06-26,5753,0.921660,356,0.057033,133,0.021307,6242
c145e51844bf52eb77cdc969a0fe30a48755b29e,2022-07-03,5799,0.921354,362,0.057515,133,0.021131,6294
13c73ccd902c55ef859cf2b8a5f96d93007892d8,2022-07-10,5818,0.921444,363,0.057491,133,0.021064,6314
8d7fdbe261e32a63df8c47f06b1a43095b6084c7,2022-07-17,5825,0.921386,364,0.057577,133,0.021038,6322
c5a80784e2a08f676e2f49cbdab1f81db8d7dbb6,2022-07-24,5845,0.921343,366,0.057692,133,0.020965,6344
0565cde6892c4fcc503a86227e366d3500040076,2022-07-31,5849,0.921393,366,0.057656,133,0.020951,6348
bb5afc5b9ebcea94bc083f14fbc83cab9f86adfe,2022-08-07,5887,0.919269,384,0.059963,133,0.020768,6404
ca8c7a36dfbefd66841a2a6df4c9e44ba525c3e0,2022-08-14,5914,0.919465,385,0.059857,133,0.020678,6432
b8f2eb286ec52c97048e23d326d94ae5772797e8,2022-08-21,5927,0.919628,385,0.059736,133,0.020636,6445
8df29c26ba184874561c67e48f69fd3526156516,2022-08-28,5952,0.919938,385,0.059505,133,0.020556,6470
13cc34188ab4bde31f8c74d25d40d9adffbaa582,2022-09-04,5975,0.919938,387,0.059584,133,0.020477,6495
072cc8d1415a2abf66b36249c61658a828dead88,2022-09-11,6020,0.918944,397,0.060601,134,0.020455,6551
373731737fbe082e5e684eae78629df16e3fd61b,2022-09-18,6042,0.919215,397,0.060399,134,0.020386,6573
2e0fa826c9a7bbb159fb4fae38a7de10fe66d8bc,2022-09-25,6073,0.905877,399,0.059517,232,0.034606,6704
ae221813745783ef1b7eee47561a2208cd5ad512,2022-10-02,6095,0.919306,401,0.060483,134,0.020211,6630
79358a99cd46a27fdc716309ccee2596483ab9af,2022-10-09,6116,0.919285,403,0.060574,134,0.020141,6653
270eb27b20b4d1e024553a017f479556ee0b8ded,2022-10-16,6146,0.919234,406,0.060724,134,0.020042,6686
dbc9a9a81b3e2c55cf16d8d7f59fab88163cdb8b,2022-10-23,6165,0.919600,406,0.060561,133,0.019839,6704
63bf06013820aa26aca7dc8f18cb79403b94e9a5,2022-10-30,6180,0.919780,406,0.060426,133,0.019795,6719
a6c90c293d5b0c77d3e1e967546fe0aadc53a102,2022-11-06,6211,0.920148,406,0.060148,133,0.019704,6750
c4025af8c11c3e9ea0c2747b6c475c916fb61d80,2022-11-13,6224,0.920302,406,0.060033,133,0.019666,6763
ac09fcb955e9358c330d728693759ca1a2e20542,2022-11-20,6267,0.920940,406,0.059662,132,0.019398,6805
c4618ca13f1cefeb1dbfe619ca09f32925b84732,2022-11-27,6351,0.921771,407,0.059071,132,0.019158,6890
a4d52f07d7fd0e4d9997b3021192685d4a3b0b71,2022-12-04,6390,0.922211,407,0.058739,132,0.019050,6929
0ce1f82e5aaac951b21d579eb46bf75cfe6713c0,2022-12-11,6411,0.922446,407,0.058561,132,0.018993,6950
2472015c36f333657c5a223150e3e809f01ad1af,2022-12-18,6436,0.922724,407,0.058351,132,0.018925,6975
860e949896b1a9ae5427f4cf9fa690fdcaae48a0,2022-12-25,6471,0.923110,407,0.058060,132,0.018830,7010
87cc524f52b65f7f12c9b87d25b467772e357cab,2023-01-01,6486,0.923274,407,0.057936,132,0.018790,7025
db3fdbbdfee9d412053cc9538ad76abee7c2cb89,2023-01-08,6502,0.923448,407,0.057804,132,0.018747,7041
a98145ec04d5c3f8f2ef430555cde5eccfbd3875,2023-01-15,6527,0.923719,407,0.057600,132,0.018681,7066
bbc8f4c29ed9efc1240c3d153fb234d7a79930fd,2023-01-22,6544,0.923902,407,0.057462,132,0.018636,7083
bea22409682f6d1947de7d92f264aad822c2e68c,2023-01-29,6560,0.924074,407,0.057332,132,0.018594,7099
139c9a53cb19a97947aa6998eae953a4f32d3c3e,2023-02-05,6583,0.924319,407,0.057147,132,0.018534,7122
4a6f64ab2afff761eb233e7ca6110d9e8acf8f32,2023-02-12,6613,0.924636,407,0.056907,132,0.018456,7152
877df1765ad8440c81293f4943d1f4f44485ba0f,2023-02-19,6696,0.925373,407,0.056247,133,0.018380,7236
a7c7363a825e176ae25f5f69cacfff0880b23e80,2023-02-26,6713,0.924910,411,0.056627,134,0.018462,7258
d92ec2f2812c76b23aab778e26708cf353542ae9,2023-03-05,6760,0.925520,411,0.056271,133,0.018209,7304
7001cc68b6d5785a8dd6aa202d4acbb2ea9364e5,2023-03-12,6781,0.925734,411,0.056109,133,0.018157,7325
d7b4ecdb4c1a845690d943f8b8d883e065081eb9,2023-03-19,6805,0.925598,412,0.056039,135,0.018362,7352
9b58148641262b014356353ebe418c68011be029,2023-03-26,6840,0.925826,413,0.055901,135,0.018273,7388
f0c8cb44a4d912263025616bc921c011fcb1f0b4,2023-04-02,6952,0.926069,420,0.055948,135,0.017983,7507
c0a19ef082327cb63b8afbadea784dcbb4f6bf5d,2023-04-09,6970,0.926123,421,0.055939,135,0.017938,7526
2d25ea429c359d14955ee44baeeb5778cc56cc7d,2023-04-16,6991,0.926328,421,0.055784,135,0.017888,7547
4502de61f24a5d50a2eb8fdd073162fb939b1e2e,2023-04-23,7005,0.926097,424,0.056055,135,0.017848,7564
3b3c7ef1f74d15471da482ca9b3720020c9f85f1,2023-04-30,7047,0.926749,422,0.055497,135,0.017754,7604
ed0f0204b2c901be006a8441ea4d392a89aba77e,2023-05-07,7059,0.926743,423,0.055534,135,0.017724,7617
5585fbbfd06b4be6d6286d89c705ede1dec090d5,2023-05-14,7079,0.926935,423,0.055388,135,0.017677,7637
7b3f571fc8e3fbb3fefc30ebe53ad074c30653a8,2023-05-21,7087,0.927011,423,0.055330,135,0.017659,7645
5c959d0fa745618ebee337ac2a21d22a6ec3a6a8,2023-05-28,7094,0.927078,423,0.055280,135,0.017642,7652
65bce4d9f9302bc798717d73548bbe5ceb802151,2023-06-04,7108,0.927211,423,0.055179,135,0.017610,7666
e8c207589d431c00b5f1a8175f391020323a3d27,2023-06-11,7127,0.927391,423,0.055042,135,0.017567,7685
0d165fba93f69b3d3f53478d0f0c6c7a58778e7e,2023-06-18,7138,0.927495,423,0.054964,135,0.017542,7696
01d5d6807f1026bf2fea1846a156e3e09f84c098,2023-06-25,7152,0.927626,423,0.054864,135,0.017510,7710
a919a16898e7219fdd26bdfe33a9959e7156d59d,2023-07-02,7188,0.927963,423,0.054609,135,0.017428,7746
2986ba899f5ee374008c501e26fb653147ed7891,2023-07-09,7205,0.928121,423,0.054489,135,0.017390,7763
093e9204183790558921c968034c547b41ebef3a,2023-07-16,7243,0.928471,423,0.054224,135,0.017305,7801
fdfea4c4ed0d31494fcb3633c26290f4eba9d2af,2023-07-23,7251,0.850657,1138,0.133505,135,0.015838,8524
6b903e210462f7c1e428e0ded7e690d315e1f7a1,2023-07-30,7266,0.850919,1138,0.133271,135,0.015810,8539
a21eb92b855f91e12d3161dc8fc5c8a4e17ee951,2023-08-06,7280,0.827461,1383,0.157195,135,0.015344,8798
19c042ddf80533ba7a615b424dedf9647ca65b0f,2023-08-13,7292,0.806102,1619,0.178974,135,0.014924,9046
95a1a819dffa833bdd7a47f272da7ee4ff3260c8,2023-08-20,7300,0.750257,2295,0.235868,135,0.013875,9730
28fdf6cc16aee56fdc17a31701b90ace6e512481,2023-08-27,7308,0.706907,2895,0.280035,135,0.013059,10338
9d2e6323775371ab0ccaec0fc1df3b50335c41ea,2023-09-03,7332,0.629518,4179,0.358805,136,0.011677,11647
2eb6df537c36da8bf8e81ff698421f6fb1bfd1ab,2023-09-10,7359,0.630375,4179,0.357975,136,0.011650,11674
9b78699744b0c4c8af28820cc4f0d59b9d317ead,2023-09-17,7366,0.630597,4179,0.357760,136,0.011643,11681
35fd25af9bbcce84908101a9f487ba106a8d6df7,2023-09-24,7376,0.630913,4179,0.357454,136,0.011633,11691
337dbf6867597b6e3b72b0bdb2152a42a9f41dbc,2023-10-01,7400,0.626269,4179,0.353673,237,0.020058,11816
f4e8baf3806e79d7111d2943859865ae4ee0b59d,2023-10-10,7424,0.627027,4179,0.352956,237,0.020017,11840
d2923babf3ac44cb6faa88317f77c98f3016820d,2023-10-15,7435,0.627373,4179,0.352628,237,0.019998,11851
8ca7ccbf0dad63d75637ffdc6a5105eb9a4a4673,2023-10-22,7450,0.627950,4179,0.352242,235,0.019808,11864
c03a44f7555768fcb8614883eb06b11b759ba1ca,2023-10-29,7465,0.628420,4179,0.351797,235,0.019783,11879
482685697719386ca3505e8beca2398f93aff08f,2023-11-05,7472,0.628639,4179,0.351590,235,0.019771,11886
09b19cf8dabdcfeb7a79b0d69c46febf68a53639,2023-11-12,7479,0.628857,4179,0.351383,235,0.019760,11893
b7abea0fd6a146563830db1dc4ddd0cceb6fcf1c,2023-11-19,7482,0.628951,4179,0.351295,235,0.019755,11896
513bf164592e2b44e3e556cc5099a19bd6977790,2023-11-26,7513,0.629915,4179,0.350381,235,0.019703,11927
2c9ac9ab20c76abe570ff83f8746fa089fea3047,2023-12-03,7520,0.630132,4179,0.350176,235,0.019692,11934
2e11caff39d502775d7c652972a441f5da3d9eec,2023-12-10,7532,0.630504,4179,0.349824,235,0.019672,11946
6ab242609daec00e8bd54f7bff54557c92695724,2023-12-17,7553,0.631152,4179,0.349210,235,0.019637,11967
0d13d095420861022e68e87ceebd5e037e12a8b3,2023-12-24,7560,0.631368,4179,0.349006,235,0.019626,11974
9d148d08be9d77781e8103915b1f498b03fd3dd2,2023-12-31,7531,0.630473,4179,0.349853,235,0.019674,11945
25bcf4eda05b501758b11a53823867dc500ac7d1,2024-01-07,7552,0.631122,4179,0.349240,235,0.019639,11966
