%!PS-Adobe-3.0 EPSF-3.0
%%Creator: cairo 1.14.10 (http://cairographics.org)
%%CreationDate: Mon Oct  1 09:31:17 2018
%%Pages: 1
%%DocumentData: Clean7Bit
%%LanguageLevel: 3
%%BoundingBox: 0 -1 185 64
%%EndComments
%%BeginProlog
save
50 dict begin
/q { gsave } bind def
/Q { grestore } bind def
/cm { 6 array astore concat } bind def
/w { setlinewidth } bind def
/J { setlinecap } bind def
/j { setlinejoin } bind def
/M { setmiterlimit } bind def
/d { setdash } bind def
/m { moveto } bind def
/l { lineto } bind def
/c { curveto } bind def
/h { closepath } bind def
/re { exch dup neg 3 1 roll 5 3 roll moveto 0 rlineto
      0 exch rlineto 0 rlineto closepath } bind def
/S { stroke } bind def
/f { fill } bind def
/f* { eofill } bind def
/n { newpath } bind def
/W { clip } bind def
/W* { eoclip } bind def
/BT { } bind def
/ET { } bind def
/pdfmark where { pop globaldict /?pdfmark /exec load put }
    { globaldict begin /?pdfmark /pop load def /pdfmark
    /cleartomark load def end } ifelse
/BDC { mark 3 1 roll /BDC pdfmark } bind def
/EMC { mark /EMC pdfmark } bind def
/cairo_store_point { /cairo_point_y exch def /cairo_point_x exch def } def
/Tj { show currentpoint cairo_store_point } bind def
/TJ {
  {
    dup
    type /stringtype eq
    { show } { -0.001 mul 0 cairo_font_matrix dtransform rmoveto } ifelse
  } forall
  currentpoint cairo_store_point
} bind def
/cairo_selectfont { cairo_font_matrix aload pop pop pop 0 0 6 array astore
    cairo_font exch selectfont cairo_point_x cairo_point_y moveto } bind def
/Tf { pop /cairo_font exch def /cairo_font_matrix where
      { pop cairo_selectfont } if } bind def
/Td { matrix translate cairo_font_matrix matrix concatmatrix dup
      /cairo_font_matrix exch def dup 4 get exch 5 get cairo_store_point
      /cairo_font where { pop cairo_selectfont } if } bind def
/Tm { 2 copy 8 2 roll 6 array astore /cairo_font_matrix exch def
      cairo_store_point /cairo_font where { pop cairo_selectfont } if } bind def
/g { setgray } bind def
/rg { setrgbcolor } bind def
/d1 { setcachedevice } bind def
/cairo_flush_ascii85_file { cairo_ascii85_file status { cairo_ascii85_file flushfile } if } def
/cairo_image { image cairo_flush_ascii85_file } def
/cairo_imagemask { imagemask cairo_flush_ascii85_file } def
%%EndProlog
%%BeginSetup
%%EndSetup
%%Page: 1 1
%%BeginPageSetup
%%PageBoundingBox: 0 -1 185 64
%%EndPageSetup
q 0 -1 185 65 rectclip q
1 0.74902 0.176471 rg
101.789 63.496 m 100.711 61.52 99.613 59.91 98.492 58.645 c 97.414 57.414
 96.223 56.43 94.918 55.684 c 93.648 54.977 92.211 54.465 90.609 54.168 
c 89.043 53.906 87.246 53.773 85.195 53.773 c 83.684 53.773 82.324 53.852
 81.133 54 c 81.129 54 81.117 54 81.113 54 c 80.961 54.008 80.648 54.062
 80.328 54.113 c 79.988 54.164 79.641 54.215 79.09 54.316 c 69.043 56.176
 65.707 49.199 64.988 47.277 c 64.875 46.973 64.82 46.789 64.82 46.789 c
 52.609 12.738 l 45.117 0.004 l 60.082 0.004 l 66.227 13.688 72.137 42.262
 78.453 44.785 c 79.824 44.594 81.52 44.504 83.566 44.504 c 86.25 44.504
 88.652 44.824 90.777 45.496 c 92.902 46.168 94.812 47.207 96.527 48.625
 c 98.242 50.078 99.793 51.93 101.172 54.168 c 102.59 56.402 103.93 59.09
 105.199 62.223 c h
101.789 63.496 m f
Q q
77 63.5 29 -20 re W n
101.789 63.492 m 100.707 61.52 99.613 59.91 98.492 58.645 c 97.414 57.414
 96.219 56.43 94.914 55.684 c 94.602 55.508 94.277 55.348 93.945 55.199 
c 93.941 55.199 93.938 55.191 93.934 55.191 c 93.516 54.895 92.973 54.641
 92.238 54.465 c 83.77 52.449 78 44.898 77.457 44.172 c 77.703 44.371 77.949
 44.535 78.199 44.664 c 78.234 44.684 78.27 44.699 78.309 44.719 c 78.312
 44.719 78.32 44.727 78.324 44.727 c 78.367 44.746 78.414 44.766 78.457 
44.785 c 79.824 44.59 81.523 44.5 83.566 44.5 c 86.25 44.5 88.652 44.824
 90.777 45.496 c 92.902 46.168 94.812 47.207 96.527 48.621 c 98.242 50.074
 99.793 51.93 101.172 54.168 c 102.59 56.402 103.934 59.09 105.199 62.223
 c h
101.789 63.492 m W n
q
77 63.5 29 -20 re W n
[ 1 0 0 1 0 -0.5 ] concat
  q
q
101.789 63.992 m 100.707 62.02 99.613 60.41 98.492 59.145 c 97.414 57.914
 96.219 56.93 94.914 56.184 c 94.602 56.008 94.277 55.848 93.945 55.699 
c 93.941 55.699 93.938 55.691 93.934 55.691 c 93.516 55.395 92.973 55.141
 92.238 54.965 c 83.77 52.949 78 45.398 77.457 44.672 c 77.703 44.871 77.949
 45.035 78.199 45.164 c 78.234 45.184 78.27 45.199 78.309 45.219 c 78.312
 45.219 78.32 45.227 78.324 45.227 c 78.367 45.246 78.414 45.266 78.457 
45.285 c 79.824 45.09 81.523 45 83.566 45 c 86.25 45 88.652 45.324 90.777
 45.996 c 92.902 46.668 94.812 47.707 96.527 49.121 c 98.242 50.574 99.793
 52.43 101.172 54.668 c 102.59 56.902 103.934 59.59 105.199 62.723 c h
101.789 63.992 m W n
[0.599312 0 0 -0.599312 -8.258654 92.461508] concat
/CairoFunction
   << /FunctionType 2
      /Domain [ 0 1 ]
      /C0 [ 0.890196 0.27451 0.27451 ]
      /C1 [ 1 0.74902 0.176471 ]
      /N 1
   >>
def
   << /ShadingType 2
      /ColorSpace /DeviceRGB
      /Coords [ 142.96875 63.65625 176.604767 70.667412 ]
      /Extend [ true true ]
      /Function CairoFunction
   >>
shfill
Q
  Q
Q
Q q
1 0.74902 0.176471 rg
3.41 63.496 m 4.488 61.52 5.586 59.91 6.707 58.645 c 7.785 57.414 8.977
 56.43 10.281 55.684 c 11.551 54.977 12.988 54.465 14.59 54.168 c 16.156
 53.906 17.953 53.773 20.004 53.773 c 21.516 53.773 22.875 53.852 24.066
 54 c 24.07 54 24.082 54 24.086 54 c 24.238 54.008 24.551 54.062 24.871 
54.113 c 25.211 54.164 25.559 54.215 26.109 54.316 c 36.156 56.176 39.492
 49.199 40.211 47.277 c 40.324 46.973 40.379 46.789 40.379 46.789 c 52.59
 12.738 l 60.082 0.004 l 45.117 0.004 l 38.973 13.688 33.062 42.262 26.746
 44.785 c 25.375 44.594 23.68 44.504 21.633 44.504 c 18.949 44.504 16.547
 44.824 14.422 45.496 c 12.297 46.168 10.387 47.207 8.672 48.625 c 6.957
 50.078 5.406 51.93 4.027 54.168 c 2.609 56.402 1.27 59.09 0 62.223 c h
3.41 63.496 m f
Q q
0 63.5 59 -64 re W n
3.41 63.496 m 4.488 61.52 5.586 59.91 6.703 58.645 c 7.785 57.414 8.977
 56.43 10.281 55.684 c 11.551 54.977 12.988 54.465 14.59 54.168 c 16.156
 53.906 17.953 53.773 20.004 53.773 c 21.516 53.773 22.871 53.852 24.066
 54 c 24.07 54 24.078 54 24.086 54 c 24.234 54.012 24.547 54.062 24.871 
54.113 c 25.211 54.164 25.559 54.215 26.109 54.316 c 36.156 56.176 39.488
 49.199 40.211 47.277 c 40.324 46.977 40.379 46.789 40.379 46.789 c 52.59
 12.742 l 58.883 0.004 l 45.117 0.004 l 38.973 13.688 33.062 42.262 26.746
 44.785 c 25.375 44.594 23.676 44.504 21.633 44.504 c 18.949 44.504 16.547
 44.824 14.422 45.496 c 12.297 46.168 10.387 47.207 8.672 48.625 c 6.957
 50.078 5.406 51.934 4.027 54.168 c 2.609 56.402 1.266 59.09 0 62.223 c 
h
3.41 63.496 m W n
q
0 63.5 59 -64 re W n
[ 1 0 0 1 0 -0.5 ] concat
  q
q
3.41 63.996 m 4.488 62.02 5.586 60.41 6.703 59.145 c 7.785 57.914 8.977
 56.93 10.281 56.184 c 11.551 55.477 12.988 54.965 14.59 54.668 c 16.156
 54.406 17.953 54.273 20.004 54.273 c 21.516 54.273 22.871 54.352 24.066
 54.5 c 24.07 54.5 24.078 54.5 24.086 54.5 c 24.234 54.512 24.547 54.562
 24.871 54.613 c 25.211 54.664 25.559 54.715 26.109 54.816 c 36.156 56.676
 39.488 49.699 40.211 47.777 c 40.324 47.477 40.379 47.289 40.379 47.289
 c 52.59 13.242 l 58.883 0.504 l 45.117 0.504 l 38.973 14.188 33.062 42.762
 26.746 45.285 c 25.375 45.094 23.676 45.004 21.633 45.004 c 18.949 45.004
 16.547 45.324 14.422 45.996 c 12.297 46.668 10.387 47.707 8.672 49.125 
c 6.957 50.578 5.406 52.434 4.027 54.668 c 2.609 56.902 1.266 59.59 0 62.723
 c h
3.41 63.996 m W n
[0.599312 0 0 -0.599312 -8.278026 603.293107] concat
/CairoFunction
   << /FunctionType 2
      /Domain [ 0 1 ]
      /C0 [ 0.890196 0.27451 0.27451 ]
      /C1 [ 1 0.74902 0.176471 ]
      /N 1
   >>
def
   << /ShadingType 2
      /ColorSpace /DeviceRGB
      /Coords [ 113.514603 1004.803284 78.000107 922.071777 ]
      /Extend [ true true ]
      /Function CairoFunction
   >>
shfill
Q
  Q
Q
Q q
45 13.5 16 -14 re W n
52.586 12.746 m 45.125 0.004 l 60.082 0.004 l W n
q
45 13.5 16 -14 re W n
[ 1 0 0 1 0 -0.5 ] concat
  q
q
52.586 13.246 m 45.125 0.504 l 60.082 0.504 l W n
[-0.335594 0 0 -0.335594 86.287438 351.768063] concat
/CairoFunction
   << /FunctionType 2
      /Domain [ 0 1 ]
      /C0 [ 1 0.713726 0.219608 ]
      /C1 [ 0.941176 0.682353 0.14902 ]
      /N 1
   >>
def
   << /ShadingType 2
      /ColorSpace /DeviceRGB
      /Coords [ 108.087738 1025.708984 80.655251 1043.708984 ]
      /Extend [ true true ]
      /Function CairoFunction
   >>
shfill
Q
  Q
Q
Q q
0 63.5 28 -20 re W n
3.41 63.492 m 0 62.223 l 0.398 61.242 0.801 60.309 1.211 59.418 c 1.293
 59.238 1.375 59.062 1.457 58.887 c 1.539 58.715 1.625 58.543 1.707 58.371
 c 1.734 58.316 1.762 58.262 1.793 58.203 c 1.93 57.922 2.066 57.641 2.207
 57.363 c 2.211 57.363 2.211 57.363 2.211 57.363 c 2.297 57.203 2.379 57.039
 2.465 56.879 c 2.805 56.234 3.148 55.621 3.5 55.031 c 3.586 54.887 3.672
 54.742 3.762 54.602 c 3.797 54.543 3.828 54.488 3.863 54.434 c 3.918 54.348
 3.973 54.258 4.027 54.172 c 4.113 54.035 4.199 53.895 4.285 53.758 c 4.426
 53.539 4.57 53.328 4.715 53.117 c 4.75 53.062 4.785 53.012 4.82 52.957 
c 4.91 52.824 5 52.695 5.094 52.57 c 5.277 52.312 5.461 52.062 5.648 51.82
 c 5.746 51.699 5.84 51.578 5.934 51.461 c 6.125 51.223 6.32 50.992 6.516
 50.766 c 6.664 50.598 6.816 50.43 6.969 50.266 c 7.016 50.215 7.062 50.164
 7.113 50.109 c 7.316 49.898 7.52 49.691 7.727 49.488 c 7.828 49.391 7.93
 49.293 8.035 49.195 c 8.141 49.098 8.246 49 8.352 48.906 c 8.457 48.812
 8.562 48.723 8.672 48.633 c 8.992 48.367 9.32 48.113 9.656 47.875 c 10.551
 47.234 11.496 46.691 12.492 46.242 c 12.617 46.184 12.738 46.129 12.867
 46.074 c 13.121 45.969 13.375 45.867 13.637 45.77 c 13.766 45.723 13.895
 45.68 14.023 45.633 c 14.156 45.59 14.289 45.547 14.422 45.504 c 14.555
 45.461 14.688 45.422 14.82 45.383 c 15.094 45.305 15.367 45.23 15.645 45.16
 c 15.785 45.129 15.926 45.098 16.066 45.066 c 16.207 45.035 16.352 45.004
 16.492 44.977 c 16.637 44.945 16.781 44.922 16.93 44.895 c 17.219 44.844
 17.516 44.797 17.816 44.754 c 18.266 44.695 18.727 44.641 19.199 44.605
 c 19.512 44.578 19.828 44.559 20.152 44.543 c 20.473 44.527 20.801 44.52
 21.133 44.516 c 21.297 44.516 21.465 44.516 21.633 44.516 c 21.887 44.516
 22.137 44.516 22.383 44.516 c 22.875 44.523 23.34 44.531 23.789 44.551 
c 24.012 44.559 24.23 44.566 24.441 44.578 c 24.652 44.59 24.863 44.605 
25.066 44.617 c 25.672 44.664 26.23 44.719 26.746 44.789 c 26.789 44.773
 26.832 44.754 26.875 44.734 c 26.883 44.734 26.887 44.727 26.891 44.727
 c 26.93 44.707 26.965 44.691 27.004 44.672 c 27.25 44.543 27.496 44.379
 27.742 44.176 c 27.203 44.906 21.434 52.453 12.961 54.473 c 12.227 54.645
 11.688 54.902 11.266 55.195 c 11.262 55.195 11.258 55.203 11.258 55.203
 c 10.922 55.355 10.598 55.516 10.285 55.691 c 10.285 55.691 10.281 55.691
 10.281 55.691 c 10.199 55.738 10.121 55.785 10.039 55.836 c 10.039 55.836
 10.039 55.832 10.039 55.836 c 9.957 55.883 9.879 55.934 9.801 55.98 c 9.641
 56.082 9.48 56.188 9.324 56.297 c 9.246 56.348 9.168 56.406 9.09 56.461
 c 8.938 56.574 8.785 56.688 8.633 56.809 c 8.559 56.867 8.484 56.926 8.41
 56.988 c 8.336 57.051 8.262 57.113 8.188 57.176 c 8.113 57.242 8.043 57.305
 7.969 57.371 c 7.605 57.699 7.25 58.047 6.91 58.422 c 6.84 58.496 6.77 
58.574 6.703 58.652 c 6.453 58.934 6.207 59.23 5.961 59.547 c 5.93 59.586
 5.902 59.629 5.871 59.668 c 5.801 59.758 5.73 59.848 5.66 59.941 c 5.316
 60.402 4.973 60.902 4.633 61.434 c 4.496 61.648 4.359 61.867 4.223 62.09
 c 4.156 62.203 4.086 62.312 4.02 62.43 c 3.816 62.773 3.613 63.129 3.41
 63.5 c h
3.41 63.492 m W n
q
0 63.5 28 -20 re W n
[ 1 0 0 1 0 -0.5 ] concat
  q
q
3.41 63.992 m 0 62.723 l 0.398 61.742 0.801 60.809 1.211 59.918 c 1.293
 59.738 1.375 59.562 1.457 59.387 c 1.539 59.215 1.625 59.043 1.707 58.871
 c 1.734 58.816 1.762 58.762 1.793 58.703 c 1.93 58.422 2.066 58.141 2.207
 57.863 c 2.211 57.863 2.211 57.863 2.211 57.863 c 2.297 57.703 2.379 57.539
 2.465 57.379 c 2.805 56.734 3.148 56.121 3.5 55.531 c 3.586 55.387 3.672
 55.242 3.762 55.102 c 3.797 55.043 3.828 54.988 3.863 54.934 c 3.918 54.848
 3.973 54.758 4.027 54.672 c 4.113 54.535 4.199 54.395 4.285 54.258 c 4.426
 54.039 4.57 53.828 4.715 53.617 c 4.75 53.562 4.785 53.512 4.82 53.457 
c 4.91 53.324 5 53.195 5.094 53.07 c 5.277 52.812 5.461 52.562 5.648 52.32
 c 5.746 52.199 5.84 52.078 5.934 51.961 c 6.125 51.723 6.32 51.492 6.516
 51.266 c 6.664 51.098 6.816 50.93 6.969 50.766 c 7.016 50.715 7.062 50.664
 7.113 50.609 c 7.316 50.398 7.52 50.191 7.727 49.988 c 7.828 49.891 7.93
 49.793 8.035 49.695 c 8.141 49.598 8.246 49.5 8.352 49.406 c 8.457 49.312
 8.562 49.223 8.672 49.133 c 8.992 48.867 9.32 48.613 9.656 48.375 c 10.551
 47.734 11.496 47.191 12.492 46.742 c 12.617 46.684 12.738 46.629 12.867
 46.574 c 13.121 46.469 13.375 46.367 13.637 46.27 c 13.766 46.223 13.895
 46.18 14.023 46.133 c 14.156 46.09 14.289 46.047 14.422 46.004 c 14.555
 45.961 14.688 45.922 14.82 45.883 c 15.094 45.805 15.367 45.73 15.645 45.66
 c 15.785 45.629 15.926 45.598 16.066 45.566 c 16.207 45.535 16.352 45.504
 16.492 45.477 c 16.637 45.445 16.781 45.422 16.93 45.395 c 17.219 45.344
 17.516 45.297 17.816 45.254 c 18.266 45.195 18.727 45.141 19.199 45.105
 c 19.512 45.078 19.828 45.059 20.152 45.043 c 20.473 45.027 20.801 45.02
 21.133 45.016 c 21.297 45.016 21.465 45.016 21.633 45.016 c 21.887 45.016
 22.137 45.016 22.383 45.016 c 22.875 45.023 23.34 45.031 23.789 45.051 
c 24.012 45.059 24.23 45.066 24.441 45.078 c 24.652 45.09 24.863 45.105 
25.066 45.117 c 25.672 45.164 26.23 45.219 26.746 45.289 c 26.789 45.273
 26.832 45.254 26.875 45.234 c 26.883 45.234 26.887 45.227 26.891 45.227
 c 26.93 45.207 26.965 45.191 27.004 45.172 c 27.25 45.043 27.496 44.879
 27.742 44.676 c 27.203 45.406 21.434 52.953 12.961 54.973 c 12.227 55.145
 11.688 55.402 11.266 55.695 c 11.262 55.695 11.258 55.703 11.258 55.703
 c 10.922 55.855 10.598 56.016 10.285 56.191 c 10.285 56.191 10.281 56.191
 10.281 56.191 c 10.199 56.238 10.121 56.285 10.039 56.336 c 10.039 56.336
 10.039 56.332 10.039 56.336 c 9.957 56.383 9.879 56.434 9.801 56.48 c 9.641
 56.582 9.48 56.688 9.324 56.797 c 9.246 56.848 9.168 56.906 9.09 56.961
 c 8.938 57.074 8.785 57.188 8.633 57.309 c 8.559 57.367 8.484 57.426 8.41
 57.488 c 8.336 57.551 8.262 57.613 8.188 57.676 c 8.113 57.742 8.043 57.805
 7.969 57.871 c 7.605 58.199 7.25 58.547 6.91 58.922 c 6.84 58.996 6.77 
59.074 6.703 59.152 c 6.453 59.434 6.207 59.73 5.961 60.047 c 5.93 60.086
 5.902 60.129 5.871 60.168 c 5.801 60.258 5.73 60.348 5.66 60.441 c 5.316
 60.902 4.973 61.402 4.633 61.934 c 4.496 62.148 4.359 62.367 4.223 62.59
 c 4.156 62.703 4.086 62.812 4.02 62.93 c 3.816 63.273 3.613 63.629 3.41
 64 c h
3.41 63.992 m W n
[-0.599312 0 0 -0.599312 113.457837 92.461733] concat
/CairoFunction
   << /FunctionType 2
      /Domain [ 0 1 ]
      /C0 [ 0.890196 0.27451 0.27451 ]
      /C1 [ 1 0.74902 0.176471 ]
      /N 1
   >>
def
   << /ShadingType 2
      /ColorSpace /DeviceRGB
      /Coords [ 142.96875 63.65625 177.042969 69.791016 ]
      /Extend [ true true ]
      /Function CairoFunction
   >>
shfill
Q
  Q
Q
Q q
0.2 g
111.191 3.086 m 109.074 2.059 106.879 1.285 104.602 0.77 c 102.32 0.258
 99.969 0 97.547 0 c 92.062 0 87.719 1.527 84.516 4.586 c 81.312 7.656 79.711
 11.816 79.711 17.062 c 79.711 22.371 81.34 26.543 84.605 29.586 c 87.867
 32.629 92.336 34.148 98.008 34.148 c 100.199 34.148 102.293 33.945 104.293
 33.531 c 106.305 33.121 108.203 32.512 109.98 31.703 c 109.98 24.891 l 
108.141 25.934 106.312 26.711 104.488 27.227 c 102.684 27.742 100.867 28
 99.043 28 c 95.664 28 93.055 27.051 91.219 25.156 c 89.395 23.273 88.484
 20.574 88.484 17.062 c 88.484 13.578 89.367 10.891 91.129 8.992 c 92.895
 7.098 95.398 6.148 98.648 6.148 c 99.531 6.148 100.344 6.199 101.094 6.305
 c 101.859 6.422 102.543 6.598 103.145 6.832 c 103.145 13.227 l 97.965 13.227
 l 97.965 18.914 l 111.191 18.914 l 111.191 3.086 l f
114.891 10.25 m 114.891 25.332 l 122.828 25.332 l 122.828 22.863 l 122.828
 21.523 122.82 19.84 122.805 17.812 c 122.793 15.801 122.785 14.453 122.785
 13.777 c 122.785 11.793 122.836 10.359 122.938 9.48 c 123.043 8.613 123.219
 7.98 123.469 7.582 c 123.789 7.07 124.211 6.672 124.723 6.395 c 125.254
 6.113 125.855 5.973 126.531 5.973 c 128.18 5.973 129.473 6.605 130.414 
7.871 c 131.352 9.133 131.824 10.891 131.824 13.141 c 131.824 25.332 l 139.715
 25.332 l 139.715 0.637 l 131.824 0.637 l 131.824 4.211 l 130.633 2.77 129.367
 1.703 128.031 1.012 c 126.707 0.336 125.246 0 123.645 0 c 120.793 0 118.617
 0.875 117.117 2.621 c 115.633 4.371 114.891 6.914 114.891 10.25 c f
144.207 25.332 m 152.102 25.332 l 152.102 0.637 l 144.207 0.637 l 144.207
 25.332 l 144.207 34.941 m 152.102 34.941 l 152.102 28.504 l 144.207 28.504
 l 144.207 34.941 l f
165.969 13.27 m 157.062 25.332 l 165.418 25.332 l 170.465 18.012 l 175.582
 25.332 l 183.938 25.332 l 175.031 13.316 l 184.379 0.637 l 176.023 0.637
 l 170.465 8.441 l 164.977 0.637 l 156.621 0.637 l 165.969 13.27 l f
Q Q
showpage
%%Trailer
end restore
%%EOF
