<?xml version="1.0" encoding="UTF-8" standalone="no"?>
<!-- Created with Inkscape (http://www.inkscape.org/) -->

<svg
   xmlns:dc="http://purl.org/dc/elements/1.1/"
   xmlns:cc="http://creativecommons.org/ns#"
   xmlns:rdf="http://www.w3.org/1999/02/22-rdf-syntax-ns#"
   xmlns:svg="http://www.w3.org/2000/svg"
   xmlns="http://www.w3.org/2000/svg"
   xmlns:xlink="http://www.w3.org/1999/xlink"
   xmlns:sodipodi="http://sodipodi.sourceforge.net/DTD/sodipodi-0.dtd"
   xmlns:inkscape="http://www.inkscape.org/namespaces/inkscape"
   width="1920"
   height="1080"
   viewBox="0 0 507.99999 285.75001"
   version="1.1"
   id="svg8"
   inkscape:version="0.92.3 (2405546, 2018-03-11)"
   sodipodi:docname="paper2.svg">
  <defs
     id="defs2">
    <inkscape:path-effect
       effect="bspline"
       id="path-effect4268"
       is_visible="true"
       weight="33.333333"
       steps="2"
       helper_size="0"
       apply_no_weight="true"
       apply_with_weight="true"
       only_selected="false" />
    <linearGradient
       id="linearGradient4094">
      <stop
         style="stop-color:#232323;stop-opacity:1;"
         offset="0"
         id="stop4096" />
      <stop
         style="stop-color:#4d4d4d;stop-opacity:1;"
         offset="1"
         id="stop4098" />
    </linearGradient>
    <linearGradient
       id="linearGradient4014">
      <stop
         style="stop-color:#a0a0a0;stop-opacity:1;"
         offset="0"
         id="stop4016" />
      <stop
         style="stop-color:#ffffff;stop-opacity:1;"
         offset="1"
         id="stop4018" />
    </linearGradient>
    <linearGradient
       id="linearGradient4678">
      <stop
         style="stop-color:#e5e5e5;stop-opacity:1;"
         offset="0"
         id="stop4680" />
      <stop
         style="stop-color:#d3cdcd;stop-opacity:1;"
         offset="1"
         id="stop4682" />
    </linearGradient>
    <linearGradient
       id="linearGradient4341">
      <stop
         id="stop4343"
         offset="0"
         style="stop-color:#333333;stop-opacity:1;" />
      <stop
         id="stop4345"
         offset="1"
         style="stop-color:#484848;stop-opacity:1;" />
    </linearGradient>
    <linearGradient
       id="linearGradient4696-5">
      <stop
         id="stop4698-6"
         offset="0"
         style="stop-color:#ffb638;stop-opacity:1;" />
      <stop
         id="stop4700-2"
         offset="1"
         style="stop-color:#f0ae26;stop-opacity:1;" />
    </linearGradient>
    <linearGradient
       id="linearGradient4702-3">
      <stop
         id="stop4704-1"
         offset="0"
         style="stop-color:#e34646;stop-opacity:1;" />
      <stop
         id="stop4706-8"
         offset="1"
         style="stop-color:#ffbf2d;stop-opacity:1;" />
    </linearGradient>
    <color-profile
       name="Artifex-PS-CMYK-Profile"
       xlink:href="/usr/share/color/icc/ghostscript/ps_cmyk.icc"
       id="color-profile2657" />
    <clipPath
       id="clipPath4501"
       clipPathUnits="userSpaceOnUse">
      <path
         style="clip-rule:evenodd"
         inkscape:connector-curvature="0"
         id="path4499"
         d="M 0,0 H 124.992 V 144 H 0 Z" />
    </clipPath>
    <clipPath
       id="clipPath4525"
       clipPathUnits="userSpaceOnUse">
      <path
         inkscape:connector-curvature="0"
         id="path4523"
         d="M 0,0 H 100 V 125 H 0 Z" />
    </clipPath>
    <clipPath
       id="clipPath4545"
       clipPathUnits="userSpaceOnUse">
      <path
         inkscape:connector-curvature="0"
         id="path4543"
         d="M 0,0 H 100 V 125 H 0 Z" />
    </clipPath>
    <clipPath
       id="clipPath4561"
       clipPathUnits="userSpaceOnUse">
      <path
         inkscape:connector-curvature="0"
         id="path4559"
         d="M 0,0 H 100 V 125 H 0 Z" />
    </clipPath>
    <clipPath
       id="clipPath4577"
       clipPathUnits="userSpaceOnUse">
      <path
         inkscape:connector-curvature="0"
         id="path4575"
         d="M 0,0 H 100 V 125 H 0 Z" />
    </clipPath>
    <clipPath
       id="clipPath4593"
       clipPathUnits="userSpaceOnUse">
      <path
         inkscape:connector-curvature="0"
         id="path4591"
         d="M 0,0 H 100 V 125 H 0 Z" />
    </clipPath>
    <clipPath
       id="clipPath4609"
       clipPathUnits="userSpaceOnUse">
      <path
         inkscape:connector-curvature="0"
         id="path4607"
         d="M 0,0 H 100 V 125 H 0 Z" />
    </clipPath>
    <clipPath
       id="clipPath4625"
       clipPathUnits="userSpaceOnUse">
      <path
         inkscape:connector-curvature="0"
         id="path4623"
         d="M 0,0 H 100 V 125 H 0 Z" />
    </clipPath>
    <clipPath
       id="clipPath4641"
       clipPathUnits="userSpaceOnUse">
      <path
         inkscape:connector-curvature="0"
         id="path4639"
         d="M 0,0 H 100 V 125 H 0 Z" />
    </clipPath>
    <clipPath
       id="clipPath4657"
       clipPathUnits="userSpaceOnUse">
      <path
         inkscape:connector-curvature="0"
         id="path4655"
         d="M 0,0 H 100 V 125 H 0 Z" />
    </clipPath>
    <clipPath
       id="clipPath4673"
       clipPathUnits="userSpaceOnUse">
      <path
         inkscape:connector-curvature="0"
         id="path4671"
         d="M 0,0 H 100 V 125 H 0 Z" />
    </clipPath>
    <filter
       height="1.1439638"
       y="-0.071981907"
       width="1.1440362"
       x="-0.072018109"
       id="filter5085"
       style="color-interpolation-filters:sRGB"
       inkscape:collect="always">
      <feGaussianBlur
         id="feGaussianBlur5087"
         stdDeviation="2.6806348"
         inkscape:collect="always" />
    </filter>
    <style
       id="style3894"
       type="text/css"><![CDATA[
    line, polyline, path, rect, circle {
      fill: none;
      stroke: #000000;
      stroke-linecap: round;
      stroke-linejoin: round;
      stroke-miterlimit: 10.00;
    }
  ]]></style>
    <clipPath
       id="cpNzMuMDYyM3w1NDYuMzIzfDM5My4wNzJ8MzEuMDU2Nw==">
      <rect
         id="rect3902"
         height="362.02"
         width="473.26"
         y="31.06"
         x="73.06" />
    </clipPath>
    <clipPath
       id="cpMHw3MDguNjYxfDUwMy40MjV8MA==">
      <rect
         id="rect3995"
         height="503.43"
         width="708.66"
         y="0.00"
         x="0.00" />
    </clipPath>
  </defs>
  <sodipodi:namedview
     id="base"
     pagecolor="#ffffff"
     bordercolor="#f70bff"
     borderopacity="1"
     inkscape:pageopacity="0.0"
     inkscape:pageshadow="2"
     inkscape:zoom="0.49497475"
     inkscape:cx="937.96548"
     inkscape:cy="583.07506"
     inkscape:document-units="px"
     inkscape:current-layer="layer1"
     showgrid="false"
     units="px"
     borderlayer="true"
     inkscape:showpageshadow="false"
     inkscape:pagecheckerboard="true"
     inkscape:window-width="1920"
     inkscape:window-height="951"
     inkscape:window-x="0"
     inkscape:window-y="55"
     inkscape:window-maximized="1"
     showguides="false" />
  <metadata
     id="metadata5">
    <rdf:RDF>
      <cc:Work
         rdf:about="">
        <dc:format>image/svg+xml</dc:format>
        <dc:type
           rdf:resource="http://purl.org/dc/dcmitype/StillImage" />
        <dc:title></dc:title>
        <cc:license
           rdf:resource="http://creativecommons.org/licenses/by-sa/4.0/" />
      </cc:Work>
      <cc:License
         rdf:about="http://creativecommons.org/licenses/by-sa/4.0/">
        <cc:permits
           rdf:resource="http://creativecommons.org/ns#Reproduction" />
        <cc:permits
           rdf:resource="http://creativecommons.org/ns#Distribution" />
        <cc:requires
           rdf:resource="http://creativecommons.org/ns#Notice" />
        <cc:requires
           rdf:resource="http://creativecommons.org/ns#Attribution" />
        <cc:permits
           rdf:resource="http://creativecommons.org/ns#DerivativeWorks" />
        <cc:requires
           rdf:resource="http://creativecommons.org/ns#ShareAlike" />
      </cc:License>
    </rdf:RDF>
  </metadata>
  <g
     inkscape:label="Layer 1"
     inkscape:groupmode="layer"
     id="layer1"
     transform="translate(0,-11.249975)">
    <rect
       style="color:#000000;clip-rule:nonzero;display:inline;overflow:visible;visibility:visible;opacity:1;isolation:auto;mix-blend-mode:normal;color-interpolation:sRGB;color-interpolation-filters:linearRGB;solid-color:#000000;solid-opacity:1;vector-effect:none;fill:#ffffff;fill-opacity:1;fill-rule:nonzero;stroke:none;stroke-width:0.3055087;stroke-linecap:round;stroke-linejoin:round;stroke-miterlimit:4;stroke-dasharray:none;stroke-dashoffset:0;stroke-opacity:1;color-rendering:auto;image-rendering:auto;shape-rendering:auto;text-rendering:auto;enable-background:accumulate"
       id="rect2926"
       width="512.95203"
       height="292.72192"
       x="-2.0354033"
       y="8.4516382" />
    <g
       id="g4264"
       transform="matrix(0.53919554,0,0,0.53919554,123.42338,26.834198)">
      <rect
         id="rect3898"
         style="fill:#ffffff;stroke:none;stroke-width:0.96000373;stroke-linecap:round;stroke-linejoin:round;stroke-miterlimit:10"
         height="92.160713%"
         width="100%"
         x="0"
         y="37.031284" />
      <rect
         id="rect3907"
         clip-path="url(#cpNzMuMDYyM3w1NDYuMzIzfDM5My4wNzJ8MzEuMDU2Nw==)"
         style="fill:#ebebeb;stroke:none;stroke-width:1.07000005;stroke-linecap:round;stroke-linejoin:round;stroke-miterlimit:10"
         height="362.01999"
         width="473.26001"
         y="31.059999"
         x="73.059998"
         transform="matrix(0,0.92160715,-1.1280301,0,504.78573,-31.111537)" />
      <polyline
         id="polyline3909"
         clip-path="url(#cpNzMuMDYyM3w1NDYuMzIzfDM5My4wNzJ8MzEuMDU2Nw==)"
         style="fill:none;stroke:#ffffff;stroke-width:0.52999997;stroke-linecap:butt;stroke-linejoin:round;stroke-miterlimit:10"
         points="73.06,393.07 546.32,393.07 "
         transform="matrix(0,0.92160715,-1.1280301,0,504.78573,-31.111537)" />
      <polyline
         id="polyline3911"
         clip-path="url(#cpNzMuMDYyM3w1NDYuMzIzfDM5My4wNzJ8MzEuMDU2Nw==)"
         style="fill:none;stroke:#ffffff;stroke-width:0.52999997;stroke-linecap:butt;stroke-linejoin:round;stroke-miterlimit:10"
         points="73.06,360.16 546.32,360.16 "
         transform="matrix(0,0.92160715,-1.1280301,0,504.78573,-31.111537)" />
      <polyline
         id="polyline3913"
         clip-path="url(#cpNzMuMDYyM3w1NDYuMzIzfDM5My4wNzJ8MzEuMDU2Nw==)"
         style="fill:none;stroke:#ffffff;stroke-width:0.52999997;stroke-linecap:butt;stroke-linejoin:round;stroke-miterlimit:10"
         points="73.06,327.25 546.32,327.25 "
         transform="matrix(0,0.92160715,-1.1280301,0,504.78573,-31.111537)" />
      <polyline
         id="polyline3915"
         clip-path="url(#cpNzMuMDYyM3w1NDYuMzIzfDM5My4wNzJ8MzEuMDU2Nw==)"
         style="fill:none;stroke:#ffffff;stroke-width:0.52999997;stroke-linecap:butt;stroke-linejoin:round;stroke-miterlimit:10"
         points="73.06,294.34 546.32,294.34 "
         transform="matrix(0,0.92160715,-1.1280301,0,504.78573,-31.111537)" />
      <polyline
         id="polyline3917"
         clip-path="url(#cpNzMuMDYyM3w1NDYuMzIzfDM5My4wNzJ8MzEuMDU2Nw==)"
         style="fill:none;stroke:#ffffff;stroke-width:0.52999997;stroke-linecap:butt;stroke-linejoin:round;stroke-miterlimit:10"
         points="73.06,261.43 546.32,261.43 "
         transform="matrix(0,0.92160715,-1.1280301,0,504.78573,-31.111537)" />
      <polyline
         id="polyline3919"
         clip-path="url(#cpNzMuMDYyM3w1NDYuMzIzfDM5My4wNzJ8MzEuMDU2Nw==)"
         style="fill:none;stroke:#ffffff;stroke-width:0.52999997;stroke-linecap:butt;stroke-linejoin:round;stroke-miterlimit:10"
         points="73.06,228.52 546.32,228.52 "
         transform="matrix(0,0.92160715,-1.1280301,0,504.78573,-31.111537)" />
      <polyline
         id="polyline3921"
         clip-path="url(#cpNzMuMDYyM3w1NDYuMzIzfDM5My4wNzJ8MzEuMDU2Nw==)"
         style="fill:none;stroke:#ffffff;stroke-width:0.52999997;stroke-linecap:butt;stroke-linejoin:round;stroke-miterlimit:10"
         points="73.06,195.61 546.32,195.61 "
         transform="matrix(0,0.92160715,-1.1280301,0,504.78573,-31.111537)" />
      <polyline
         id="polyline3923"
         clip-path="url(#cpNzMuMDYyM3w1NDYuMzIzfDM5My4wNzJ8MzEuMDU2Nw==)"
         style="fill:none;stroke:#ffffff;stroke-width:0.52999997;stroke-linecap:butt;stroke-linejoin:round;stroke-miterlimit:10"
         points="73.06,162.70 546.32,162.70 "
         transform="matrix(0,0.92160715,-1.1280301,0,504.78573,-31.111537)" />
      <polyline
         id="polyline3925"
         clip-path="url(#cpNzMuMDYyM3w1NDYuMzIzfDM5My4wNzJ8MzEuMDU2Nw==)"
         style="fill:none;stroke:#ffffff;stroke-width:0.52999997;stroke-linecap:butt;stroke-linejoin:round;stroke-miterlimit:10"
         points="73.06,129.79 546.32,129.79 "
         transform="matrix(0,0.92160715,-1.1280301,0,504.78573,-31.111537)" />
      <polyline
         id="polyline3927"
         clip-path="url(#cpNzMuMDYyM3w1NDYuMzIzfDM5My4wNzJ8MzEuMDU2Nw==)"
         style="fill:none;stroke:#ffffff;stroke-width:0.52999997;stroke-linecap:butt;stroke-linejoin:round;stroke-miterlimit:10"
         points="73.06,96.88 546.32,96.88 "
         transform="matrix(0,0.92160715,-1.1280301,0,504.78573,-31.111537)" />
      <polyline
         id="polyline3929"
         clip-path="url(#cpNzMuMDYyM3w1NDYuMzIzfDM5My4wNzJ8MzEuMDU2Nw==)"
         style="fill:none;stroke:#ffffff;stroke-width:0.52999997;stroke-linecap:butt;stroke-linejoin:round;stroke-miterlimit:10"
         points="73.06,63.97 546.32,63.97 "
         transform="matrix(0,0.92160715,-1.1280301,0,504.78573,-31.111537)" />
      <polyline
         id="polyline3931"
         clip-path="url(#cpNzMuMDYyM3w1NDYuMzIzfDM5My4wNzJ8MzEuMDU2Nw==)"
         style="fill:none;stroke:#ffffff;stroke-width:0.52999997;stroke-linecap:butt;stroke-linejoin:round;stroke-miterlimit:10"
         points="73.06,31.06 546.32,31.06 "
         transform="matrix(0,0.92160715,-1.1280301,0,504.78573,-31.111537)" />
      <polyline
         id="polyline3933"
         clip-path="url(#cpNzMuMDYyM3w1NDYuMzIzfDM5My4wNzJ8MzEuMDU2Nw==)"
         style="fill:none;stroke:#ffffff;stroke-width:1.07000005;stroke-linecap:butt;stroke-linejoin:round;stroke-miterlimit:10"
         points="73.06,376.62 546.32,376.62 "
         transform="matrix(0,0.92160715,-1.1280301,0,504.78573,-31.111537)" />
      <polyline
         id="polyline3935"
         clip-path="url(#cpNzMuMDYyM3w1NDYuMzIzfDM5My4wNzJ8MzEuMDU2Nw==)"
         style="fill:none;stroke:#ffffff;stroke-width:1.07000005;stroke-linecap:butt;stroke-linejoin:round;stroke-miterlimit:10"
         points="73.06,343.71 546.32,343.71 "
         transform="matrix(0,0.92160715,-1.1280301,0,504.78573,-31.111537)" />
      <polyline
         id="polyline3937"
         clip-path="url(#cpNzMuMDYyM3w1NDYuMzIzfDM5My4wNzJ8MzEuMDU2Nw==)"
         style="fill:none;stroke:#ffffff;stroke-width:1.07000005;stroke-linecap:butt;stroke-linejoin:round;stroke-miterlimit:10"
         points="73.06,310.80 546.32,310.80 "
         transform="matrix(0,0.92160715,-1.1280301,0,504.78573,-31.111537)" />
      <polyline
         id="polyline3939"
         clip-path="url(#cpNzMuMDYyM3w1NDYuMzIzfDM5My4wNzJ8MzEuMDU2Nw==)"
         style="fill:none;stroke:#ffffff;stroke-width:1.07000005;stroke-linecap:butt;stroke-linejoin:round;stroke-miterlimit:10"
         points="73.06,277.89 546.32,277.89 "
         transform="matrix(0,0.92160715,-1.1280301,0,504.78573,-31.111537)" />
      <polyline
         id="polyline3941"
         clip-path="url(#cpNzMuMDYyM3w1NDYuMzIzfDM5My4wNzJ8MzEuMDU2Nw==)"
         style="fill:none;stroke:#ffffff;stroke-width:1.07000005;stroke-linecap:butt;stroke-linejoin:round;stroke-miterlimit:10"
         points="73.06,244.97 546.32,244.97 "
         transform="matrix(0,0.92160715,-1.1280301,0,504.78573,-31.111537)" />
      <polyline
         id="polyline3943"
         clip-path="url(#cpNzMuMDYyM3w1NDYuMzIzfDM5My4wNzJ8MzEuMDU2Nw==)"
         style="fill:none;stroke:#ffffff;stroke-width:1.07000005;stroke-linecap:butt;stroke-linejoin:round;stroke-miterlimit:10"
         points="73.06,212.06 546.32,212.06 "
         transform="matrix(0,0.92160715,-1.1280301,0,504.78573,-31.111537)" />
      <polyline
         id="polyline3945"
         clip-path="url(#cpNzMuMDYyM3w1NDYuMzIzfDM5My4wNzJ8MzEuMDU2Nw==)"
         style="fill:none;stroke:#ffffff;stroke-width:1.07000005;stroke-linecap:butt;stroke-linejoin:round;stroke-miterlimit:10"
         points="73.06,179.15 546.32,179.15 "
         transform="matrix(0,0.92160715,-1.1280301,0,504.78573,-31.111537)" />
      <polyline
         id="polyline3947"
         clip-path="url(#cpNzMuMDYyM3w1NDYuMzIzfDM5My4wNzJ8MzEuMDU2Nw==)"
         style="fill:none;stroke:#ffffff;stroke-width:1.07000005;stroke-linecap:butt;stroke-linejoin:round;stroke-miterlimit:10"
         points="73.06,146.24 546.32,146.24 "
         transform="matrix(0,0.92160715,-1.1280301,0,504.78573,-31.111537)" />
      <polyline
         id="polyline3949"
         clip-path="url(#cpNzMuMDYyM3w1NDYuMzIzfDM5My4wNzJ8MzEuMDU2Nw==)"
         style="fill:none;stroke:#ffffff;stroke-width:1.07000005;stroke-linecap:butt;stroke-linejoin:round;stroke-miterlimit:10"
         points="73.06,113.33 546.32,113.33 "
         transform="matrix(0,0.92160715,-1.1280301,0,504.78573,-31.111537)" />
      <polyline
         id="polyline3951"
         clip-path="url(#cpNzMuMDYyM3w1NDYuMzIzfDM5My4wNzJ8MzEuMDU2Nw==)"
         style="fill:none;stroke:#ffffff;stroke-width:1.07000005;stroke-linecap:butt;stroke-linejoin:round;stroke-miterlimit:10"
         points="73.06,80.42 546.32,80.42 "
         transform="matrix(0,0.92160715,-1.1280301,0,504.78573,-31.111537)" />
      <polyline
         id="polyline3953"
         clip-path="url(#cpNzMuMDYyM3w1NDYuMzIzfDM5My4wNzJ8MzEuMDU2Nw==)"
         style="fill:none;stroke:#ffffff;stroke-width:1.07000005;stroke-linecap:butt;stroke-linejoin:round;stroke-miterlimit:10"
         points="73.06,47.51 546.32,47.51 "
         transform="matrix(0,0.92160715,-1.1280301,0,504.78573,-31.111537)" />
      <polyline
         id="polyline3955"
         clip-path="url(#cpNzMuMDYyM3w1NDYuMzIzfDM5My4wNzJ8MzEuMDU2Nw==)"
         style="fill:none;stroke:#ffffff;stroke-width:1.07000005;stroke-linecap:butt;stroke-linejoin:round;stroke-miterlimit:10"
         points="127.67,393.07 127.67,31.06 "
         transform="matrix(0,0.92160715,-1.1280301,0,504.78573,-31.111537)" />
      <polyline
         id="polyline3957"
         clip-path="url(#cpNzMuMDYyM3w1NDYuMzIzfDM5My4wNzJ8MzEuMDU2Nw==)"
         style="fill:none;stroke:#ffffff;stroke-width:1.07000005;stroke-linecap:butt;stroke-linejoin:round;stroke-miterlimit:10"
         points="218.68,393.07 218.68,31.06 "
         transform="matrix(0,0.92160715,-1.1280301,0,504.78573,-31.111537)" />
      <polyline
         id="polyline3959"
         clip-path="url(#cpNzMuMDYyM3w1NDYuMzIzfDM5My4wNzJ8MzEuMDU2Nw==)"
         style="fill:none;stroke:#ffffff;stroke-width:1.07000005;stroke-linecap:butt;stroke-linejoin:round;stroke-miterlimit:10"
         points="309.69,393.07 309.69,31.06 "
         transform="matrix(0,0.92160715,-1.1280301,0,504.78573,-31.111537)" />
      <polyline
         id="polyline3961"
         clip-path="url(#cpNzMuMDYyM3w1NDYuMzIzfDM5My4wNzJ8MzEuMDU2Nw==)"
         style="fill:none;stroke:#ffffff;stroke-width:1.07000005;stroke-linecap:butt;stroke-linejoin:round;stroke-miterlimit:10"
         points="400.70,393.07 400.70,31.06 "
         transform="matrix(0,0.92160715,-1.1280301,0,504.78573,-31.111537)" />
      <polyline
         id="polyline3963"
         clip-path="url(#cpNzMuMDYyM3w1NDYuMzIzfDM5My4wNzJ8MzEuMDU2Nw==)"
         style="fill:none;stroke:#ffffff;stroke-width:1.07000005;stroke-linecap:butt;stroke-linejoin:round;stroke-miterlimit:10"
         points="491.72,393.07 491.72,31.06 "
         transform="matrix(0,0.92160715,-1.1280301,0,504.78573,-31.111537)" />
      <rect
         id="rect3965"
         clip-path="url(#cpNzMuMDYyM3w1NDYuMzIzfDM5My4wNzJ8MzEuMDU2Nw==)"
         style="fill:#009e73;stroke:none;stroke-width:1.07000005;stroke-linecap:butt;stroke-linejoin:round;stroke-miterlimit:10"
         height="313.34"
         width="81.910004"
         y="63.27"
         x="86.709999"
         transform="matrix(0,0.92160715,-1.1280301,0,504.78573,-31.111537)" />
      <rect
         id="rect3967"
         clip-path="url(#cpNzMuMDYyM3w1NDYuMzIzfDM5My4wNzJ8MzEuMDU2Nw==)"
         style="fill:#e69f00;stroke:none;stroke-width:1.07000005;stroke-linecap:butt;stroke-linejoin:round;stroke-miterlimit:10"
         height="8.3400002"
         width="81.910004"
         y="54.93"
         x="86.709999"
         transform="matrix(0,0.92160715,-1.1280301,0,504.78573,-31.111537)" />
      <rect
         id="rect3969"
         clip-path="url(#cpNzMuMDYyM3w1NDYuMzIzfDM5My4wNzJ8MzEuMDU2Nw==)"
         style="fill:#999999;stroke:none;stroke-width:1.07000005;stroke-linecap:butt;stroke-linejoin:round;stroke-miterlimit:10"
         height="7.4200001"
         width="81.910004"
         y="47.509998"
         x="86.709999"
         transform="matrix(0,0.92160715,-1.1280301,0,504.78573,-31.111537)" />
      <rect
         id="rect3971"
         clip-path="url(#cpNzMuMDYyM3w1NDYuMzIzfDM5My4wNzJ8MzEuMDU2Nw==)"
         style="fill:#009e73;stroke:none;stroke-width:1.07000005;stroke-linecap:butt;stroke-linejoin:round;stroke-miterlimit:10"
         height="321.41"
         width="81.910004"
         y="55.209999"
         x="177.73"
         transform="matrix(0,0.92160715,-1.1280301,0,504.78573,-31.111537)" />
      <rect
         id="rect3973"
         clip-path="url(#cpNzMuMDYyM3w1NDYuMzIzfDM5My4wNzJ8MzEuMDU2Nw==)"
         style="fill:#e69f00;stroke:none;stroke-width:1.07000005;stroke-linecap:butt;stroke-linejoin:round;stroke-miterlimit:10"
         height="3.8499999"
         width="81.910004"
         y="51.360001"
         x="177.73"
         transform="matrix(0,0.92160715,-1.1280301,0,504.78573,-31.111537)" />
      <rect
         id="rect3975"
         clip-path="url(#cpNzMuMDYyM3w1NDYuMzIzfDM5My4wNzJ8MzEuMDU2Nw==)"
         style="fill:#999999;stroke:none;stroke-width:1.07000005;stroke-linecap:butt;stroke-linejoin:round;stroke-miterlimit:10"
         height="3.8499999"
         width="81.910004"
         y="47.509998"
         x="177.73"
         transform="matrix(0,0.92160715,-1.1280301,0,504.78573,-31.111537)" />
      <rect
         id="rect3977"
         clip-path="url(#cpNzMuMDYyM3w1NDYuMzIzfDM5My4wNzJ8MzEuMDU2Nw==)"
         style="fill:#009e73;stroke:none;stroke-width:1.07000005;stroke-linecap:butt;stroke-linejoin:round;stroke-miterlimit:10"
         height="308.20999"
         width="81.910004"
         y="68.410004"
         x="268.73999"
         transform="matrix(0,0.92160715,-1.1280301,0,504.78573,-31.111537)" />
      <rect
         id="rect3979"
         clip-path="url(#cpNzMuMDYyM3w1NDYuMzIzfDM5My4wNzJ8MzEuMDU2Nw==)"
         style="fill:#e69f00;stroke:none;stroke-width:1.07000005;stroke-linecap:butt;stroke-linejoin:round;stroke-miterlimit:10"
         height="11.75"
         width="81.910004"
         y="56.650002"
         x="268.73999"
         transform="matrix(0,0.92160715,-1.1280301,0,504.78573,-31.111537)" />
      <rect
         id="rect3981"
         clip-path="url(#cpNzMuMDYyM3w1NDYuMzIzfDM5My4wNzJ8MzEuMDU2Nw==)"
         style="fill:#999999;stroke:none;stroke-width:1.07000005;stroke-linecap:butt;stroke-linejoin:round;stroke-miterlimit:10"
         height="9.1400003"
         width="81.910004"
         y="47.509998"
         x="268.73999"
         transform="matrix(0,0.92160715,-1.1280301,0,504.78573,-31.111537)" />
      <rect
         id="rect3983"
         clip-path="url(#cpNzMuMDYyM3w1NDYuMzIzfDM5My4wNzJ8MzEuMDU2Nw==)"
         style="fill:#009e73;stroke:none;stroke-width:1.07000005;stroke-linecap:butt;stroke-linejoin:round;stroke-miterlimit:10"
         height="305.91"
         width="81.910004"
         y="70.709999"
         x="359.75"
         transform="matrix(0,0.92160715,-1.1280301,0,504.78573,-31.111537)" />
      <rect
         id="rect3985"
         clip-path="url(#cpNzMuMDYyM3w1NDYuMzIzfDM5My4wNzJ8MzEuMDU2Nw==)"
         style="fill:#e69f00;stroke:none;stroke-width:1.07000005;stroke-linecap:butt;stroke-linejoin:round;stroke-miterlimit:10"
         height="13.05"
         width="81.910004"
         y="57.66"
         x="359.75"
         transform="matrix(0,0.92160715,-1.1280301,0,504.78573,-31.111537)" />
      <rect
         id="rect3987"
         clip-path="url(#cpNzMuMDYyM3w1NDYuMzIzfDM5My4wNzJ8MzEuMDU2Nw==)"
         style="fill:#999999;stroke:none;stroke-width:1.07000005;stroke-linecap:butt;stroke-linejoin:round;stroke-miterlimit:10"
         height="10.15"
         width="81.910004"
         y="47.509998"
         x="359.75"
         transform="matrix(0,0.92160715,-1.1280301,0,504.78573,-31.111537)" />
      <rect
         id="rect3989"
         clip-path="url(#cpNzMuMDYyM3w1NDYuMzIzfDM5My4wNzJ8MzEuMDU2Nw==)"
         style="fill:#009e73;stroke:none;stroke-width:1.07000005;stroke-linecap:butt;stroke-linejoin:round;stroke-miterlimit:10"
         height="309.25"
         width="81.910004"
         y="67.370003"
         x="450.76001"
         transform="matrix(0,0.92160715,-1.1280301,0,504.78573,-31.111537)" />
      <rect
         id="rect3991"
         clip-path="url(#cpNzMuMDYyM3w1NDYuMzIzfDM5My4wNzJ8MzEuMDU2Nw==)"
         style="fill:#e69f00;stroke:none;stroke-width:1.07000005;stroke-linecap:butt;stroke-linejoin:round;stroke-miterlimit:10"
         height="11.35"
         width="81.910004"
         y="56.02"
         x="450.76001"
         transform="matrix(0,0.92160715,-1.1280301,0,504.78573,-31.111537)" />
      <rect
         id="rect3993"
         clip-path="url(#cpNzMuMDYyM3w1NDYuMzIzfDM5My4wNzJ8MzEuMDU2Nw==)"
         style="fill:#999999;stroke:none;stroke-width:1.07000005;stroke-linecap:butt;stroke-linejoin:round;stroke-miterlimit:10"
         height="8.5100002"
         width="81.910004"
         y="47.509998"
         x="450.76001"
         transform="matrix(0,0.92160715,-1.1280301,0,504.78573,-31.111537)" />
      <g
         id="g4038"
         clip-path="url(#cpMHw3MDguNjYxfDUwMy40MjV8MA==)"
         transform="matrix(1.1280301,0,0,1,355.16844,-64.392456)">
        <text
           id="text4036"
           lengthAdjust="spacingAndGlyphs"
           textLength="32.02"
           style="font-size:16px;font-family:'Liberation Sans';fill:#4d4d4d"
           y="85.93"
           x="36.110001"
           transform="matrix(0.86845939,0,0,1,8.887896,0)">90%</text>
      </g>
      <polyline
         id="polyline4044"
         clip-path="url(#cpMHw3MDguNjYxfDUwMy40MjV8MA==)"
         style="fill:none;stroke:#333333;stroke-width:1.07000005;stroke-linecap:butt;stroke-linejoin:round;stroke-miterlimit:10"
         points="70.32,376.62 73.06,376.62 "
         transform="matrix(0,0.92160715,-1.1280301,0,504.78573,-31.111537)" />
      <polyline
         id="polyline4046"
         clip-path="url(#cpMHw3MDguNjYxfDUwMy40MjV8MA==)"
         style="fill:none;stroke:#333333;stroke-width:1.07000005;stroke-linecap:butt;stroke-linejoin:round;stroke-miterlimit:10"
         points="70.32,343.71 73.06,343.71 "
         transform="matrix(0,0.92160715,-1.1280301,0,504.78573,-31.111537)" />
      <polyline
         id="polyline4048"
         clip-path="url(#cpMHw3MDguNjYxfDUwMy40MjV8MA==)"
         style="fill:none;stroke:#333333;stroke-width:1.07000005;stroke-linecap:butt;stroke-linejoin:round;stroke-miterlimit:10"
         points="70.32,310.80 73.06,310.80 "
         transform="matrix(0,0.92160715,-1.1280301,0,504.78573,-31.111537)" />
      <polyline
         id="polyline4050"
         clip-path="url(#cpMHw3MDguNjYxfDUwMy40MjV8MA==)"
         style="fill:none;stroke:#333333;stroke-width:1.07000005;stroke-linecap:butt;stroke-linejoin:round;stroke-miterlimit:10"
         points="70.32,277.89 73.06,277.89 "
         transform="matrix(0,0.92160715,-1.1280301,0,504.78573,-31.111537)" />
      <polyline
         id="polyline4052"
         clip-path="url(#cpMHw3MDguNjYxfDUwMy40MjV8MA==)"
         style="fill:none;stroke:#333333;stroke-width:1.07000005;stroke-linecap:butt;stroke-linejoin:round;stroke-miterlimit:10"
         points="70.32,244.97 73.06,244.97 "
         transform="matrix(0,0.92160715,-1.1280301,0,504.78573,-31.111537)" />
      <polyline
         id="polyline4054"
         clip-path="url(#cpMHw3MDguNjYxfDUwMy40MjV8MA==)"
         style="fill:none;stroke:#333333;stroke-width:1.07000005;stroke-linecap:butt;stroke-linejoin:round;stroke-miterlimit:10"
         points="70.32,212.06 73.06,212.06 "
         transform="matrix(0,0.92160715,-1.1280301,0,504.78573,-31.111537)" />
      <polyline
         id="polyline4056"
         clip-path="url(#cpMHw3MDguNjYxfDUwMy40MjV8MA==)"
         style="fill:none;stroke:#333333;stroke-width:1.07000005;stroke-linecap:butt;stroke-linejoin:round;stroke-miterlimit:10"
         points="70.32,179.15 73.06,179.15 "
         transform="matrix(0,0.92160715,-1.1280301,0,504.78573,-31.111537)" />
      <polyline
         id="polyline4058"
         clip-path="url(#cpMHw3MDguNjYxfDUwMy40MjV8MA==)"
         style="fill:none;stroke:#333333;stroke-width:1.07000005;stroke-linecap:butt;stroke-linejoin:round;stroke-miterlimit:10"
         points="70.32,146.24 73.06,146.24 "
         transform="matrix(0,0.92160715,-1.1280301,0,504.78573,-31.111537)" />
      <polyline
         id="polyline4060"
         clip-path="url(#cpMHw3MDguNjYxfDUwMy40MjV8MA==)"
         style="fill:none;stroke:#333333;stroke-width:1.07000005;stroke-linecap:butt;stroke-linejoin:round;stroke-miterlimit:10"
         points="70.32,113.33 73.06,113.33 "
         transform="matrix(0,0.92160715,-1.1280301,0,504.78573,-31.111537)" />
      <polyline
         id="polyline4062"
         clip-path="url(#cpMHw3MDguNjYxfDUwMy40MjV8MA==)"
         style="fill:none;stroke:#333333;stroke-width:1.07000005;stroke-linecap:butt;stroke-linejoin:round;stroke-miterlimit:10"
         points="70.32,80.42 73.06,80.42 "
         transform="matrix(0,0.92160715,-1.1280301,0,504.78573,-31.111537)" />
      <polyline
         id="polyline4064"
         clip-path="url(#cpMHw3MDguNjYxfDUwMy40MjV8MA==)"
         style="fill:none;stroke:#333333;stroke-width:1.07000005;stroke-linecap:butt;stroke-linejoin:round;stroke-miterlimit:10"
         points="70.32,47.51 73.06,47.51 "
         transform="matrix(0,0.92160715,-1.1280301,0,504.78573,-31.111537)" />
      <polyline
         id="polyline4066"
         clip-path="url(#cpMHw3MDguNjYxfDUwMy40MjV8MA==)"
         style="fill:none;stroke:#333333;stroke-width:1.07000005;stroke-linecap:butt;stroke-linejoin:round;stroke-miterlimit:10"
         points="127.67,395.81 127.67,393.07 "
         transform="matrix(0,0.92160715,-1.1280301,0,504.78573,-31.111537)" />
      <polyline
         id="polyline4068"
         clip-path="url(#cpMHw3MDguNjYxfDUwMy40MjV8MA==)"
         style="fill:none;stroke:#333333;stroke-width:1.07000005;stroke-linecap:butt;stroke-linejoin:round;stroke-miterlimit:10"
         points="218.68,395.81 218.68,393.07 "
         transform="matrix(0,0.92160715,-1.1280301,0,504.78573,-31.111537)" />
      <polyline
         id="polyline4070"
         clip-path="url(#cpMHw3MDguNjYxfDUwMy40MjV8MA==)"
         style="fill:none;stroke:#333333;stroke-width:1.07000005;stroke-linecap:butt;stroke-linejoin:round;stroke-miterlimit:10"
         points="309.69,395.81 309.69,393.07 "
         transform="matrix(0,0.92160715,-1.1280301,0,504.78573,-31.111537)" />
      <polyline
         id="polyline4072"
         clip-path="url(#cpMHw3MDguNjYxfDUwMy40MjV8MA==)"
         style="fill:none;stroke:#333333;stroke-width:1.07000005;stroke-linecap:butt;stroke-linejoin:round;stroke-miterlimit:10"
         points="400.70,395.81 400.70,393.07 "
         transform="matrix(0,0.92160715,-1.1280301,0,504.78573,-31.111537)" />
      <polyline
         id="polyline4074"
         clip-path="url(#cpMHw3MDguNjYxfDUwMy40MjV8MA==)"
         style="fill:none;stroke:#333333;stroke-width:1.07000005;stroke-linecap:butt;stroke-linejoin:round;stroke-miterlimit:10"
         points="491.72,395.81 491.72,393.07 "
         transform="matrix(0,0.92160715,-1.1280301,0,504.78573,-31.111537)" />
      <g
         id="g4098"
         clip-path="url(#cpMHw3MDguNjYxfDUwMy40MjV8MA==)"
         transform="matrix(1,0,0,0.92160715,0,37.031284)" />
      <g
         id="g4102"
         clip-path="url(#cpMHw3MDguNjYxfDUwMy40MjV8MA==)"
         transform="matrix(1,0,0,0.92160715,0,37.031284)" />
      <rect
         id="rect4104"
         clip-path="url(#cpMHw3MDguNjYxfDUwMy40MjV8MA==)"
         style="fill:#ffffff;stroke:none;stroke-width:1.07000005;stroke-linecap:round;stroke-linejoin:round;stroke-miterlimit:10"
         height="81.260002"
         width="145.52"
         y="171.44"
         x="557.65997"
         transform="translate(-68.698021,208.05684)" />
      <g
         id="g4108"
         clip-path="url(#cpMHw3MDguNjYxfDUwMy40MjV8MA==)"
         transform="translate(-68.698021,208.05684)">
        <text
           id="text4106"
           lengthAdjust="spacingAndGlyphs"
           textLength="56.700001"
           style="font-size:20px;font-family:'Liberation Sans'"
           y="190.86"
           x="563.33002">Status</text>
      </g>
      <rect
         id="rect4110"
         clip-path="url(#cpMHw3MDguNjYxfDUwMy40MjV8MA==)"
         style="fill:#f2f2f2;stroke:#ffffff;stroke-width:1.07000005;stroke-linecap:round;stroke-linejoin:round;stroke-miterlimit:10"
         height="17.280001"
         width="17.280001"
         y="195.17999"
         x="563.33002"
         transform="matrix(1,0,0,0.92160715,-68.698021,244.31876)" />
      <rect
         id="rect4112"
         clip-path="url(#cpMHw3MDguNjYxfDUwMy40MjV8MA==)"
         style="fill:#999999;stroke:none;stroke-width:1.07000005;stroke-linecap:round;stroke-linejoin:miter;stroke-miterlimit:10"
         height="15.86"
         width="15.86"
         y="195.89"
         x="564.03998"
         transform="translate(-68.698021,208.05684)" />
      <rect
         id="rect4114"
         clip-path="url(#cpMHw3MDguNjYxfDUwMy40MjV8MA==)"
         style="fill:#f2f2f2;stroke:#ffffff;stroke-width:1.07000005;stroke-linecap:round;stroke-linejoin:round;stroke-miterlimit:10"
         height="17.280001"
         width="17.280001"
         y="212.46001"
         x="563.33002"
         transform="translate(-68.698021,208.05684)" />
      <rect
         id="rect4116"
         clip-path="url(#cpMHw3MDguNjYxfDUwMy40MjV8MA==)"
         style="fill:#e69f00;stroke:none;stroke-width:1.07000005;stroke-linecap:round;stroke-linejoin:miter;stroke-miterlimit:10"
         height="15.86"
         width="15.86"
         y="213.17"
         x="564.03998"
         transform="matrix(1,0,0,0.92160715,-68.698021,225.67215)" />
      <rect
         id="rect4120"
         clip-path="url(#cpMHw3MDguNjYxfDUwMy40MjV8MA==)"
         style="fill:#009e73;stroke:none;stroke-width:1.07000005;stroke-linecap:round;stroke-linejoin:miter;stroke-miterlimit:10"
         height="15.86"
         width="15.86"
         y="230.45"
         x="564.03998"
         transform="translate(-68.698021,208.05684)" />
      <g
         id="g4124"
         clip-path="url(#cpMHw3MDguNjYxfDUwMy40MjV8MA==)"
         transform="translate(-68.698021,208.05684)">
        <text
           id="text4122"
           lengthAdjust="spacingAndGlyphs"
           textLength="114.74"
           style="font-size:16px;font-family:'Liberation Sans'"
           y="209.33"
           x="582.77002">not reproducible</text>
      </g>
      <g
         id="g4128"
         clip-path="url(#cpMHw3MDguNjYxfDUwMy40MjV8MA==)"
         transform="translate(-68.698021,208.05684)">
        <text
           id="text4126"
           lengthAdjust="spacingAndGlyphs"
           textLength="110.26"
           style="font-size:16px;font-family:'Liberation Sans'"
           y="226.61"
           x="582.77002">minor problems</text>
      </g>
      <g
         id="g4132"
         clip-path="url(#cpMHw3MDguNjYxfDUwMy40MjV8MA==)"
         transform="translate(-68.698021,208.05684)">
        <text
           id="text4130"
           lengthAdjust="spacingAndGlyphs"
           textLength="88.050003"
           style="font-size:16px;font-family:'Liberation Sans'"
           y="243.89"
           x="582.77002">reproducible</text>
      </g>
      <g
         id="g4136"
         clip-path="url(#cpMHw3MDguNjYxfDUwMy40MjV8MA==)"
         transform="matrix(1,0,0,0.92160715,0,37.031284)" />
      <path
         style="fill:none;fill-rule:evenodd;stroke:#ffffff;stroke-width:4.4116745;stroke-linecap:butt;stroke-linejoin:miter;stroke-miterlimit:10;stroke-dasharray:4.41167482, 4.41167482;stroke-dashoffset:0;stroke-opacity:1"
         d="m 414.07653,48.751273 c 0,137.329207 0,274.657457 0,411.986187"
         id="path4266"
         inkscape:connector-curvature="0"
         inkscape:path-effect="#path-effect4268"
         inkscape:original-d="m 414.07653,48.751273 c 5.8e-4,137.329207 0,411.986187 0,411.986187" />
      <text
         xml:space="preserve"
         style="font-style:normal;font-variant:normal;font-weight:normal;font-stretch:normal;font-size:45.22310257px;line-height:11.77684879px;font-family:'League Gothic';-inkscape-font-specification:'League Gothic';letter-spacing:0px;word-spacing:0px;fill:#f6f6f6;fill-opacity:1;stroke:none;stroke-width:0.47107399px;stroke-linecap:butt;stroke-linejoin:miter;stroke-opacity:1"
         x="95.430672"
         y="102.51967"
         id="text4274"
         transform="scale(1.0416626,0.96000374)"><tspan
           sodipodi:role="line"
           id="tspan4272"
           x="95.430672"
           y="102.51967"
           style="fill:#f6f6f6;fill-opacity:1;stroke-width:0.47107399px">all pipelines</tspan></text>
      <text
         xml:space="preserve"
         style="font-style:normal;font-variant:normal;font-weight:normal;font-stretch:normal;font-size:45.22310257px;line-height:11.77684879px;font-family:'League Gothic';-inkscape-font-specification:'League Gothic';letter-spacing:0px;word-spacing:0px;fill:#f6f6f6;fill-opacity:1;stroke:none;stroke-width:0.47107399px;stroke-linecap:butt;stroke-linejoin:miter;stroke-opacity:1"
         x="94.7071"
         y="190.0807"
         id="text4274-8"
         transform="scale(1.0416626,0.96000374)"><tspan
           sodipodi:role="line"
           id="tspan4272-9"
           x="94.7071"
           y="190.0807"
           style="fill:#f6f6f6;fill-opacity:1;stroke-width:0.47107399px">PiGx BSseq</tspan></text>
      <text
         xml:space="preserve"
         style="font-style:normal;font-variant:normal;font-weight:normal;font-stretch:normal;font-size:45.22310257px;line-height:11.77684879px;font-family:'League Gothic';-inkscape-font-specification:'League Gothic';letter-spacing:0px;word-spacing:0px;fill:#f6f6f6;fill-opacity:1;stroke:none;stroke-width:0.47107399px;stroke-linecap:butt;stroke-linejoin:miter;stroke-opacity:1"
         x="94.7071"
         y="277.45004"
         id="text4274-8-2"
         transform="scale(1.0416626,0.96000374)"><tspan
           sodipodi:role="line"
           id="tspan4272-9-8"
           x="94.7071"
           y="277.45004"
           style="fill:#f6f6f6;fill-opacity:1;stroke-width:0.47107399px">PiGx ChIPseq</tspan></text>
      <text
         xml:space="preserve"
         style="font-style:normal;font-variant:normal;font-weight:normal;font-stretch:normal;font-size:45.22310257px;line-height:11.77684879px;font-family:'League Gothic';-inkscape-font-specification:'League Gothic';letter-spacing:0px;word-spacing:0px;fill:#f6f6f6;fill-opacity:1;stroke:none;stroke-width:0.47107399px;stroke-linecap:butt;stroke-linejoin:miter;stroke-opacity:1"
         x="94.7071"
         y="364.81998"
         id="text4274-8-2-8"
         transform="scale(1.0416626,0.96000374)"><tspan
           sodipodi:role="line"
           id="tspan4272-9-8-8"
           x="94.7071"
           y="364.81998"
           style="fill:#f6f6f6;fill-opacity:1;stroke-width:0.47107399px">PiGx RNAseq</tspan></text>
      <text
         xml:space="preserve"
         style="font-style:normal;font-variant:normal;font-weight:normal;font-stretch:normal;font-size:45.22310257px;line-height:11.77684879px;font-family:'League Gothic';-inkscape-font-specification:'League Gothic';letter-spacing:0px;word-spacing:0px;fill:#f6f6f6;fill-opacity:1;stroke:none;stroke-width:0.47107399px;stroke-linecap:butt;stroke-linejoin:miter;stroke-opacity:1"
         x="94.7071"
         y="452.18991"
         id="text4274-8-2-8-6"
         transform="scale(1.0416626,0.96000374)"><tspan
           sodipodi:role="line"
           id="tspan4272-9-8-8-8"
           x="94.7071"
           y="452.18991"
           style="fill:#f6f6f6;fill-opacity:1;stroke-width:0.47107399px">PiGx scRNAseq</tspan></text>
    </g>
    <g
       transform="matrix(1.761491,0,0,-1.761491,-28.049141,293.82925)"
       inkscape:label="Logo_PiGx"
       id="g4493">
      <g
         id="g4495">
        <g
           clip-path="url(#clipPath4501)"
           id="g4497">
          <path
             inkscape:connector-curvature="0"
             id="path4515-7"
             transform="matrix(0.75000002,0,0,-0.75000002,-7.94473,203.96383)"
             d="m 94.142578,99.246094 c -24.652133,0 -44.666016,20.024786 -44.666016,44.689456 0,13.01626 5.57629,24.73575 14.464844,32.90625 l -0.269531,0.59765 5.03125,11.1836 h 25.439453 25.675782 l 5.03125,-11.1836 -0.33984,-0.75781 c 8.78939,-8.1633 14.29882,-19.81315 14.29882,-32.74609 0,-24.66467 -20.01375,-44.689456 -44.666012,-44.689456 z"
             style="fill:#7d7d7d;fill-opacity:1;fill-rule:evenodd;stroke:none;stroke-width:1.33333325;filter:url(#filter5085)" />
          <path
             inkscape:connector-curvature="0"
             id="path4515"
             style="fill:#ffffff;fill-opacity:1;fill-rule:evenodd;stroke:none"
             d="m 62.407,131.598 c 18.4892,0 33.5,-15.018 33.5,-33.5165 0,-18.4979 -15.0108,-33.516 -33.5,-33.516 -18.4891,0 -33.5,15.0181 -33.5,33.516 0,18.4985 15.0109,33.5165 33.5,33.5165 z" />
          <g
             transform="matrix(0.333111,0,0,0.333111,28.907,114.591)"
             id="g4517">
            <g
               transform="translate(0,-125)"
               id="g4519">
              <g
                 id="g4521" />
              <g
                 id="g4535">
                <g
                   id="g4533"
                   clip-path="url(#clipPath4525)">
                  <path
                     inkscape:connector-curvature="0"
                     id="path4527"
                     style="fill:#ff3300;fill-opacity:0.97000002;fill-rule:nonzero;stroke:none"
                     d="m 86.2813,119.719 c -2.7494,-0.216 -3.4961,-3.985 -7.0313,-6.156 -7.259,5.207 -10.3905,2.1 -17.5,0.937 -4.9904,-1.75 -7.6217,0.733 -16.5,2.469 1.2023,-4.429 2.7516,-4.454 2.9688,-4.875 5.2661,-0.712 6.8298,0.493 10.2187,-2.875 -4.3988,3.716 -7.6521,1.045 -14.4062,3.875 -1.3359,0.635 -1.171,0.793 -3.9688,2.344 -1.0149,-5.093 1.4309,-9.368 4.7188,-12.25 2.0923,-1.835 3.8242,-2.732 8.125,-1.969 1.8626,0.33 -3.1442,-3.1454 -3.5268,-5.5985 C 51.0844,93.591 52.157,91.9742 55.683,90 47.9467,92.7317 48.5501,100.494 39.6563,99.0625 25.3452,96.7594 24.7897,97.1376 5.3125,101.094 9.957,88.16 21.0118,93.7456 40.0313,91 26.4216,92.271 18.6646,90.54 11.3125,93 16.9434,81.9322 30.9377,86.7959 42.625,87.5625 29.6252,85.6352 23.5252,84.689 17.9063,86.5313 24.4912,75.9039 36.8591,81.872 44.0938,84.1563 38.9917,81.8468 34.7375,79.6488 27.2188,80.2188 34.1418,72.3934 42.913,78.9489 46.0938,81.5 42.0913,77.2982 37.8282,75.3306 30.875,76.2813 24.5154,72.0124 23.6563,59.9375 23.6563,59.9375 c 0,0 1.3668,0.0302 1.5312,-0.0312 -0.0915,-0.0383 -0.3919,-0.0958 -1.0937,-0.1875 -2.8966,-0.3786 -5.0128,-0.9141 -6.2188,-4.375 -2.5037,-7.1852 5.8377,-6.5235 3.5625,-1.0938 2.5657,1.0902 4.0179,0.6285 5.1563,-0.6875 1.6999,-1.9652 0.8541,-5.3588 -0.0938,-7.7812 -1.0979,-2.8057 -3.8261,-4.7073 -6.0625,-6.7188 -1.5309,-1.3769 -5.3746,-1.1047 -4.9687,-3.625 0.3997,-2.4826 -5.1561,-5.284 -2.8438,-5.5 2.3123,-0.216 4.8251,2.439 10.3438,3.4688 2.9615,0.5526 15.9097,2.1919 18.9776,2.991 6.7009,1.7454 9.5934,5.4469 10.8125,7.1161 1.2191,1.6692 2.4086,10.1704 -0.7053,13.4955 3.1743,-1.7022 2.4993,-9.5515 1.8314,-12.2848 12.4503,-0.4991 27.9381,21.4848 24.5851,33.4708 2.1444,3.0165 5.3634,2.6781 15.1237,10.7426 -4.1798,1.2577 -1.8536,1.0127 -3.3016,0.7711 1.628,1.1536 2.1571,3.3405 2.7538,6.3379 -4.1969,-1.3613 -5.192,-4.8293 -9.1085,-5.9215 -3.9165,-1.0922 -3.6407,-2.6238 -15.0937,-1.5625 7.7373,0.0076 9.8909,-0.484 15.3125,2.4375 3.7139,2.1211 5.4616,7.854 6.875,17.781 -2.8072,-3.046 -4.6548,-3.918 -6.25,-3.75 3.0372,0.301 5.7898,3.515 8.5,7.094 1.4351,4.709 -3.1434,7.287 -6.4375,7.594 -0.2027,0.019 -0.3793,0.014 -0.5625,0 z m -67.8125,-6.25 c 0.4352,-3.783 0.0443,-5.778 3.7812,-9.969 5.7163,-4.7079 11.9375,-4.9062 11.9375,-4.9062 0,0 4.9657,1.0383 7.5,1.0937 1.6886,0.0369 2.2594,-0.0691 3.2768,-0.5 1.6057,-0.6801 2.943,-2.4614 4.1652,-3.1652 0.3506,1.5905 3.3705,4.6967 3.3705,4.6967 0,0 -2.5304,-0.262 -3.7812,-0.063 -1.1714,0.187 -2.2662,0.727 -3.375,1.157 -9.1051,3.527 -13.6889,0.614 -26.875,11.656 z m 53.8437,-4.594 c 0.5045,0.022 1.1155,-0.125 1.8125,-0.531 0.9383,-0.547 0.3705,-2.57 -0.3437,-2.156 -1.4388,0.833 -2.3259,-0.247 -3.5,0.375 -0.0473,-0.088 -0.2606,-0.201 -0.8438,-0.282 -0.9434,-0.131 -0.5681,0.249 0.4688,0.875 0.2101,0.127 0.8926,1.653 2.4062,1.719 z m -50.7187,-5.437 2.2812,-5.2192 c 0,0 2.5527,-0.4507 8.8438,0.0937 -2.6335,0.8268 -4.8496,1.2389 -7.0313,2.4065 -1.3411,0.439 -4.0937,2.719 -4.0937,2.719 z m 2.9375,-48.9692 c -0.9368,0.0949 -1.5961,-1.171 -2.1875,-1.9063 -0.513,-0.6377 -0.2135,-1.9454 -1.625,-2.5937 -1.7972,-0.7451 -2.2031,0.3608 -2.9063,0.1875 -2.6304,-1.5484 -4.8588,-5.8343 -6.9911,-5.2367 -1.7478,-0.3064 1.814,-0.96 -1.8437,-4.1116 1.036,-0.8999 3.8062,1.884 6.3214,2.317 3.0568,0.5262 5.9048,-2.2152 8.5134,-0.5313 2.5236,3.0218 3.6629,6.1312 3.3125,8.625 -0.2233,1.5893 -1.003,3.0888 -2.5937,3.25 z" />
                  <path
                     inkscape:connector-curvature="0"
                     id="path4529"
                     style="fill:#ff3300;fill-opacity:0.97000002;fill-rule:nonzero;stroke:none"
                     d="m 17.3337,51.9412 c -1.5079,0.6941 -1.0371,3.0064 -2.8128,3.3102 -0.533,-0.6736 -0.2215,-0.8317 0.3734,-1.0819 1.2939,-0.6222 0.5364,-2.0003 -0.6657,-2.038 -1.202,-0.0377 -1.9875,1.0265 -2.0822,2.2141 -0.0237,1.4681 1.0686,2.953 2.4841,3.3231 1.5102,0.3949 2.6553,-0.9 3.1781,-1.9614 -0.7337,-1.6393 -0.7483,-2.5285 -0.4749,-3.7661 z" />
                  <path
                     inkscape:connector-curvature="0"
                     id="path4531"
                     style="fill:#ff3300;fill-opacity:0.97000002;fill-rule:nonzero;stroke:none"
                     d="m 10.8678,56.2019 c 0.5651,0.092 1.3151,-0.44 1.3151,-0.44 0,0 -0.5434,-0.8098 -0.073,-2.2003 -1.0951,0.351 -0.6131,1.3774 -1.2786,1.6502 -0.4126,0.1691 -0.8049,-0.0255 -1.0959,-0.8068 -0.587,0.6916 0.239,1.6514 1.1325,1.7969 z" />
                </g>
              </g>
            </g>
          </g>
          <g
             transform="matrix(0.058176,0,0,0.058176,72.552,108.153)"
             id="g4537">
            <g
               transform="translate(0,-125)"
               id="g4539">
              <g
                 id="g4541" />
              <g
                 id="g4551">
                <g
                   id="g4549"
                   clip-path="url(#clipPath4545)">
                  <path
                     inkscape:connector-curvature="0"
                     id="path4547"
                     style="fill:#ff3300;fill-opacity:1;fill-rule:nonzero;stroke:none"
                     d="M 40.9,88.9 55.5,57.4 c 0,1.5 -0.1,4 -0.1,7.1 l -3.2,27.9 c -7,-0.1 -11.3,-3.5 -11.3,-3.5 z m 18.3,3.6 c -1.7,0.1 -3.3,0.1 -4.7,0 l 1.6,-16 c 0.5,5.2 1.5,10.8 3.1,16 z M 23.3,65.3 c 2.6,-0.8 5.2,-1.7 8.1,-2.8 0,0 8.4,-4.3 14.9,-7 L 29.2,77 C 26.7,73.3 24.8,69.2 23.3,65.3 Z m -11,-14.9 c 0.5,2.7 1.1,5.5 2,8.1 -2.2,0.4 -4.4,0.7 -6.5,0.9 1.1,-3.2 2.7,-6.2 4.5,-9 z m 39.6,2.8 c 0,0 2.1,-0.7 3.1,0.4 L 38.7,87.3 C 35.9,85.2 33.4,82.8 31.2,80 L 50.9,53.6 c 0.4,-0.2 0.7,-0.3 1,-0.4 z m 41.9,32.1 c -1.4,5.9 -4,11.4 -7.4,16.1 2,-5.1 4.1,-10.7 5.6,-14.6 0.6,-0.4 1.3,-1 1.8,-1.5 z m -2.3,-6.1 c -4.2,3.3 -8.2,5.9 -12.1,7.9 L 64,82.5 60.9,74.7 C 60.4,69.8 60,63.6 60.4,58.5 c 0,0 0.9,-9.9 -2.7,-11.1 0,0 -3.9,-3.8 -13.8,0.9 0,0 -10.3,5.4 -23.1,8.8 C 18.8,49.5 18.3,43.7 18.3,43.2 26.3,35 37.6,30 50,30 c 24.8,0 45,20.2 45,45 0,0.5 0,1 0,1.5 -1.8,-0.3 -3.5,2.7 -3.5,2.7 z M 61.3,97.9 c 0.9,2.1 2.1,4.1 3.3,5.9 0,0 3.4,5.3 8.5,9.8 C 66.4,117.6 58.4,120 50,120 25.1,120 5,99.8 5,75 5,72.6 5.2,70.4 5.5,68.2 9,68.1 12.9,67.7 17.2,66.9 c 2.6,6.3 5,10.6 5,10.6 0,0 12,22.2 39.1,20.4 z M 62,85 l 0.9,0.3 2.6,6.4 c -0.6,0.1 -1,0.2 -1.6,0.3 -0.8,-2.1 -1.5,-4.5 -1.9,-7 z m 5.5,6.3 -2.2,-5.4 10.5,2.7 c -2.8,1.2 -5.6,2.1 -8.3,2.7 z m 3.2,11.3 c -1.4,-1.6 -2.8,-3.4 -4.1,-5.4 5,-0.9 9.3,-2.1 13,-3.5 z m 17,-12.8 -6.4,17.5 c -0.9,0.9 -1.8,1.7 -2.7,2.5 -2,-1.4 -4.1,-3.1 -6.2,-5.2 L 83.5,92 c 1.6,-0.8 3.1,-1.6 4.2,-2.2 z" />
                </g>
              </g>
            </g>
          </g>
          <g
             transform="matrix(0.058176,0,0,0.058176,78.9376,104.321)"
             id="g4553">
            <g
               transform="translate(0,-125)"
               id="g4555">
              <g
                 id="g4557" />
              <g
                 id="g4567">
                <g
                   id="g4565"
                   clip-path="url(#clipPath4561)">
                  <path
                     inkscape:connector-curvature="0"
                     id="path4563"
                     style="fill:#ff3300;fill-opacity:1;fill-rule:nonzero;stroke:none"
                     d="M 40.9,88.9 55.5,57.4 c 0,1.5 -0.1,4 -0.1,7.1 l -3.2,27.9 c -7,-0.1 -11.3,-3.5 -11.3,-3.5 z m 18.3,3.6 c -1.7,0.1 -3.3,0.1 -4.7,0 l 1.6,-16 c 0.5,5.2 1.5,10.8 3.1,16 z M 23.3,65.3 c 2.6,-0.8 5.2,-1.7 8.1,-2.8 0,0 8.4,-4.3 14.9,-7 L 29.2,77 C 26.7,73.3 24.8,69.2 23.3,65.3 Z m -11,-14.9 c 0.5,2.7 1.1,5.5 2,8.1 -2.2,0.4 -4.4,0.7 -6.5,0.9 1.1,-3.2 2.7,-6.2 4.5,-9 z m 39.6,2.8 c 0,0 2.1,-0.7 3.1,0.4 L 38.7,87.3 C 35.9,85.2 33.4,82.8 31.2,80 L 50.9,53.6 c 0.4,-0.2 0.7,-0.3 1,-0.4 z m 41.9,32.1 c -1.4,5.9 -4,11.4 -7.4,16.1 2,-5.1 4.1,-10.7 5.6,-14.6 0.6,-0.4 1.3,-1 1.8,-1.5 z m -2.3,-6.1 c -4.2,3.3 -8.2,5.9 -12.1,7.9 L 64,82.5 60.9,74.7 C 60.4,69.8 60,63.6 60.4,58.5 c 0,0 0.9,-9.9 -2.7,-11.1 0,0 -3.9,-3.8 -13.8,0.9 0,0 -10.3,5.4 -23.1,8.8 C 18.8,49.5 18.3,43.7 18.3,43.2 26.3,35 37.6,30 50,30 c 24.8,0 45,20.2 45,45 0,0.5 0,1 0,1.5 -1.8,-0.3 -3.5,2.7 -3.5,2.7 z M 61.3,97.9 c 0.9,2.1 2.1,4.1 3.3,5.9 0,0 3.4,5.3 8.5,9.8 C 66.4,117.6 58.4,120 50,120 25.1,120 5,99.8 5,75 5,72.6 5.2,70.4 5.5,68.2 9,68.1 12.9,67.7 17.2,66.9 c 2.6,6.3 5,10.6 5,10.6 0,0 12,22.2 39.1,20.4 z M 62,85 l 0.9,0.3 2.6,6.4 c -0.6,0.1 -1,0.2 -1.6,0.3 -0.8,-2.1 -1.5,-4.5 -1.9,-7 z m 5.5,6.3 -2.2,-5.4 10.5,2.7 c -2.8,1.2 -5.6,2.1 -8.3,2.7 z m 3.2,11.3 c -1.4,-1.6 -2.8,-3.4 -4.1,-5.4 5,-0.9 9.3,-2.1 13,-3.5 z m 17,-12.8 -6.4,17.5 c -0.9,0.9 -1.8,1.7 -2.7,2.5 -2,-1.4 -4.1,-3.1 -6.2,-5.2 L 83.5,92 c 1.6,-0.8 3.1,-1.6 4.2,-2.2 z" />
                </g>
              </g>
            </g>
          </g>
          <g
             transform="matrix(0.024073,0,0,0.024073,90.7746,109.657)"
             id="g4569">
            <g
               transform="translate(0,-125)"
               id="g4571">
              <g
                 id="g4573" />
              <g
                 id="g4583">
                <g
                   id="g4581"
                   clip-path="url(#clipPath4577)">
                  <path
                     inkscape:connector-curvature="0"
                     id="path4579"
                     style="fill:#ff3300;fill-opacity:1;fill-rule:nonzero;stroke:none"
                     d="M 40.9,88.9 55.5,57.4 c 0,1.5 -0.1,4 -0.1,7.1 l -3.2,27.9 c -7,-0.1 -11.3,-3.5 -11.3,-3.5 z m 18.3,3.6 c -1.7,0.1 -3.3,0.1 -4.7,0 l 1.6,-16 c 0.5,5.2 1.5,10.8 3.1,16 z M 23.3,65.3 c 2.6,-0.8 5.2,-1.7 8.1,-2.8 0,0 8.4,-4.3 14.9,-7 L 29.2,77 C 26.7,73.3 24.8,69.2 23.3,65.3 Z m -11,-14.9 c 0.5,2.7 1.1,5.5 2,8.1 -2.2,0.4 -4.4,0.7 -6.5,0.9 1.1,-3.2 2.7,-6.2 4.5,-9 z m 39.6,2.8 c 0,0 2.1,-0.7 3.1,0.4 L 38.7,87.3 C 35.9,85.2 33.4,82.8 31.2,80 L 50.9,53.6 c 0.4,-0.2 0.7,-0.3 1,-0.4 z m 41.9,32.1 c -1.4,5.9 -4,11.4 -7.4,16.1 2,-5.1 4.1,-10.7 5.6,-14.6 0.6,-0.4 1.3,-1 1.8,-1.5 z m -2.3,-6.1 c -4.2,3.3 -8.2,5.9 -12.1,7.9 L 64,82.5 60.9,74.7 C 60.4,69.8 60,63.6 60.4,58.5 c 0,0 0.9,-9.9 -2.7,-11.1 0,0 -3.9,-3.8 -13.8,0.9 0,0 -10.3,5.4 -23.1,8.8 C 18.8,49.5 18.3,43.7 18.3,43.2 26.3,35 37.6,30 50,30 c 24.8,0 45,20.2 45,45 0,0.5 0,1 0,1.5 -1.8,-0.3 -3.5,2.7 -3.5,2.7 z M 61.3,97.9 c 0.9,2.1 2.1,4.1 3.3,5.9 0,0 3.4,5.3 8.5,9.8 C 66.4,117.6 58.4,120 50,120 25.1,120 5,99.8 5,75 5,72.6 5.2,70.4 5.5,68.2 9,68.1 12.9,67.7 17.2,66.9 c 2.6,6.3 5,10.6 5,10.6 0,0 12,22.2 39.1,20.4 z M 62,85 l 0.9,0.3 2.6,6.4 c -0.6,0.1 -1,0.2 -1.6,0.3 -0.8,-2.1 -1.5,-4.5 -1.9,-7 z m 5.5,6.3 -2.2,-5.4 10.5,2.7 c -2.8,1.2 -5.6,2.1 -8.3,2.7 z m 3.2,11.3 c -1.4,-1.6 -2.8,-3.4 -4.1,-5.4 5,-0.9 9.3,-2.1 13,-3.5 z m 17,-12.8 -6.4,17.5 c -0.9,0.9 -1.8,1.7 -2.7,2.5 -2,-1.4 -4.1,-3.1 -6.2,-5.2 L 83.5,92 c 1.6,-0.8 3.1,-1.6 4.2,-2.2 z" />
                </g>
              </g>
            </g>
          </g>
          <g
             transform="matrix(0.027311,0,0,0.027311,83.2279,114.335)"
             id="g4585">
            <g
               transform="translate(0,-125)"
               id="g4587">
              <g
                 id="g4589" />
              <g
                 id="g4599">
                <g
                   id="g4597"
                   clip-path="url(#clipPath4593)">
                  <path
                     inkscape:connector-curvature="0"
                     id="path4595"
                     style="fill:#ff3300;fill-opacity:1;fill-rule:nonzero;stroke:none"
                     d="M 40.9,88.9 55.5,57.4 c 0,1.5 -0.1,4 -0.1,7.1 l -3.2,27.9 c -7,-0.1 -11.3,-3.5 -11.3,-3.5 z m 18.3,3.6 c -1.7,0.1 -3.3,0.1 -4.7,0 l 1.6,-16 c 0.5,5.2 1.5,10.8 3.1,16 z M 23.3,65.3 c 2.6,-0.8 5.2,-1.7 8.1,-2.8 0,0 8.4,-4.3 14.9,-7 L 29.2,77 C 26.7,73.3 24.8,69.2 23.3,65.3 Z m -11,-14.9 c 0.5,2.7 1.1,5.5 2,8.1 -2.2,0.4 -4.4,0.7 -6.5,0.9 1.1,-3.2 2.7,-6.2 4.5,-9 z m 39.6,2.8 c 0,0 2.1,-0.7 3.1,0.4 L 38.7,87.3 C 35.9,85.2 33.4,82.8 31.2,80 L 50.9,53.6 c 0.4,-0.2 0.7,-0.3 1,-0.4 z m 41.9,32.1 c -1.4,5.9 -4,11.4 -7.4,16.1 2,-5.1 4.1,-10.7 5.6,-14.6 0.6,-0.4 1.3,-1 1.8,-1.5 z m -2.3,-6.1 c -4.2,3.3 -8.2,5.9 -12.1,7.9 L 64,82.5 60.9,74.7 C 60.4,69.8 60,63.6 60.4,58.5 c 0,0 0.9,-9.9 -2.7,-11.1 0,0 -3.9,-3.8 -13.8,0.9 0,0 -10.3,5.4 -23.1,8.8 C 18.8,49.5 18.3,43.7 18.3,43.2 26.3,35 37.6,30 50,30 c 24.8,0 45,20.2 45,45 0,0.5 0,1 0,1.5 -1.8,-0.3 -3.5,2.7 -3.5,2.7 z M 61.3,97.9 c 0.9,2.1 2.1,4.1 3.3,5.9 0,0 3.4,5.3 8.5,9.8 C 66.4,117.6 58.4,120 50,120 25.1,120 5,99.8 5,75 5,72.6 5.2,70.4 5.5,68.2 9,68.1 12.9,67.7 17.2,66.9 c 2.6,6.3 5,10.6 5,10.6 0,0 12,22.2 39.1,20.4 z M 62,85 l 0.9,0.3 2.6,6.4 c -0.6,0.1 -1,0.2 -1.6,0.3 -0.8,-2.1 -1.5,-4.5 -1.9,-7 z m 5.5,6.3 -2.2,-5.4 10.5,2.7 c -2.8,1.2 -5.6,2.1 -8.3,2.7 z m 3.2,11.3 c -1.4,-1.6 -2.8,-3.4 -4.1,-5.4 5,-0.9 9.3,-2.1 13,-3.5 z m 17,-12.8 -6.4,17.5 c -0.9,0.9 -1.8,1.7 -2.7,2.5 -2,-1.4 -4.1,-3.1 -6.2,-5.2 L 83.5,92 c 1.6,-0.8 3.1,-1.6 4.2,-2.2 z" />
                </g>
              </g>
            </g>
          </g>
          <g
             transform="matrix(0.044286,0,0,0.044286,78.2072,113.689)"
             id="g4601">
            <g
               transform="translate(0,-125)"
               id="g4603">
              <g
                 id="g4605" />
              <g
                 id="g4615">
                <g
                   id="g4613"
                   clip-path="url(#clipPath4609)">
                  <path
                     inkscape:connector-curvature="0"
                     id="path4611"
                     style="fill:#ff3300;fill-opacity:1;fill-rule:nonzero;stroke:none"
                     d="M 40.9,88.9 55.5,57.4 c 0,1.5 -0.1,4 -0.1,7.1 l -3.2,27.9 c -7,-0.1 -11.3,-3.5 -11.3,-3.5 z m 18.3,3.6 c -1.7,0.1 -3.3,0.1 -4.7,0 l 1.6,-16 c 0.5,5.2 1.5,10.8 3.1,16 z M 23.3,65.3 c 2.6,-0.8 5.2,-1.7 8.1,-2.8 0,0 8.4,-4.3 14.9,-7 L 29.2,77 C 26.7,73.3 24.8,69.2 23.3,65.3 Z m -11,-14.9 c 0.5,2.7 1.1,5.5 2,8.1 -2.2,0.4 -4.4,0.7 -6.5,0.9 1.1,-3.2 2.7,-6.2 4.5,-9 z m 39.6,2.8 c 0,0 2.1,-0.7 3.1,0.4 L 38.7,87.3 C 35.9,85.2 33.4,82.8 31.2,80 L 50.9,53.6 c 0.4,-0.2 0.7,-0.3 1,-0.4 z m 41.9,32.1 c -1.4,5.9 -4,11.4 -7.4,16.1 2,-5.1 4.1,-10.7 5.6,-14.6 0.6,-0.4 1.3,-1 1.8,-1.5 z m -2.3,-6.1 c -4.2,3.3 -8.2,5.9 -12.1,7.9 L 64,82.5 60.9,74.7 C 60.4,69.8 60,63.6 60.4,58.5 c 0,0 0.9,-9.9 -2.7,-11.1 0,0 -3.9,-3.8 -13.8,0.9 0,0 -10.3,5.4 -23.1,8.8 C 18.8,49.5 18.3,43.7 18.3,43.2 26.3,35 37.6,30 50,30 c 24.8,0 45,20.2 45,45 0,0.5 0,1 0,1.5 -1.8,-0.3 -3.5,2.7 -3.5,2.7 z M 61.3,97.9 c 0.9,2.1 2.1,4.1 3.3,5.9 0,0 3.4,5.3 8.5,9.8 C 66.4,117.6 58.4,120 50,120 25.1,120 5,99.8 5,75 5,72.6 5.2,70.4 5.5,68.2 9,68.1 12.9,67.7 17.2,66.9 c 2.6,6.3 5,10.6 5,10.6 0,0 12,22.2 39.1,20.4 z M 62,85 l 0.9,0.3 2.6,6.4 c -0.6,0.1 -1,0.2 -1.6,0.3 -0.8,-2.1 -1.5,-4.5 -1.9,-7 z m 5.5,6.3 -2.2,-5.4 10.5,2.7 c -2.8,1.2 -5.6,2.1 -8.3,2.7 z m 3.2,11.3 c -1.4,-1.6 -2.8,-3.4 -4.1,-5.4 5,-0.9 9.3,-2.1 13,-3.5 z m 17,-12.8 -6.4,17.5 c -0.9,0.9 -1.8,1.7 -2.7,2.5 -2,-1.4 -4.1,-3.1 -6.2,-5.2 L 83.5,92 c 1.6,-0.8 3.1,-1.6 4.2,-2.2 z" />
                </g>
              </g>
            </g>
          </g>
          <g
             transform="matrix(0.098272,0,0,0.098272,60.1593,110.921)"
             id="g4617">
            <g
               transform="translate(0,-125)"
               id="g4619">
              <g
                 id="g4621" />
              <g
                 id="g4631">
                <g
                   id="g4629"
                   clip-path="url(#clipPath4625)">
                  <path
                     inkscape:connector-curvature="0"
                     id="path4627"
                     style="fill:#ff3300;fill-opacity:1;fill-rule:nonzero;stroke:none"
                     d="M 40.9,88.9 55.5,57.4 c 0,1.5 -0.1,4 -0.1,7.1 l -3.2,27.9 c -7,-0.1 -11.3,-3.5 -11.3,-3.5 z m 18.3,3.6 c -1.7,0.1 -3.3,0.1 -4.7,0 l 1.6,-16 c 0.5,5.2 1.5,10.8 3.1,16 z M 23.3,65.3 c 2.6,-0.8 5.2,-1.7 8.1,-2.8 0,0 8.4,-4.3 14.9,-7 L 29.2,77 C 26.7,73.3 24.8,69.2 23.3,65.3 Z m -11,-14.9 c 0.5,2.7 1.1,5.5 2,8.1 -2.2,0.4 -4.4,0.7 -6.5,0.9 1.1,-3.2 2.7,-6.2 4.5,-9 z m 39.6,2.8 c 0,0 2.1,-0.7 3.1,0.4 L 38.7,87.3 C 35.9,85.2 33.4,82.8 31.2,80 L 50.9,53.6 c 0.4,-0.2 0.7,-0.3 1,-0.4 z m 41.9,32.1 c -1.4,5.9 -4,11.4 -7.4,16.1 2,-5.1 4.1,-10.7 5.6,-14.6 0.6,-0.4 1.3,-1 1.8,-1.5 z m -2.3,-6.1 c -4.2,3.3 -8.2,5.9 -12.1,7.9 L 64,82.5 60.9,74.7 C 60.4,69.8 60,63.6 60.4,58.5 c 0,0 0.9,-9.9 -2.7,-11.1 0,0 -3.9,-3.8 -13.8,0.9 0,0 -10.3,5.4 -23.1,8.8 C 18.8,49.5 18.3,43.7 18.3,43.2 26.3,35 37.6,30 50,30 c 24.8,0 45,20.2 45,45 0,0.5 0,1 0,1.5 -1.8,-0.3 -3.5,2.7 -3.5,2.7 z M 61.3,97.9 c 0.9,2.1 2.1,4.1 3.3,5.9 0,0 3.4,5.3 8.5,9.8 C 66.4,117.6 58.4,120 50,120 25.1,120 5,99.8 5,75 5,72.6 5.2,70.4 5.5,68.2 9,68.1 12.9,67.7 17.2,66.9 c 2.6,6.3 5,10.6 5,10.6 0,0 12,22.2 39.1,20.4 z M 62,85 l 0.9,0.3 2.6,6.4 c -0.6,0.1 -1,0.2 -1.6,0.3 -0.8,-2.1 -1.5,-4.5 -1.9,-7 z m 5.5,6.3 -2.2,-5.4 10.5,2.7 c -2.8,1.2 -5.6,2.1 -8.3,2.7 z m 3.2,11.3 c -1.4,-1.6 -2.8,-3.4 -4.1,-5.4 5,-0.9 9.3,-2.1 13,-3.5 z m 17,-12.8 -6.4,17.5 c -0.9,0.9 -1.8,1.7 -2.7,2.5 -2,-1.4 -4.1,-3.1 -6.2,-5.2 L 83.5,92 c 1.6,-0.8 3.1,-1.6 4.2,-2.2 z" />
                </g>
              </g>
            </g>
          </g>
          <g
             transform="matrix(0.098272,0,0,0.098272,65.9064,102.619)"
             id="g4633">
            <g
               transform="translate(0,-125)"
               id="g4635">
              <g
                 id="g4637" />
              <g
                 id="g4647">
                <g
                   id="g4645"
                   clip-path="url(#clipPath4641)">
                  <path
                     inkscape:connector-curvature="0"
                     id="path4643"
                     style="fill:#ff3300;fill-opacity:1;fill-rule:nonzero;stroke:none"
                     d="M 40.9,88.9 55.5,57.4 c 0,1.5 -0.1,4 -0.1,7.1 l -3.2,27.9 c -7,-0.1 -11.3,-3.5 -11.3,-3.5 z m 18.3,3.6 c -1.7,0.1 -3.3,0.1 -4.7,0 l 1.6,-16 c 0.5,5.2 1.5,10.8 3.1,16 z M 23.3,65.3 c 2.6,-0.8 5.2,-1.7 8.1,-2.8 0,0 8.4,-4.3 14.9,-7 L 29.2,77 C 26.7,73.3 24.8,69.2 23.3,65.3 Z m -11,-14.9 c 0.5,2.7 1.1,5.5 2,8.1 -2.2,0.4 -4.4,0.7 -6.5,0.9 1.1,-3.2 2.7,-6.2 4.5,-9 z m 39.6,2.8 c 0,0 2.1,-0.7 3.1,0.4 L 38.7,87.3 C 35.9,85.2 33.4,82.8 31.2,80 L 50.9,53.6 c 0.4,-0.2 0.7,-0.3 1,-0.4 z m 41.9,32.1 c -1.4,5.9 -4,11.4 -7.4,16.1 2,-5.1 4.1,-10.7 5.6,-14.6 0.6,-0.4 1.3,-1 1.8,-1.5 z m -2.3,-6.1 c -4.2,3.3 -8.2,5.9 -12.1,7.9 L 64,82.5 60.9,74.7 C 60.4,69.8 60,63.6 60.4,58.5 c 0,0 0.9,-9.9 -2.7,-11.1 0,0 -3.9,-3.8 -13.8,0.9 0,0 -10.3,5.4 -23.1,8.8 C 18.8,49.5 18.3,43.7 18.3,43.2 26.3,35 37.6,30 50,30 c 24.8,0 45,20.2 45,45 0,0.5 0,1 0,1.5 -1.8,-0.3 -3.5,2.7 -3.5,2.7 z M 61.3,97.9 c 0.9,2.1 2.1,4.1 3.3,5.9 0,0 3.4,5.3 8.5,9.8 C 66.4,117.6 58.4,120 50,120 25.1,120 5,99.8 5,75 5,72.6 5.2,70.4 5.5,68.2 9,68.1 12.9,67.7 17.2,66.9 c 2.6,6.3 5,10.6 5,10.6 0,0 12,22.2 39.1,20.4 z M 62,85 l 0.9,0.3 2.6,6.4 c -0.6,0.1 -1,0.2 -1.6,0.3 -0.8,-2.1 -1.5,-4.5 -1.9,-7 z m 5.5,6.3 -2.2,-5.4 10.5,2.7 c -2.8,1.2 -5.6,2.1 -8.3,2.7 z m 3.2,11.3 c -1.4,-1.6 -2.8,-3.4 -4.1,-5.4 5,-0.9 9.3,-2.1 13,-3.5 z m 17,-12.8 -6.4,17.5 c -0.9,0.9 -1.8,1.7 -2.7,2.5 -2,-1.4 -4.1,-3.1 -6.2,-5.2 L 83.5,92 c 1.6,-0.8 3.1,-1.6 4.2,-2.2 z" />
                </g>
              </g>
            </g>
          </g>
          <g
             transform="matrix(0.040731,0,0,0.040731,73.4243,115.376)"
             id="g4649">
            <g
               transform="translate(0,-125)"
               id="g4651">
              <g
                 id="g4653" />
              <g
                 id="g4663">
                <g
                   id="g4661"
                   clip-path="url(#clipPath4657)">
                  <path
                     inkscape:connector-curvature="0"
                     id="path4659"
                     style="fill:#ff3300;fill-opacity:1;fill-rule:nonzero;stroke:none"
                     d="M 40.9,88.9 55.5,57.4 c 0,1.5 -0.1,4 -0.1,7.1 l -3.2,27.9 c -7,-0.1 -11.3,-3.5 -11.3,-3.5 z m 18.3,3.6 c -1.7,0.1 -3.3,0.1 -4.7,0 l 1.6,-16 c 0.5,5.2 1.5,10.8 3.1,16 z M 23.3,65.3 c 2.6,-0.8 5.2,-1.7 8.1,-2.8 0,0 8.4,-4.3 14.9,-7 L 29.2,77 C 26.7,73.3 24.8,69.2 23.3,65.3 Z m -11,-14.9 c 0.5,2.7 1.1,5.5 2,8.1 -2.2,0.4 -4.4,0.7 -6.5,0.9 1.1,-3.2 2.7,-6.2 4.5,-9 z m 39.6,2.8 c 0,0 2.1,-0.7 3.1,0.4 L 38.7,87.3 C 35.9,85.2 33.4,82.8 31.2,80 L 50.9,53.6 c 0.4,-0.2 0.7,-0.3 1,-0.4 z m 41.9,32.1 c -1.4,5.9 -4,11.4 -7.4,16.1 2,-5.1 4.1,-10.7 5.6,-14.6 0.6,-0.4 1.3,-1 1.8,-1.5 z m -2.3,-6.1 c -4.2,3.3 -8.2,5.9 -12.1,7.9 L 64,82.5 60.9,74.7 C 60.4,69.8 60,63.6 60.4,58.5 c 0,0 0.9,-9.9 -2.7,-11.1 0,0 -3.9,-3.8 -13.8,0.9 0,0 -10.3,5.4 -23.1,8.8 C 18.8,49.5 18.3,43.7 18.3,43.2 26.3,35 37.6,30 50,30 c 24.8,0 45,20.2 45,45 0,0.5 0,1 0,1.5 -1.8,-0.3 -3.5,2.7 -3.5,2.7 z M 61.3,97.9 c 0.9,2.1 2.1,4.1 3.3,5.9 0,0 3.4,5.3 8.5,9.8 C 66.4,117.6 58.4,120 50,120 25.1,120 5,99.8 5,75 5,72.6 5.2,70.4 5.5,68.2 9,68.1 12.9,67.7 17.2,66.9 c 2.6,6.3 5,10.6 5,10.6 0,0 12,22.2 39.1,20.4 z M 62,85 l 0.9,0.3 2.6,6.4 c -0.6,0.1 -1,0.2 -1.6,0.3 -0.8,-2.1 -1.5,-4.5 -1.9,-7 z m 5.5,6.3 -2.2,-5.4 10.5,2.7 c -2.8,1.2 -5.6,2.1 -8.3,2.7 z m 3.2,11.3 c -1.4,-1.6 -2.8,-3.4 -4.1,-5.4 5,-0.9 9.3,-2.1 13,-3.5 z m 17,-12.8 -6.4,17.5 c -0.9,0.9 -1.8,1.7 -2.7,2.5 -2,-1.4 -4.1,-3.1 -6.2,-5.2 L 83.5,92 c 1.6,-0.8 3.1,-1.6 4.2,-2.2 z" />
                </g>
              </g>
            </g>
          </g>
          <g
             transform="matrix(0.040731,0,0,0.040731,82.6358,109.194)"
             id="g4665">
            <g
               transform="translate(0,-125)"
               id="g4667">
              <g
                 id="g4669" />
              <g
                 id="g4679">
                <g
                   id="g4677"
                   clip-path="url(#clipPath4673)">
                  <path
                     inkscape:connector-curvature="0"
                     id="path4675"
                     style="fill:#ff3300;fill-opacity:1;fill-rule:nonzero;stroke:none"
                     d="M 40.9,88.9 55.5,57.4 c 0,1.5 -0.1,4 -0.1,7.1 l -3.2,27.9 c -7,-0.1 -11.3,-3.5 -11.3,-3.5 z m 18.3,3.6 c -1.7,0.1 -3.3,0.1 -4.7,0 l 1.6,-16 c 0.5,5.2 1.5,10.8 3.1,16 z M 23.3,65.3 c 2.6,-0.8 5.2,-1.7 8.1,-2.8 0,0 8.4,-4.3 14.9,-7 L 29.2,77 C 26.7,73.3 24.8,69.2 23.3,65.3 Z m -11,-14.9 c 0.5,2.7 1.1,5.5 2,8.1 -2.2,0.4 -4.4,0.7 -6.5,0.9 1.1,-3.2 2.7,-6.2 4.5,-9 z m 39.6,2.8 c 0,0 2.1,-0.7 3.1,0.4 L 38.7,87.3 C 35.9,85.2 33.4,82.8 31.2,80 L 50.9,53.6 c 0.4,-0.2 0.7,-0.3 1,-0.4 z m 41.9,32.1 c -1.4,5.9 -4,11.4 -7.4,16.1 2,-5.1 4.1,-10.7 5.6,-14.6 0.6,-0.4 1.3,-1 1.8,-1.5 z m -2.3,-6.1 c -4.2,3.3 -8.2,5.9 -12.1,7.9 L 64,82.5 60.9,74.7 C 60.4,69.8 60,63.6 60.4,58.5 c 0,0 0.9,-9.9 -2.7,-11.1 0,0 -3.9,-3.8 -13.8,0.9 0,0 -10.3,5.4 -23.1,8.8 C 18.8,49.5 18.3,43.7 18.3,43.2 26.3,35 37.6,30 50,30 c 24.8,0 45,20.2 45,45 0,0.5 0,1 0,1.5 -1.8,-0.3 -3.5,2.7 -3.5,2.7 z M 61.3,97.9 c 0.9,2.1 2.1,4.1 3.3,5.9 0,0 3.4,5.3 8.5,9.8 C 66.4,117.6 58.4,120 50,120 25.1,120 5,99.8 5,75 5,72.6 5.2,70.4 5.5,68.2 9,68.1 12.9,67.7 17.2,66.9 c 2.6,6.3 5,10.6 5,10.6 0,0 12,22.2 39.1,20.4 z M 62,85 l 0.9,0.3 2.6,6.4 c -0.6,0.1 -1,0.2 -1.6,0.3 -0.8,-2.1 -1.5,-4.5 -1.9,-7 z m 5.5,6.3 -2.2,-5.4 10.5,2.7 c -2.8,1.2 -5.6,2.1 -8.3,2.7 z m 3.2,11.3 c -1.4,-1.6 -2.8,-3.4 -4.1,-5.4 5,-0.9 9.3,-2.1 13,-3.5 z m 17,-12.8 -6.4,17.5 c -0.9,0.9 -1.8,1.7 -2.7,2.5 -2,-1.4 -4.1,-3.1 -6.2,-5.2 L 83.5,92 c 1.6,-0.8 3.1,-1.6 4.2,-2.2 z" />
                </g>
              </g>
            </g>
          </g>
          <path
             inkscape:connector-curvature="0"
             id="path4681"
             style="fill:#ff3807;fill-opacity:1;fill-rule:evenodd;stroke:none"
             d="m 43.3283,64.5655 -3.7739,8.3871 3.7739,8.387 h 38.3354 l 3.7739,-8.387 -3.7739,-8.3871 z" />
          <path
             inkscape:connector-curvature="0"
             id="path4586"
             style="font-style:normal;font-variant:normal;font-weight:600;font-stretch:normal;font-size:medium;font-family:Montserrat;-inkscape-font-specification:'Montserrat Semi-Bold';writing-mode:lr-tb;fill:#f9f9f9;fill-opacity:1;fill-rule:nonzero;stroke:none;stroke-width:0.96484524"
             d="M 48.483594,78.719551 H 43.457662 V 66.503742 h 2.26865 v 3.525133 h 2.757282 c 3.211013,0 5.200445,1.65786 5.200445,4.345338 0,2.704929 -1.989432,4.345338 -5.200445,4.345338 z m -0.104707,-6.771048 h -2.652575 v 4.851421 h 2.652575 c 1.989432,0 3.01905,-0.890009 3.01905,-2.425711 0,-1.535702 -1.029618,-2.42571 -3.01905,-2.42571 z" />
          <path
             inkscape:connector-curvature="0"
             id="path4588"
             style="font-style:normal;font-variant:normal;font-weight:600;font-stretch:normal;font-size:medium;font-family:Montserrat;-inkscape-font-specification:'Montserrat Semi-Bold';writing-mode:lr-tb;fill:#f9f9f9;fill-opacity:1;fill-rule:nonzero;stroke:none;stroke-width:0.96484524"
             d="m 56.125455,77.358361 c 0.820204,0 1.396093,0.593339 1.396093,1.36119 0,0.715497 -0.59334,1.256483 -1.396093,1.256483 -0.802753,0 -1.396092,-0.575888 -1.396092,-1.308837 0,-0.732948 0.593339,-1.308836 1.396092,-1.308836 z M 55.026032,66.503742 h 2.181395 v 9.318917 h -2.181395 z" />
          <path
             inkscape:connector-curvature="0"
             id="path4590"
             style="font-style:normal;font-variant:normal;font-weight:600;font-stretch:normal;font-size:medium;font-family:Montserrat;-inkscape-font-specification:'Montserrat Semi-Bold';writing-mode:lr-tb;fill:#f9f9f9;fill-opacity:1;fill-rule:nonzero;stroke:none;stroke-width:0.96484524"
             d="m 68.653639,68.946904 c -0.785302,-0.45373 -1.640408,-0.628242 -2.512966,-0.628242 -2.582771,0 -4.415142,1.81492 -4.415142,4.292984 0,2.530418 1.832371,4.292985 4.432593,4.292985 1.308837,0 2.40826,-0.436279 3.368073,-1.396093 l 1.430995,1.396093 c -1.151776,1.308836 -2.86199,1.989431 -4.903775,1.989431 -3.821803,0 -6.613988,-2.635124 -6.613988,-6.282416 0,-3.647291 2.792185,-6.282416 6.579086,-6.282416 1.727664,0 3.507682,0.523535 4.781616,1.553153 v 4.868873 h -2.146492 z" />
          <path
             inkscape:connector-curvature="0"
             id="path4592"
             style="font-style:normal;font-variant:normal;font-weight:600;font-stretch:normal;font-size:medium;font-family:Montserrat;-inkscape-font-specification:'Montserrat Semi-Bold';writing-mode:lr-tb;fill:#f9f9f9;fill-opacity:1;fill-rule:nonzero;stroke:none;stroke-width:0.96484524"
             d="m 81.534337,66.503742 -3.647291,4.764165 3.490231,4.554752 h -2.355906 l -2.286101,-3.053952 -2.286102,3.053952 h -2.42571 l 3.47278,-4.589654 -3.629841,-4.729263 h 2.40826 l 2.408259,3.228464 2.390809,-3.228464 z" />
          <g
             transform="rotate(30.167519,-211.16598,41.285893)"
             id="g4711">
            <g
               transform="translate(9.27267,-130.341)"
               id="g4713" />
          </g>
        </g>
      </g>
    </g>
    <text
       xml:space="preserve"
       style="font-style:normal;font-variant:normal;font-weight:normal;font-stretch:normal;font-size:25.40000153px;line-height:6.61458349px;font-family:'League Gothic';-inkscape-font-specification:'League Gothic';letter-spacing:0px;word-spacing:0px;fill:#000000;fill-opacity:1;stroke:none;stroke-width:0.26458335px;stroke-linecap:butt;stroke-linejoin:miter;stroke-opacity:1"
       x="383.19226"
       y="85.106522"
       id="text4350"><tspan
         sodipodi:role="line"
         id="tspan4348"
         x="383.19226"
         y="85.106522"
         style="font-size:33.8666687px;stroke-width:0.26458335px"><tspan
   style="font-size:64.99999762%;baseline-shift:sub"
   id="tspan4356">~</tspan>98%</tspan></text>
  </g>
</svg>
