digraph "Guix references" {
  "/gnu/store/kzzki3csk1vr7qb5lz2p13zpv6cvdm29-hwloc-2.2.0" [label = "hwloc-2.2.0", shape = box, fontname = sans];
  "/gnu/store/kzzki3csk1vr7qb5lz2p13zpv6cvdm29-hwloc-2.2.0" -> "/gnu/store/01b4w3m6mp55y531kyi1g8shh722kwqm-gcc-7.5.0-lib" [color = magenta];
  "/gnu/store/kzzki3csk1vr7qb5lz2p13zpv6cvdm29-hwloc-2.2.0" -> "/gnu/store/3x2kak8abb6z2klch72kfff2qxzv00pj-libpng-1.6.37" [color = magenta];
  "/gnu/store/kzzki3csk1vr7qb5lz2p13zpv6cvdm29-hwloc-2.2.0" -> "/gnu/store/4ildmh169dixyn05mlgjz07x4d2hcq2g-libx11-1.6.A" [color = magenta];
  "/gnu/store/kzzki3csk1vr7qb5lz2p13zpv6cvdm29-hwloc-2.2.0" -> "/gnu/store/6cdl970wcv4jhvpgbh8sdj54a5gwhmwj-libxdmcp-1.1.3" [color = magenta];
  "/gnu/store/kzzki3csk1vr7qb5lz2p13zpv6cvdm29-hwloc-2.2.0" -> "/gnu/store/8m6368gv4z10n6i31ppbr8nxziwmlp3f-libxrender-0.9.10" [color = magenta];
  "/gnu/store/kzzki3csk1vr7qb5lz2p13zpv6cvdm29-hwloc-2.2.0" -> "/gnu/store/a45p39mgqvfd8kjwibyr0q42k1mw7gmf-util-linux-2.35.1-lib" [color = magenta];
  "/gnu/store/kzzki3csk1vr7qb5lz2p13zpv6cvdm29-hwloc-2.2.0" -> "/gnu/store/a8gdwnmpryd39jixzy4xs9p4i7gy17qv-libxcb-1.14" [color = magenta];
  "/gnu/store/kzzki3csk1vr7qb5lz2p13zpv6cvdm29-hwloc-2.2.0" -> "/gnu/store/cqwj25wxzzs8frz5c9alqns24bcfspqz-libbsd-0.10.0" [color = magenta];
  "/gnu/store/kzzki3csk1vr7qb5lz2p13zpv6cvdm29-hwloc-2.2.0" -> "/gnu/store/fa6wj5bxkj5ll1d7292a70knmyl7a0cr-glibc-2.31" [color = magenta];
  "/gnu/store/kzzki3csk1vr7qb5lz2p13zpv6cvdm29-hwloc-2.2.0" -> "/gnu/store/h7sy4hr7arjknbyy1aq0xwv6fksnzw9n-libxau-1.0.9" [color = magenta];
  "/gnu/store/kzzki3csk1vr7qb5lz2p13zpv6cvdm29-hwloc-2.2.0" -> "/gnu/store/i8h2pcxqdq07ijm3ibkka8f4smn1w48v-bzip2-1.0.8" [color = magenta];
  "/gnu/store/kzzki3csk1vr7qb5lz2p13zpv6cvdm29-hwloc-2.2.0" -> "/gnu/store/imh5xxqw10dql4crlngbbjh4r24raf4j-expat-2.2.9" [color = magenta];
  "/gnu/store/kzzki3csk1vr7qb5lz2p13zpv6cvdm29-hwloc-2.2.0" -> "/gnu/store/j3f5hx6yvhlj3sapiipigkwg05b49nwn-freetype-2.10.4" [color = magenta];
  "/gnu/store/kzzki3csk1vr7qb5lz2p13zpv6cvdm29-hwloc-2.2.0" -> "/gnu/store/k1vmwd9sv5mq25fs425c8dzpfvdrkd2n-hwloc-2.2.0-lib" [color = magenta];
  "/gnu/store/kzzki3csk1vr7qb5lz2p13zpv6cvdm29-hwloc-2.2.0" -> "/gnu/store/kzzki3csk1vr7qb5lz2p13zpv6cvdm29-hwloc-2.2.0" [color = magenta];
  "/gnu/store/kzzki3csk1vr7qb5lz2p13zpv6cvdm29-hwloc-2.2.0" -> "/gnu/store/mqci7f0nawrz27x0bi8cpnbmm63yg0yc-cairo-1.16.0" [color = magenta];
  "/gnu/store/kzzki3csk1vr7qb5lz2p13zpv6cvdm29-hwloc-2.2.0" -> "/gnu/store/pwcp239kjf7lnj5i4lkdzcfcxwcfyk72-bash-minimal-5.0.16" [color = magenta];
  "/gnu/store/kzzki3csk1vr7qb5lz2p13zpv6cvdm29-hwloc-2.2.0" -> "/gnu/store/rykm237xkmq7rl1p0nwass01p090p88x-zlib-1.2.11" [color = magenta];
  "/gnu/store/kzzki3csk1vr7qb5lz2p13zpv6cvdm29-hwloc-2.2.0" -> "/gnu/store/vkwzprr8pdmyb9vapfqcq3zp3ylaiddb-libpciaccess-0.16" [color = magenta];
  "/gnu/store/kzzki3csk1vr7qb5lz2p13zpv6cvdm29-hwloc-2.2.0" -> "/gnu/store/w09mqfj1yy32r2fr02nndzs34m4f9ipp-libxext-1.3.4" [color = magenta];
  "/gnu/store/kzzki3csk1vr7qb5lz2p13zpv6cvdm29-hwloc-2.2.0" -> "/gnu/store/xwl0p4m34bcan0v9vkjkyzwi6znsv4dm-pixman-0.38.4" [color = magenta];
  "/gnu/store/kzzki3csk1vr7qb5lz2p13zpv6cvdm29-hwloc-2.2.0" -> "/gnu/store/y9fdy234r6hqiacd7hgwlmbdsngbp8p1-fontconfig-2.13.1" [color = magenta];
  "/gnu/store/kzzki3csk1vr7qb5lz2p13zpv6cvdm29-hwloc-2.2.0" -> "/gnu/store/zzkly5rbfvahwqgcs7crz0ilpi7x5g5p-ncurses-6.2" [color = magenta];
  "/gnu/store/01b4w3m6mp55y531kyi1g8shh722kwqm-gcc-7.5.0-lib" [label = "gcc-7.5.0-lib", shape = box, fontname = sans];
  "/gnu/store/01b4w3m6mp55y531kyi1g8shh722kwqm-gcc-7.5.0-lib" -> "/gnu/store/01b4w3m6mp55y531kyi1g8shh722kwqm-gcc-7.5.0-lib" [color = peachpuff4];
  "/gnu/store/01b4w3m6mp55y531kyi1g8shh722kwqm-gcc-7.5.0-lib" -> "/gnu/store/fa6wj5bxkj5ll1d7292a70knmyl7a0cr-glibc-2.31" [color = peachpuff4];
  "/gnu/store/fa6wj5bxkj5ll1d7292a70knmyl7a0cr-glibc-2.31" [label = "glibc-2.31", shape = box, fontname = sans];
  "/gnu/store/fa6wj5bxkj5ll1d7292a70knmyl7a0cr-glibc-2.31" -> "/gnu/store/fa6wj5bxkj5ll1d7292a70knmyl7a0cr-glibc-2.31" [color = cyan3];
  "/gnu/store/fa6wj5bxkj5ll1d7292a70knmyl7a0cr-glibc-2.31" -> "/gnu/store/mmhimfwmmidf09jw1plw3aw1g1zn2nkh-bash-static-5.0.16" [color = cyan3];
  "/gnu/store/mmhimfwmmidf09jw1plw3aw1g1zn2nkh-bash-static-5.0.16" [label = "bash-static-5.0.16", shape = box, fontname = sans];
  "/gnu/store/3x2kak8abb6z2klch72kfff2qxzv00pj-libpng-1.6.37" [label = "libpng-1.6.37", shape = box, fontname = sans];
  "/gnu/store/3x2kak8abb6z2klch72kfff2qxzv00pj-libpng-1.6.37" -> "/gnu/store/01b4w3m6mp55y531kyi1g8shh722kwqm-gcc-7.5.0-lib" [color = darkgoldenrod];
  "/gnu/store/3x2kak8abb6z2klch72kfff2qxzv00pj-libpng-1.6.37" -> "/gnu/store/3x2kak8abb6z2klch72kfff2qxzv00pj-libpng-1.6.37" [color = darkgoldenrod];
  "/gnu/store/3x2kak8abb6z2klch72kfff2qxzv00pj-libpng-1.6.37" -> "/gnu/store/fa6wj5bxkj5ll1d7292a70knmyl7a0cr-glibc-2.31" [color = darkgoldenrod];
  "/gnu/store/3x2kak8abb6z2klch72kfff2qxzv00pj-libpng-1.6.37" -> "/gnu/store/pwcp239kjf7lnj5i4lkdzcfcxwcfyk72-bash-minimal-5.0.16" [color = darkgoldenrod];
  "/gnu/store/3x2kak8abb6z2klch72kfff2qxzv00pj-libpng-1.6.37" -> "/gnu/store/rykm237xkmq7rl1p0nwass01p090p88x-zlib-1.2.11" [color = darkgoldenrod];
  "/gnu/store/pwcp239kjf7lnj5i4lkdzcfcxwcfyk72-bash-minimal-5.0.16" [label = "bash-minimal-5.0.16", shape = box, fontname = sans];
  "/gnu/store/pwcp239kjf7lnj5i4lkdzcfcxwcfyk72-bash-minimal-5.0.16" -> "/gnu/store/fa6wj5bxkj5ll1d7292a70knmyl7a0cr-glibc-2.31" [color = darkviolet];
  "/gnu/store/pwcp239kjf7lnj5i4lkdzcfcxwcfyk72-bash-minimal-5.0.16" -> "/gnu/store/pwcp239kjf7lnj5i4lkdzcfcxwcfyk72-bash-minimal-5.0.16" [color = darkviolet];
  "/gnu/store/rykm237xkmq7rl1p0nwass01p090p88x-zlib-1.2.11" [label = "zlib-1.2.11", shape = box, fontname = sans];
  "/gnu/store/rykm237xkmq7rl1p0nwass01p090p88x-zlib-1.2.11" -> "/gnu/store/01b4w3m6mp55y531kyi1g8shh722kwqm-gcc-7.5.0-lib" [color = magenta];
  "/gnu/store/rykm237xkmq7rl1p0nwass01p090p88x-zlib-1.2.11" -> "/gnu/store/fa6wj5bxkj5ll1d7292a70knmyl7a0cr-glibc-2.31" [color = magenta];
  "/gnu/store/rykm237xkmq7rl1p0nwass01p090p88x-zlib-1.2.11" -> "/gnu/store/rykm237xkmq7rl1p0nwass01p090p88x-zlib-1.2.11" [color = magenta];
  "/gnu/store/4ildmh169dixyn05mlgjz07x4d2hcq2g-libx11-1.6.A" [label = "libx11-1.6.A", shape = box, fontname = sans];
  "/gnu/store/4ildmh169dixyn05mlgjz07x4d2hcq2g-libx11-1.6.A" -> "/gnu/store/01b4w3m6mp55y531kyi1g8shh722kwqm-gcc-7.5.0-lib" [color = peachpuff4];
  "/gnu/store/4ildmh169dixyn05mlgjz07x4d2hcq2g-libx11-1.6.A" -> "/gnu/store/4ildmh169dixyn05mlgjz07x4d2hcq2g-libx11-1.6.A" [color = peachpuff4];
  "/gnu/store/4ildmh169dixyn05mlgjz07x4d2hcq2g-libx11-1.6.A" -> "/gnu/store/6cdl970wcv4jhvpgbh8sdj54a5gwhmwj-libxdmcp-1.1.3" [color = peachpuff4];
  "/gnu/store/4ildmh169dixyn05mlgjz07x4d2hcq2g-libx11-1.6.A" -> "/gnu/store/a8gdwnmpryd39jixzy4xs9p4i7gy17qv-libxcb-1.14" [color = peachpuff4];
  "/gnu/store/4ildmh169dixyn05mlgjz07x4d2hcq2g-libx11-1.6.A" -> "/gnu/store/cqwj25wxzzs8frz5c9alqns24bcfspqz-libbsd-0.10.0" [color = peachpuff4];
  "/gnu/store/4ildmh169dixyn05mlgjz07x4d2hcq2g-libx11-1.6.A" -> "/gnu/store/fa6wj5bxkj5ll1d7292a70knmyl7a0cr-glibc-2.31" [color = peachpuff4];
  "/gnu/store/4ildmh169dixyn05mlgjz07x4d2hcq2g-libx11-1.6.A" -> "/gnu/store/h7sy4hr7arjknbyy1aq0xwv6fksnzw9n-libxau-1.0.9" [color = peachpuff4];
  "/gnu/store/6cdl970wcv4jhvpgbh8sdj54a5gwhmwj-libxdmcp-1.1.3" [label = "libxdmcp-1.1.3", shape = box, fontname = sans];
  "/gnu/store/6cdl970wcv4jhvpgbh8sdj54a5gwhmwj-libxdmcp-1.1.3" -> "/gnu/store/01b4w3m6mp55y531kyi1g8shh722kwqm-gcc-7.5.0-lib" [color = magenta];
  "/gnu/store/6cdl970wcv4jhvpgbh8sdj54a5gwhmwj-libxdmcp-1.1.3" -> "/gnu/store/6cdl970wcv4jhvpgbh8sdj54a5gwhmwj-libxdmcp-1.1.3" [color = magenta];
  "/gnu/store/6cdl970wcv4jhvpgbh8sdj54a5gwhmwj-libxdmcp-1.1.3" -> "/gnu/store/cqwj25wxzzs8frz5c9alqns24bcfspqz-libbsd-0.10.0" [color = magenta];
  "/gnu/store/6cdl970wcv4jhvpgbh8sdj54a5gwhmwj-libxdmcp-1.1.3" -> "/gnu/store/fa6wj5bxkj5ll1d7292a70knmyl7a0cr-glibc-2.31" [color = magenta];
  "/gnu/store/cqwj25wxzzs8frz5c9alqns24bcfspqz-libbsd-0.10.0" [label = "libbsd-0.10.0", shape = box, fontname = sans];
  "/gnu/store/cqwj25wxzzs8frz5c9alqns24bcfspqz-libbsd-0.10.0" -> "/gnu/store/01b4w3m6mp55y531kyi1g8shh722kwqm-gcc-7.5.0-lib" [color = cyan3];
  "/gnu/store/cqwj25wxzzs8frz5c9alqns24bcfspqz-libbsd-0.10.0" -> "/gnu/store/cqwj25wxzzs8frz5c9alqns24bcfspqz-libbsd-0.10.0" [color = cyan3];
  "/gnu/store/cqwj25wxzzs8frz5c9alqns24bcfspqz-libbsd-0.10.0" -> "/gnu/store/fa6wj5bxkj5ll1d7292a70knmyl7a0cr-glibc-2.31" [color = cyan3];
  "/gnu/store/a8gdwnmpryd39jixzy4xs9p4i7gy17qv-libxcb-1.14" [label = "libxcb-1.14", shape = box, fontname = sans];
  "/gnu/store/a8gdwnmpryd39jixzy4xs9p4i7gy17qv-libxcb-1.14" -> "/gnu/store/01b4w3m6mp55y531kyi1g8shh722kwqm-gcc-7.5.0-lib" [color = red];
  "/gnu/store/a8gdwnmpryd39jixzy4xs9p4i7gy17qv-libxcb-1.14" -> "/gnu/store/6cdl970wcv4jhvpgbh8sdj54a5gwhmwj-libxdmcp-1.1.3" [color = red];
  "/gnu/store/a8gdwnmpryd39jixzy4xs9p4i7gy17qv-libxcb-1.14" -> "/gnu/store/a8gdwnmpryd39jixzy4xs9p4i7gy17qv-libxcb-1.14" [color = red];
  "/gnu/store/a8gdwnmpryd39jixzy4xs9p4i7gy17qv-libxcb-1.14" -> "/gnu/store/cqwj25wxzzs8frz5c9alqns24bcfspqz-libbsd-0.10.0" [color = red];
  "/gnu/store/a8gdwnmpryd39jixzy4xs9p4i7gy17qv-libxcb-1.14" -> "/gnu/store/fa6wj5bxkj5ll1d7292a70knmyl7a0cr-glibc-2.31" [color = red];
  "/gnu/store/a8gdwnmpryd39jixzy4xs9p4i7gy17qv-libxcb-1.14" -> "/gnu/store/h7sy4hr7arjknbyy1aq0xwv6fksnzw9n-libxau-1.0.9" [color = red];
  "/gnu/store/h7sy4hr7arjknbyy1aq0xwv6fksnzw9n-libxau-1.0.9" [label = "libxau-1.0.9", shape = box, fontname = sans];
  "/gnu/store/h7sy4hr7arjknbyy1aq0xwv6fksnzw9n-libxau-1.0.9" -> "/gnu/store/01b4w3m6mp55y531kyi1g8shh722kwqm-gcc-7.5.0-lib" [color = magenta];
  "/gnu/store/h7sy4hr7arjknbyy1aq0xwv6fksnzw9n-libxau-1.0.9" -> "/gnu/store/fa6wj5bxkj5ll1d7292a70knmyl7a0cr-glibc-2.31" [color = magenta];
  "/gnu/store/h7sy4hr7arjknbyy1aq0xwv6fksnzw9n-libxau-1.0.9" -> "/gnu/store/h7sy4hr7arjknbyy1aq0xwv6fksnzw9n-libxau-1.0.9" [color = magenta];
  "/gnu/store/8m6368gv4z10n6i31ppbr8nxziwmlp3f-libxrender-0.9.10" [label = "libxrender-0.9.10", shape = box, fontname = sans];
  "/gnu/store/8m6368gv4z10n6i31ppbr8nxziwmlp3f-libxrender-0.9.10" -> "/gnu/store/01b4w3m6mp55y531kyi1g8shh722kwqm-gcc-7.5.0-lib" [color = magenta];
  "/gnu/store/8m6368gv4z10n6i31ppbr8nxziwmlp3f-libxrender-0.9.10" -> "/gnu/store/4ildmh169dixyn05mlgjz07x4d2hcq2g-libx11-1.6.A" [color = magenta];
  "/gnu/store/8m6368gv4z10n6i31ppbr8nxziwmlp3f-libxrender-0.9.10" -> "/gnu/store/6cdl970wcv4jhvpgbh8sdj54a5gwhmwj-libxdmcp-1.1.3" [color = magenta];
  "/gnu/store/8m6368gv4z10n6i31ppbr8nxziwmlp3f-libxrender-0.9.10" -> "/gnu/store/8m6368gv4z10n6i31ppbr8nxziwmlp3f-libxrender-0.9.10" [color = magenta];
  "/gnu/store/8m6368gv4z10n6i31ppbr8nxziwmlp3f-libxrender-0.9.10" -> "/gnu/store/a8gdwnmpryd39jixzy4xs9p4i7gy17qv-libxcb-1.14" [color = magenta];
  "/gnu/store/8m6368gv4z10n6i31ppbr8nxziwmlp3f-libxrender-0.9.10" -> "/gnu/store/cqwj25wxzzs8frz5c9alqns24bcfspqz-libbsd-0.10.0" [color = magenta];
  "/gnu/store/8m6368gv4z10n6i31ppbr8nxziwmlp3f-libxrender-0.9.10" -> "/gnu/store/fa6wj5bxkj5ll1d7292a70knmyl7a0cr-glibc-2.31" [color = magenta];
  "/gnu/store/8m6368gv4z10n6i31ppbr8nxziwmlp3f-libxrender-0.9.10" -> "/gnu/store/h7sy4hr7arjknbyy1aq0xwv6fksnzw9n-libxau-1.0.9" [color = magenta];
  "/gnu/store/a45p39mgqvfd8kjwibyr0q42k1mw7gmf-util-linux-2.35.1-lib" [label = "util-linux-2.35.1-lib", shape = box, fontname = sans];
  "/gnu/store/a45p39mgqvfd8kjwibyr0q42k1mw7gmf-util-linux-2.35.1-lib" -> "/gnu/store/01b4w3m6mp55y531kyi1g8shh722kwqm-gcc-7.5.0-lib" [color = red];
  "/gnu/store/a45p39mgqvfd8kjwibyr0q42k1mw7gmf-util-linux-2.35.1-lib" -> "/gnu/store/a45p39mgqvfd8kjwibyr0q42k1mw7gmf-util-linux-2.35.1-lib" [color = red];
  "/gnu/store/a45p39mgqvfd8kjwibyr0q42k1mw7gmf-util-linux-2.35.1-lib" -> "/gnu/store/fa6wj5bxkj5ll1d7292a70knmyl7a0cr-glibc-2.31" [color = red];
  "/gnu/store/i8h2pcxqdq07ijm3ibkka8f4smn1w48v-bzip2-1.0.8" [label = "bzip2-1.0.8", shape = box, fontname = sans];
  "/gnu/store/i8h2pcxqdq07ijm3ibkka8f4smn1w48v-bzip2-1.0.8" -> "/gnu/store/01b4w3m6mp55y531kyi1g8shh722kwqm-gcc-7.5.0-lib" [color = dimgrey];
  "/gnu/store/i8h2pcxqdq07ijm3ibkka8f4smn1w48v-bzip2-1.0.8" -> "/gnu/store/fa6wj5bxkj5ll1d7292a70knmyl7a0cr-glibc-2.31" [color = dimgrey];
  "/gnu/store/i8h2pcxqdq07ijm3ibkka8f4smn1w48v-bzip2-1.0.8" -> "/gnu/store/i8h2pcxqdq07ijm3ibkka8f4smn1w48v-bzip2-1.0.8" [color = dimgrey];
  "/gnu/store/i8h2pcxqdq07ijm3ibkka8f4smn1w48v-bzip2-1.0.8" -> "/gnu/store/pwcp239kjf7lnj5i4lkdzcfcxwcfyk72-bash-minimal-5.0.16" [color = dimgrey];
  "/gnu/store/imh5xxqw10dql4crlngbbjh4r24raf4j-expat-2.2.9" [label = "expat-2.2.9", shape = box, fontname = sans];
  "/gnu/store/imh5xxqw10dql4crlngbbjh4r24raf4j-expat-2.2.9" -> "/gnu/store/01b4w3m6mp55y531kyi1g8shh722kwqm-gcc-7.5.0-lib" [color = blue];
  "/gnu/store/imh5xxqw10dql4crlngbbjh4r24raf4j-expat-2.2.9" -> "/gnu/store/fa6wj5bxkj5ll1d7292a70knmyl7a0cr-glibc-2.31" [color = blue];
  "/gnu/store/imh5xxqw10dql4crlngbbjh4r24raf4j-expat-2.2.9" -> "/gnu/store/imh5xxqw10dql4crlngbbjh4r24raf4j-expat-2.2.9" [color = blue];
  "/gnu/store/j3f5hx6yvhlj3sapiipigkwg05b49nwn-freetype-2.10.4" [label = "freetype-2.10.4", shape = box, fontname = sans];
  "/gnu/store/j3f5hx6yvhlj3sapiipigkwg05b49nwn-freetype-2.10.4" -> "/gnu/store/01b4w3m6mp55y531kyi1g8shh722kwqm-gcc-7.5.0-lib" [color = red];
  "/gnu/store/j3f5hx6yvhlj3sapiipigkwg05b49nwn-freetype-2.10.4" -> "/gnu/store/3x2kak8abb6z2klch72kfff2qxzv00pj-libpng-1.6.37" [color = red];
  "/gnu/store/j3f5hx6yvhlj3sapiipigkwg05b49nwn-freetype-2.10.4" -> "/gnu/store/fa6wj5bxkj5ll1d7292a70knmyl7a0cr-glibc-2.31" [color = red];
  "/gnu/store/j3f5hx6yvhlj3sapiipigkwg05b49nwn-freetype-2.10.4" -> "/gnu/store/i8h2pcxqdq07ijm3ibkka8f4smn1w48v-bzip2-1.0.8" [color = red];
  "/gnu/store/j3f5hx6yvhlj3sapiipigkwg05b49nwn-freetype-2.10.4" -> "/gnu/store/j3f5hx6yvhlj3sapiipigkwg05b49nwn-freetype-2.10.4" [color = red];
  "/gnu/store/j3f5hx6yvhlj3sapiipigkwg05b49nwn-freetype-2.10.4" -> "/gnu/store/krpyb0zi700dcrg9cc8932w4v0qivdg9-pkg-config-0.29.2" [color = red];
  "/gnu/store/j3f5hx6yvhlj3sapiipigkwg05b49nwn-freetype-2.10.4" -> "/gnu/store/pwcp239kjf7lnj5i4lkdzcfcxwcfyk72-bash-minimal-5.0.16" [color = red];
  "/gnu/store/j3f5hx6yvhlj3sapiipigkwg05b49nwn-freetype-2.10.4" -> "/gnu/store/rykm237xkmq7rl1p0nwass01p090p88x-zlib-1.2.11" [color = red];
  "/gnu/store/krpyb0zi700dcrg9cc8932w4v0qivdg9-pkg-config-0.29.2" [label = "pkg-config-0.29.2", shape = box, fontname = sans];
  "/gnu/store/krpyb0zi700dcrg9cc8932w4v0qivdg9-pkg-config-0.29.2" -> "/gnu/store/01b4w3m6mp55y531kyi1g8shh722kwqm-gcc-7.5.0-lib" [color = peachpuff4];
  "/gnu/store/krpyb0zi700dcrg9cc8932w4v0qivdg9-pkg-config-0.29.2" -> "/gnu/store/fa6wj5bxkj5ll1d7292a70knmyl7a0cr-glibc-2.31" [color = peachpuff4];
  "/gnu/store/krpyb0zi700dcrg9cc8932w4v0qivdg9-pkg-config-0.29.2" -> "/gnu/store/krpyb0zi700dcrg9cc8932w4v0qivdg9-pkg-config-0.29.2" [color = peachpuff4];
  "/gnu/store/k1vmwd9sv5mq25fs425c8dzpfvdrkd2n-hwloc-2.2.0-lib" [label = "hwloc-2.2.0-lib", shape = box, fontname = sans];
  "/gnu/store/k1vmwd9sv5mq25fs425c8dzpfvdrkd2n-hwloc-2.2.0-lib" -> "/gnu/store/01b4w3m6mp55y531kyi1g8shh722kwqm-gcc-7.5.0-lib" [color = cyan3];
  "/gnu/store/k1vmwd9sv5mq25fs425c8dzpfvdrkd2n-hwloc-2.2.0-lib" -> "/gnu/store/fa6wj5bxkj5ll1d7292a70knmyl7a0cr-glibc-2.31" [color = cyan3];
  "/gnu/store/k1vmwd9sv5mq25fs425c8dzpfvdrkd2n-hwloc-2.2.0-lib" -> "/gnu/store/k1vmwd9sv5mq25fs425c8dzpfvdrkd2n-hwloc-2.2.0-lib" [color = cyan3];
  "/gnu/store/k1vmwd9sv5mq25fs425c8dzpfvdrkd2n-hwloc-2.2.0-lib" -> "/gnu/store/rykm237xkmq7rl1p0nwass01p090p88x-zlib-1.2.11" [color = cyan3];
  "/gnu/store/k1vmwd9sv5mq25fs425c8dzpfvdrkd2n-hwloc-2.2.0-lib" -> "/gnu/store/vkwzprr8pdmyb9vapfqcq3zp3ylaiddb-libpciaccess-0.16" [color = cyan3];
  "/gnu/store/vkwzprr8pdmyb9vapfqcq3zp3ylaiddb-libpciaccess-0.16" [label = "libpciaccess-0.16", shape = box, fontname = sans];
  "/gnu/store/vkwzprr8pdmyb9vapfqcq3zp3ylaiddb-libpciaccess-0.16" -> "/gnu/store/01b4w3m6mp55y531kyi1g8shh722kwqm-gcc-7.5.0-lib" [color = darkseagreen];
  "/gnu/store/vkwzprr8pdmyb9vapfqcq3zp3ylaiddb-libpciaccess-0.16" -> "/gnu/store/6libjsymzjbmq96mbx3hbbgxad588g6h-pciutils-3.7.0" [color = darkseagreen];
  "/gnu/store/vkwzprr8pdmyb9vapfqcq3zp3ylaiddb-libpciaccess-0.16" -> "/gnu/store/fa6wj5bxkj5ll1d7292a70knmyl7a0cr-glibc-2.31" [color = darkseagreen];
  "/gnu/store/vkwzprr8pdmyb9vapfqcq3zp3ylaiddb-libpciaccess-0.16" -> "/gnu/store/rykm237xkmq7rl1p0nwass01p090p88x-zlib-1.2.11" [color = darkseagreen];
  "/gnu/store/vkwzprr8pdmyb9vapfqcq3zp3ylaiddb-libpciaccess-0.16" -> "/gnu/store/vkwzprr8pdmyb9vapfqcq3zp3ylaiddb-libpciaccess-0.16" [color = darkseagreen];
  "/gnu/store/6libjsymzjbmq96mbx3hbbgxad588g6h-pciutils-3.7.0" [label = "pciutils-3.7.0", shape = box, fontname = sans];
  "/gnu/store/6libjsymzjbmq96mbx3hbbgxad588g6h-pciutils-3.7.0" -> "/gnu/store/01b4w3m6mp55y531kyi1g8shh722kwqm-gcc-7.5.0-lib" [color = darkviolet];
  "/gnu/store/6libjsymzjbmq96mbx3hbbgxad588g6h-pciutils-3.7.0" -> "/gnu/store/6libjsymzjbmq96mbx3hbbgxad588g6h-pciutils-3.7.0" [color = darkviolet];
  "/gnu/store/6libjsymzjbmq96mbx3hbbgxad588g6h-pciutils-3.7.0" -> "/gnu/store/fa6wj5bxkj5ll1d7292a70knmyl7a0cr-glibc-2.31" [color = darkviolet];
  "/gnu/store/6libjsymzjbmq96mbx3hbbgxad588g6h-pciutils-3.7.0" -> "/gnu/store/i363a64l5kd77z3q91v5gh3hh4214byp-kmod-27" [color = darkviolet];
  "/gnu/store/6libjsymzjbmq96mbx3hbbgxad588g6h-pciutils-3.7.0" -> "/gnu/store/pwcp239kjf7lnj5i4lkdzcfcxwcfyk72-bash-minimal-5.0.16" [color = darkviolet];
  "/gnu/store/6libjsymzjbmq96mbx3hbbgxad588g6h-pciutils-3.7.0" -> "/gnu/store/rykm237xkmq7rl1p0nwass01p090p88x-zlib-1.2.11" [color = darkviolet];
  "/gnu/store/i363a64l5kd77z3q91v5gh3hh4214byp-kmod-27" [label = "kmod-27", shape = box, fontname = sans];
  "/gnu/store/i363a64l5kd77z3q91v5gh3hh4214byp-kmod-27" -> "/gnu/store/01b4w3m6mp55y531kyi1g8shh722kwqm-gcc-7.5.0-lib" [color = darkgoldenrod];
  "/gnu/store/i363a64l5kd77z3q91v5gh3hh4214byp-kmod-27" -> "/gnu/store/fa6wj5bxkj5ll1d7292a70knmyl7a0cr-glibc-2.31" [color = darkgoldenrod];
  "/gnu/store/i363a64l5kd77z3q91v5gh3hh4214byp-kmod-27" -> "/gnu/store/i363a64l5kd77z3q91v5gh3hh4214byp-kmod-27" [color = darkgoldenrod];
  "/gnu/store/i363a64l5kd77z3q91v5gh3hh4214byp-kmod-27" -> "/gnu/store/r7k859hmcnkazf492fasqvk25jflnfk6-xz-5.2.4" [color = darkgoldenrod];
  "/gnu/store/i363a64l5kd77z3q91v5gh3hh4214byp-kmod-27" -> "/gnu/store/rykm237xkmq7rl1p0nwass01p090p88x-zlib-1.2.11" [color = darkgoldenrod];
  "/gnu/store/r7k859hmcnkazf492fasqvk25jflnfk6-xz-5.2.4" [label = "xz-5.2.4", shape = box, fontname = sans];
  "/gnu/store/r7k859hmcnkazf492fasqvk25jflnfk6-xz-5.2.4" -> "/gnu/store/01b4w3m6mp55y531kyi1g8shh722kwqm-gcc-7.5.0-lib" [color = darkseagreen];
  "/gnu/store/r7k859hmcnkazf492fasqvk25jflnfk6-xz-5.2.4" -> "/gnu/store/fa6wj5bxkj5ll1d7292a70knmyl7a0cr-glibc-2.31" [color = darkseagreen];
  "/gnu/store/r7k859hmcnkazf492fasqvk25jflnfk6-xz-5.2.4" -> "/gnu/store/pwcp239kjf7lnj5i4lkdzcfcxwcfyk72-bash-minimal-5.0.16" [color = darkseagreen];
  "/gnu/store/r7k859hmcnkazf492fasqvk25jflnfk6-xz-5.2.4" -> "/gnu/store/r7k859hmcnkazf492fasqvk25jflnfk6-xz-5.2.4" [color = darkseagreen];
  "/gnu/store/mqci7f0nawrz27x0bi8cpnbmm63yg0yc-cairo-1.16.0" [label = "cairo-1.16.0", shape = box, fontname = sans];
  "/gnu/store/mqci7f0nawrz27x0bi8cpnbmm63yg0yc-cairo-1.16.0" -> "/gnu/store/01b4w3m6mp55y531kyi1g8shh722kwqm-gcc-7.5.0-lib" [color = peachpuff4];
  "/gnu/store/mqci7f0nawrz27x0bi8cpnbmm63yg0yc-cairo-1.16.0" -> "/gnu/store/3x2kak8abb6z2klch72kfff2qxzv00pj-libpng-1.6.37" [color = peachpuff4];
  "/gnu/store/mqci7f0nawrz27x0bi8cpnbmm63yg0yc-cairo-1.16.0" -> "/gnu/store/4ildmh169dixyn05mlgjz07x4d2hcq2g-libx11-1.6.A" [color = peachpuff4];
  "/gnu/store/mqci7f0nawrz27x0bi8cpnbmm63yg0yc-cairo-1.16.0" -> "/gnu/store/6cdl970wcv4jhvpgbh8sdj54a5gwhmwj-libxdmcp-1.1.3" [color = peachpuff4];
  "/gnu/store/mqci7f0nawrz27x0bi8cpnbmm63yg0yc-cairo-1.16.0" -> "/gnu/store/8m6368gv4z10n6i31ppbr8nxziwmlp3f-libxrender-0.9.10" [color = peachpuff4];
  "/gnu/store/mqci7f0nawrz27x0bi8cpnbmm63yg0yc-cairo-1.16.0" -> "/gnu/store/a45p39mgqvfd8kjwibyr0q42k1mw7gmf-util-linux-2.35.1-lib" [color = peachpuff4];
  "/gnu/store/mqci7f0nawrz27x0bi8cpnbmm63yg0yc-cairo-1.16.0" -> "/gnu/store/a8gdwnmpryd39jixzy4xs9p4i7gy17qv-libxcb-1.14" [color = peachpuff4];
  "/gnu/store/mqci7f0nawrz27x0bi8cpnbmm63yg0yc-cairo-1.16.0" -> "/gnu/store/cqwj25wxzzs8frz5c9alqns24bcfspqz-libbsd-0.10.0" [color = peachpuff4];
  "/gnu/store/mqci7f0nawrz27x0bi8cpnbmm63yg0yc-cairo-1.16.0" -> "/gnu/store/fa6wj5bxkj5ll1d7292a70knmyl7a0cr-glibc-2.31" [color = peachpuff4];
  "/gnu/store/mqci7f0nawrz27x0bi8cpnbmm63yg0yc-cairo-1.16.0" -> "/gnu/store/h7sy4hr7arjknbyy1aq0xwv6fksnzw9n-libxau-1.0.9" [color = peachpuff4];
  "/gnu/store/mqci7f0nawrz27x0bi8cpnbmm63yg0yc-cairo-1.16.0" -> "/gnu/store/i8h2pcxqdq07ijm3ibkka8f4smn1w48v-bzip2-1.0.8" [color = peachpuff4];
  "/gnu/store/mqci7f0nawrz27x0bi8cpnbmm63yg0yc-cairo-1.16.0" -> "/gnu/store/imh5xxqw10dql4crlngbbjh4r24raf4j-expat-2.2.9" [color = peachpuff4];
  "/gnu/store/mqci7f0nawrz27x0bi8cpnbmm63yg0yc-cairo-1.16.0" -> "/gnu/store/j3f5hx6yvhlj3sapiipigkwg05b49nwn-freetype-2.10.4" [color = peachpuff4];
  "/gnu/store/mqci7f0nawrz27x0bi8cpnbmm63yg0yc-cairo-1.16.0" -> "/gnu/store/mqci7f0nawrz27x0bi8cpnbmm63yg0yc-cairo-1.16.0" [color = peachpuff4];
  "/gnu/store/mqci7f0nawrz27x0bi8cpnbmm63yg0yc-cairo-1.16.0" -> "/gnu/store/pwcp239kjf7lnj5i4lkdzcfcxwcfyk72-bash-minimal-5.0.16" [color = peachpuff4];
  "/gnu/store/mqci7f0nawrz27x0bi8cpnbmm63yg0yc-cairo-1.16.0" -> "/gnu/store/rykm237xkmq7rl1p0nwass01p090p88x-zlib-1.2.11" [color = peachpuff4];
  "/gnu/store/mqci7f0nawrz27x0bi8cpnbmm63yg0yc-cairo-1.16.0" -> "/gnu/store/w09mqfj1yy32r2fr02nndzs34m4f9ipp-libxext-1.3.4" [color = peachpuff4];
  "/gnu/store/mqci7f0nawrz27x0bi8cpnbmm63yg0yc-cairo-1.16.0" -> "/gnu/store/xwl0p4m34bcan0v9vkjkyzwi6znsv4dm-pixman-0.38.4" [color = peachpuff4];
  "/gnu/store/mqci7f0nawrz27x0bi8cpnbmm63yg0yc-cairo-1.16.0" -> "/gnu/store/y9fdy234r6hqiacd7hgwlmbdsngbp8p1-fontconfig-2.13.1" [color = peachpuff4];
  "/gnu/store/mqci7f0nawrz27x0bi8cpnbmm63yg0yc-cairo-1.16.0" -> "/gnu/store/zlcfdzl4f3rb3cnf05jb6r6fyl2ahv5v-glib-2.62.6" [color = peachpuff4];
  "/gnu/store/w09mqfj1yy32r2fr02nndzs34m4f9ipp-libxext-1.3.4" [label = "libxext-1.3.4", shape = box, fontname = sans];
  "/gnu/store/w09mqfj1yy32r2fr02nndzs34m4f9ipp-libxext-1.3.4" -> "/gnu/store/01b4w3m6mp55y531kyi1g8shh722kwqm-gcc-7.5.0-lib" [color = dimgrey];
  "/gnu/store/w09mqfj1yy32r2fr02nndzs34m4f9ipp-libxext-1.3.4" -> "/gnu/store/4ildmh169dixyn05mlgjz07x4d2hcq2g-libx11-1.6.A" [color = dimgrey];
  "/gnu/store/w09mqfj1yy32r2fr02nndzs34m4f9ipp-libxext-1.3.4" -> "/gnu/store/6cdl970wcv4jhvpgbh8sdj54a5gwhmwj-libxdmcp-1.1.3" [color = dimgrey];
  "/gnu/store/w09mqfj1yy32r2fr02nndzs34m4f9ipp-libxext-1.3.4" -> "/gnu/store/a8gdwnmpryd39jixzy4xs9p4i7gy17qv-libxcb-1.14" [color = dimgrey];
  "/gnu/store/w09mqfj1yy32r2fr02nndzs34m4f9ipp-libxext-1.3.4" -> "/gnu/store/cqwj25wxzzs8frz5c9alqns24bcfspqz-libbsd-0.10.0" [color = dimgrey];
  "/gnu/store/w09mqfj1yy32r2fr02nndzs34m4f9ipp-libxext-1.3.4" -> "/gnu/store/fa6wj5bxkj5ll1d7292a70knmyl7a0cr-glibc-2.31" [color = dimgrey];
  "/gnu/store/w09mqfj1yy32r2fr02nndzs34m4f9ipp-libxext-1.3.4" -> "/gnu/store/h7sy4hr7arjknbyy1aq0xwv6fksnzw9n-libxau-1.0.9" [color = dimgrey];
  "/gnu/store/w09mqfj1yy32r2fr02nndzs34m4f9ipp-libxext-1.3.4" -> "/gnu/store/w09mqfj1yy32r2fr02nndzs34m4f9ipp-libxext-1.3.4" [color = dimgrey];
  "/gnu/store/xwl0p4m34bcan0v9vkjkyzwi6znsv4dm-pixman-0.38.4" [label = "pixman-0.38.4", shape = box, fontname = sans];
  "/gnu/store/xwl0p4m34bcan0v9vkjkyzwi6znsv4dm-pixman-0.38.4" -> "/gnu/store/01b4w3m6mp55y531kyi1g8shh722kwqm-gcc-7.5.0-lib" [color = darkviolet];
  "/gnu/store/xwl0p4m34bcan0v9vkjkyzwi6znsv4dm-pixman-0.38.4" -> "/gnu/store/fa6wj5bxkj5ll1d7292a70knmyl7a0cr-glibc-2.31" [color = darkviolet];
  "/gnu/store/xwl0p4m34bcan0v9vkjkyzwi6znsv4dm-pixman-0.38.4" -> "/gnu/store/xwl0p4m34bcan0v9vkjkyzwi6znsv4dm-pixman-0.38.4" [color = darkviolet];
  "/gnu/store/y9fdy234r6hqiacd7hgwlmbdsngbp8p1-fontconfig-2.13.1" [label = "fontconfig-2.13.1", shape = box, fontname = sans];
  "/gnu/store/y9fdy234r6hqiacd7hgwlmbdsngbp8p1-fontconfig-2.13.1" -> "/gnu/store/01b4w3m6mp55y531kyi1g8shh722kwqm-gcc-7.5.0-lib" [color = magenta];
  "/gnu/store/y9fdy234r6hqiacd7hgwlmbdsngbp8p1-fontconfig-2.13.1" -> "/gnu/store/3x2kak8abb6z2klch72kfff2qxzv00pj-libpng-1.6.37" [color = magenta];
  "/gnu/store/y9fdy234r6hqiacd7hgwlmbdsngbp8p1-fontconfig-2.13.1" -> "/gnu/store/7y3lvk3xf4im8n44337mc6y0ccysvfia-font-dejavu-2.37" [color = magenta];
  "/gnu/store/y9fdy234r6hqiacd7hgwlmbdsngbp8p1-fontconfig-2.13.1" -> "/gnu/store/a45p39mgqvfd8kjwibyr0q42k1mw7gmf-util-linux-2.35.1-lib" [color = magenta];
  "/gnu/store/y9fdy234r6hqiacd7hgwlmbdsngbp8p1-fontconfig-2.13.1" -> "/gnu/store/fa6wj5bxkj5ll1d7292a70knmyl7a0cr-glibc-2.31" [color = magenta];
  "/gnu/store/y9fdy234r6hqiacd7hgwlmbdsngbp8p1-fontconfig-2.13.1" -> "/gnu/store/i8h2pcxqdq07ijm3ibkka8f4smn1w48v-bzip2-1.0.8" [color = magenta];
  "/gnu/store/y9fdy234r6hqiacd7hgwlmbdsngbp8p1-fontconfig-2.13.1" -> "/gnu/store/imh5xxqw10dql4crlngbbjh4r24raf4j-expat-2.2.9" [color = magenta];
  "/gnu/store/y9fdy234r6hqiacd7hgwlmbdsngbp8p1-fontconfig-2.13.1" -> "/gnu/store/j3f5hx6yvhlj3sapiipigkwg05b49nwn-freetype-2.10.4" [color = magenta];
  "/gnu/store/y9fdy234r6hqiacd7hgwlmbdsngbp8p1-fontconfig-2.13.1" -> "/gnu/store/rykm237xkmq7rl1p0nwass01p090p88x-zlib-1.2.11" [color = magenta];
  "/gnu/store/y9fdy234r6hqiacd7hgwlmbdsngbp8p1-fontconfig-2.13.1" -> "/gnu/store/y9fdy234r6hqiacd7hgwlmbdsngbp8p1-fontconfig-2.13.1" [color = magenta];
  "/gnu/store/7y3lvk3xf4im8n44337mc6y0ccysvfia-font-dejavu-2.37" [label = "font-dejavu-2.37", shape = box, fontname = sans];
  "/gnu/store/zlcfdzl4f3rb3cnf05jb6r6fyl2ahv5v-glib-2.62.6" [label = "glib-2.62.6", shape = box, fontname = sans];
  "/gnu/store/zlcfdzl4f3rb3cnf05jb6r6fyl2ahv5v-glib-2.62.6" -> "/gnu/store/01b4w3m6mp55y531kyi1g8shh722kwqm-gcc-7.5.0-lib" [color = darkgoldenrod];
  "/gnu/store/zlcfdzl4f3rb3cnf05jb6r6fyl2ahv5v-glib-2.62.6" -> "/gnu/store/9lhbjw3wxbllcfcicjx0m6nx9m8wm6ip-dbus-1.12.16" [color = darkgoldenrod];
  "/gnu/store/zlcfdzl4f3rb3cnf05jb6r6fyl2ahv5v-glib-2.62.6" -> "/gnu/store/a45p39mgqvfd8kjwibyr0q42k1mw7gmf-util-linux-2.35.1-lib" [color = darkgoldenrod];
  "/gnu/store/zlcfdzl4f3rb3cnf05jb6r6fyl2ahv5v-glib-2.62.6" -> "/gnu/store/bw15z9kh9c65ycc2vbhl2izwfwfva7p1-libffi-3.3" [color = darkgoldenrod];
  "/gnu/store/zlcfdzl4f3rb3cnf05jb6r6fyl2ahv5v-glib-2.62.6" -> "/gnu/store/fa6wj5bxkj5ll1d7292a70knmyl7a0cr-glibc-2.31" [color = darkgoldenrod];
  "/gnu/store/zlcfdzl4f3rb3cnf05jb6r6fyl2ahv5v-glib-2.62.6" -> "/gnu/store/k0aqiy7yx8n28dvm3f0a04ka5sd8y950-pcre-8.44" [color = darkgoldenrod];
  "/gnu/store/zlcfdzl4f3rb3cnf05jb6r6fyl2ahv5v-glib-2.62.6" -> "/gnu/store/rykm237xkmq7rl1p0nwass01p090p88x-zlib-1.2.11" [color = darkgoldenrod];
  "/gnu/store/zlcfdzl4f3rb3cnf05jb6r6fyl2ahv5v-glib-2.62.6" -> "/gnu/store/sh764z2hm5qcr4cqx4amcipcbkvg76i2-libselinux-3.0" [color = darkgoldenrod];
  "/gnu/store/zlcfdzl4f3rb3cnf05jb6r6fyl2ahv5v-glib-2.62.6" -> "/gnu/store/zlcfdzl4f3rb3cnf05jb6r6fyl2ahv5v-glib-2.62.6" [color = darkgoldenrod];
  "/gnu/store/9lhbjw3wxbllcfcicjx0m6nx9m8wm6ip-dbus-1.12.16" [label = "dbus-1.12.16", shape = box, fontname = sans];
  "/gnu/store/9lhbjw3wxbllcfcicjx0m6nx9m8wm6ip-dbus-1.12.16" -> "/gnu/store/01b4w3m6mp55y531kyi1g8shh722kwqm-gcc-7.5.0-lib" [color = darkviolet];
  "/gnu/store/9lhbjw3wxbllcfcicjx0m6nx9m8wm6ip-dbus-1.12.16" -> "/gnu/store/4ildmh169dixyn05mlgjz07x4d2hcq2g-libx11-1.6.A" [color = darkviolet];
  "/gnu/store/9lhbjw3wxbllcfcicjx0m6nx9m8wm6ip-dbus-1.12.16" -> "/gnu/store/9lhbjw3wxbllcfcicjx0m6nx9m8wm6ip-dbus-1.12.16" [color = darkviolet];
  "/gnu/store/9lhbjw3wxbllcfcicjx0m6nx9m8wm6ip-dbus-1.12.16" -> "/gnu/store/fa6wj5bxkj5ll1d7292a70knmyl7a0cr-glibc-2.31" [color = darkviolet];
  "/gnu/store/9lhbjw3wxbllcfcicjx0m6nx9m8wm6ip-dbus-1.12.16" -> "/gnu/store/imh5xxqw10dql4crlngbbjh4r24raf4j-expat-2.2.9" [color = darkviolet];
  "/gnu/store/bw15z9kh9c65ycc2vbhl2izwfwfva7p1-libffi-3.3" [label = "libffi-3.3", shape = box, fontname = sans];
  "/gnu/store/bw15z9kh9c65ycc2vbhl2izwfwfva7p1-libffi-3.3" -> "/gnu/store/01b4w3m6mp55y531kyi1g8shh722kwqm-gcc-7.5.0-lib" [color = darkseagreen];
  "/gnu/store/bw15z9kh9c65ycc2vbhl2izwfwfva7p1-libffi-3.3" -> "/gnu/store/bw15z9kh9c65ycc2vbhl2izwfwfva7p1-libffi-3.3" [color = darkseagreen];
  "/gnu/store/bw15z9kh9c65ycc2vbhl2izwfwfva7p1-libffi-3.3" -> "/gnu/store/fa6wj5bxkj5ll1d7292a70knmyl7a0cr-glibc-2.31" [color = darkseagreen];
  "/gnu/store/k0aqiy7yx8n28dvm3f0a04ka5sd8y950-pcre-8.44" [label = "pcre-8.44", shape = box, fontname = sans];
  "/gnu/store/k0aqiy7yx8n28dvm3f0a04ka5sd8y950-pcre-8.44" -> "/gnu/store/01b4w3m6mp55y531kyi1g8shh722kwqm-gcc-7.5.0-lib" [color = darkgoldenrod];
  "/gnu/store/k0aqiy7yx8n28dvm3f0a04ka5sd8y950-pcre-8.44" -> "/gnu/store/fa6wj5bxkj5ll1d7292a70knmyl7a0cr-glibc-2.31" [color = darkgoldenrod];
  "/gnu/store/k0aqiy7yx8n28dvm3f0a04ka5sd8y950-pcre-8.44" -> "/gnu/store/k0aqiy7yx8n28dvm3f0a04ka5sd8y950-pcre-8.44" [color = darkgoldenrod];
  "/gnu/store/sh764z2hm5qcr4cqx4amcipcbkvg76i2-libselinux-3.0" [label = "libselinux-3.0", shape = box, fontname = sans];
  "/gnu/store/sh764z2hm5qcr4cqx4amcipcbkvg76i2-libselinux-3.0" -> "/gnu/store/01b4w3m6mp55y531kyi1g8shh722kwqm-gcc-7.5.0-lib" [color = dimgrey];
  "/gnu/store/sh764z2hm5qcr4cqx4amcipcbkvg76i2-libselinux-3.0" -> "/gnu/store/8nh0hbrr8iaz6qkwavcnzi0824f3xb68-libsepol-3.0" [color = dimgrey];
  "/gnu/store/sh764z2hm5qcr4cqx4amcipcbkvg76i2-libselinux-3.0" -> "/gnu/store/fa6wj5bxkj5ll1d7292a70knmyl7a0cr-glibc-2.31" [color = dimgrey];
  "/gnu/store/sh764z2hm5qcr4cqx4amcipcbkvg76i2-libselinux-3.0" -> "/gnu/store/k0aqiy7yx8n28dvm3f0a04ka5sd8y950-pcre-8.44" [color = dimgrey];
  "/gnu/store/sh764z2hm5qcr4cqx4amcipcbkvg76i2-libselinux-3.0" -> "/gnu/store/sh764z2hm5qcr4cqx4amcipcbkvg76i2-libselinux-3.0" [color = dimgrey];
  "/gnu/store/8nh0hbrr8iaz6qkwavcnzi0824f3xb68-libsepol-3.0" [label = "libsepol-3.0", shape = box, fontname = sans];
  "/gnu/store/8nh0hbrr8iaz6qkwavcnzi0824f3xb68-libsepol-3.0" -> "/gnu/store/01b4w3m6mp55y531kyi1g8shh722kwqm-gcc-7.5.0-lib" [color = blue];
  "/gnu/store/8nh0hbrr8iaz6qkwavcnzi0824f3xb68-libsepol-3.0" -> "/gnu/store/8nh0hbrr8iaz6qkwavcnzi0824f3xb68-libsepol-3.0" [color = blue];
  "/gnu/store/8nh0hbrr8iaz6qkwavcnzi0824f3xb68-libsepol-3.0" -> "/gnu/store/fa6wj5bxkj5ll1d7292a70knmyl7a0cr-glibc-2.31" [color = blue];
  "/gnu/store/zzkly5rbfvahwqgcs7crz0ilpi7x5g5p-ncurses-6.2" [label = "ncurses-6.2", shape = box, fontname = sans];
  "/gnu/store/zzkly5rbfvahwqgcs7crz0ilpi7x5g5p-ncurses-6.2" -> "/gnu/store/01b4w3m6mp55y531kyi1g8shh722kwqm-gcc-7.5.0-lib" [color = magenta];
  "/gnu/store/zzkly5rbfvahwqgcs7crz0ilpi7x5g5p-ncurses-6.2" -> "/gnu/store/fa6wj5bxkj5ll1d7292a70knmyl7a0cr-glibc-2.31" [color = magenta];
  "/gnu/store/zzkly5rbfvahwqgcs7crz0ilpi7x5g5p-ncurses-6.2" -> "/gnu/store/zzkly5rbfvahwqgcs7crz0ilpi7x5g5p-ncurses-6.2" [color = magenta];

}
