<?xml version="1.0" encoding="UTF-8" standalone="no"?>
<!-- Created with Inkscape (http://www.inkscape.org/) -->

<svg
   xmlns:dc="http://purl.org/dc/elements/1.1/"
   xmlns:cc="http://creativecommons.org/ns#"
   xmlns:rdf="http://www.w3.org/1999/02/22-rdf-syntax-ns#"
   xmlns:svg="http://www.w3.org/2000/svg"
   xmlns="http://www.w3.org/2000/svg"
   xmlns:xlink="http://www.w3.org/1999/xlink"
   xmlns:sodipodi="http://sodipodi.sourceforge.net/DTD/sodipodi-0.dtd"
   xmlns:inkscape="http://www.inkscape.org/namespaces/inkscape"
   width="1920"
   height="1080"
   viewBox="0 0 507.99999 285.75001"
   version="1.1"
   id="svg8"
   inkscape:version="0.92.3 (2405546, 2018-03-11)"
   sodipodi:docname="use-rewrite-input.svg">
  <defs
     id="defs2">
    <inkscape:path-effect
       effect="bspline"
       id="path-effect10907"
       is_visible="true"
       weight="33.333333"
       steps="2"
       helper_size="0"
       apply_no_weight="true"
       apply_with_weight="true"
       only_selected="false" />
    <inkscape:perspective
       sodipodi:type="inkscape:persp3d"
       inkscape:vp_x="0 : 142.875 : 1"
       inkscape:vp_y="0 : 1000 : 0"
       inkscape:vp_z="507.99999 : 142.875 : 1"
       inkscape:persp3d-origin="254 : 95.250003 : 1"
       id="perspective9456" />
    <inkscape:path-effect
       effect="bspline"
       id="path-effect4268"
       is_visible="true"
       weight="33.333333"
       steps="2"
       helper_size="0"
       apply_no_weight="true"
       apply_with_weight="true"
       only_selected="false" />
    <linearGradient
       id="linearGradient4094">
      <stop
         style="stop-color:#232323;stop-opacity:1;"
         offset="0"
         id="stop4096" />
      <stop
         style="stop-color:#4d4d4d;stop-opacity:1;"
         offset="1"
         id="stop4098" />
    </linearGradient>
    <linearGradient
       id="linearGradient4014">
      <stop
         style="stop-color:#a0a0a0;stop-opacity:1;"
         offset="0"
         id="stop4016" />
      <stop
         style="stop-color:#ffffff;stop-opacity:1;"
         offset="1"
         id="stop4018" />
    </linearGradient>
    <linearGradient
       id="linearGradient4678">
      <stop
         style="stop-color:#e5e5e5;stop-opacity:1;"
         offset="0"
         id="stop4680" />
      <stop
         style="stop-color:#d3cdcd;stop-opacity:1;"
         offset="1"
         id="stop4682" />
    </linearGradient>
    <linearGradient
       id="linearGradient4341">
      <stop
         id="stop4343"
         offset="0"
         style="stop-color:#333333;stop-opacity:1;" />
      <stop
         id="stop4345"
         offset="1"
         style="stop-color:#484848;stop-opacity:1;" />
    </linearGradient>
    <linearGradient
       id="linearGradient4696-5">
      <stop
         id="stop4698-6"
         offset="0"
         style="stop-color:#ffb638;stop-opacity:1;" />
      <stop
         id="stop4700-2"
         offset="1"
         style="stop-color:#f0ae26;stop-opacity:1;" />
    </linearGradient>
    <linearGradient
       id="linearGradient4702-3">
      <stop
         id="stop4704-1"
         offset="0"
         style="stop-color:#e34646;stop-opacity:1;" />
      <stop
         id="stop4706-8"
         offset="1"
         style="stop-color:#ffbf2d;stop-opacity:1;" />
    </linearGradient>
    <color-profile
       name="Artifex-PS-CMYK-Profile"
       xlink:href="/usr/share/color/icc/ghostscript/ps_cmyk.icc"
       id="color-profile2657" />
    <clipPath
       id="clipPath4501"
       clipPathUnits="userSpaceOnUse">
      <path
         style="clip-rule:evenodd"
         inkscape:connector-curvature="0"
         id="path4499"
         d="M 0,0 H 124.992 V 144 H 0 Z" />
    </clipPath>
    <clipPath
       id="clipPath4525"
       clipPathUnits="userSpaceOnUse">
      <path
         inkscape:connector-curvature="0"
         id="path4523"
         d="M 0,0 H 100 V 125 H 0 Z" />
    </clipPath>
    <clipPath
       id="clipPath4545"
       clipPathUnits="userSpaceOnUse">
      <path
         inkscape:connector-curvature="0"
         id="path4543"
         d="M 0,0 H 100 V 125 H 0 Z" />
    </clipPath>
    <clipPath
       id="clipPath4561"
       clipPathUnits="userSpaceOnUse">
      <path
         inkscape:connector-curvature="0"
         id="path4559"
         d="M 0,0 H 100 V 125 H 0 Z" />
    </clipPath>
    <clipPath
       id="clipPath4577"
       clipPathUnits="userSpaceOnUse">
      <path
         inkscape:connector-curvature="0"
         id="path4575"
         d="M 0,0 H 100 V 125 H 0 Z" />
    </clipPath>
    <clipPath
       id="clipPath4593"
       clipPathUnits="userSpaceOnUse">
      <path
         inkscape:connector-curvature="0"
         id="path4591"
         d="M 0,0 H 100 V 125 H 0 Z" />
    </clipPath>
    <clipPath
       id="clipPath4609"
       clipPathUnits="userSpaceOnUse">
      <path
         inkscape:connector-curvature="0"
         id="path4607"
         d="M 0,0 H 100 V 125 H 0 Z" />
    </clipPath>
    <clipPath
       id="clipPath4625"
       clipPathUnits="userSpaceOnUse">
      <path
         inkscape:connector-curvature="0"
         id="path4623"
         d="M 0,0 H 100 V 125 H 0 Z" />
    </clipPath>
    <clipPath
       id="clipPath4641"
       clipPathUnits="userSpaceOnUse">
      <path
         inkscape:connector-curvature="0"
         id="path4639"
         d="M 0,0 H 100 V 125 H 0 Z" />
    </clipPath>
    <clipPath
       id="clipPath4657"
       clipPathUnits="userSpaceOnUse">
      <path
         inkscape:connector-curvature="0"
         id="path4655"
         d="M 0,0 H 100 V 125 H 0 Z" />
    </clipPath>
    <clipPath
       id="clipPath4673"
       clipPathUnits="userSpaceOnUse">
      <path
         inkscape:connector-curvature="0"
         id="path4671"
         d="M 0,0 H 100 V 125 H 0 Z" />
    </clipPath>
    <style
       id="style3894"
       type="text/css"><![CDATA[
    line, polyline, path, rect, circle {
      fill: none;
      stroke: #000000;
      stroke-linecap: round;
      stroke-linejoin: round;
      stroke-miterlimit: 10.00;
    }
  ]]></style>
    <clipPath
       id="cpNzMuMDYyM3w1NDYuMzIzfDM5My4wNzJ8MzEuMDU2Nw==">
      <rect
         id="rect3902"
         height="362.02"
         width="473.26"
         y="31.06"
         x="73.06" />
    </clipPath>
    <clipPath
       id="cpMHw3MDguNjYxfDUwMy40MjV8MA==">
      <rect
         id="rect3995"
         height="503.43"
         width="708.66"
         y="0.00"
         x="0.00" />
    </clipPath>
    <marker
       inkscape:stockid="Arrow2Send"
       orient="auto"
       refY="0"
       refX="0"
       id="Arrow2Send-3-3"
       style="overflow:visible"
       inkscape:isstock="true">
      <path
         inkscape:connector-curvature="0"
         id="path6389-4-7"
         style="fill:#ffbf2d;fill-opacity:1;fill-rule:evenodd;stroke:#ffbf2d;stroke-width:0.625;stroke-linejoin:round;stroke-opacity:1"
         d="M 8.7185878,4.0337352 -2.2072895,0.01601326 8.7185884,-4.0017078 c -1.7454984,2.3720609 -1.7354408,5.6174519 -6e-7,8.035443 z"
         transform="matrix(-0.3,0,0,-0.3,0.69,0)" />
    </marker>
    <marker
       inkscape:stockid="Arrow2Send"
       orient="auto"
       refY="0"
       refX="0"
       id="Arrow2Send-3-3-6"
       style="overflow:visible"
       inkscape:isstock="true">
      <path
         inkscape:connector-curvature="0"
         id="path6389-4-7-3"
         style="fill:#ffbf2d;fill-opacity:1;fill-rule:evenodd;stroke:#ffbf2d;stroke-width:0.625;stroke-linejoin:round;stroke-opacity:1"
         d="M 8.7185878,4.0337352 -2.2072895,0.01601326 8.7185884,-4.0017078 c -1.7454984,2.3720609 -1.7354408,5.6174519 -6e-7,8.035443 z"
         transform="matrix(-0.3,0,0,-0.3,0.69,0)" />
    </marker>
    <inkscape:path-effect
       effect="bspline"
       id="path-effect10907-2"
       is_visible="true"
       weight="33.333333"
       steps="2"
       helper_size="0"
       apply_no_weight="true"
       apply_with_weight="true"
       only_selected="false" />
    <inkscape:path-effect
       effect="bspline"
       id="path-effect10907-7"
       is_visible="true"
       weight="33.333333"
       steps="2"
       helper_size="0"
       apply_no_weight="true"
       apply_with_weight="true"
       only_selected="false" />
    <inkscape:path-effect
       effect="bspline"
       id="path-effect10907-1"
       is_visible="true"
       weight="33.333333"
       steps="2"
       helper_size="0"
       apply_no_weight="true"
       apply_with_weight="true"
       only_selected="false" />
  </defs>
  <sodipodi:namedview
     id="base"
     pagecolor="#ffffff"
     bordercolor="#f70bff"
     borderopacity="1"
     inkscape:pageopacity="0.0"
     inkscape:pageshadow="2"
     inkscape:zoom="0.49497475"
     inkscape:cx="844.06722"
     inkscape:cy="628.75069"
     inkscape:document-units="px"
     inkscape:current-layer="layer1"
     showgrid="false"
     units="px"
     borderlayer="true"
     inkscape:showpageshadow="false"
     inkscape:pagecheckerboard="true"
     inkscape:window-width="1920"
     inkscape:window-height="951"
     inkscape:window-x="0"
     inkscape:window-y="55"
     inkscape:window-maximized="1"
     showguides="false" />
  <metadata
     id="metadata5">
    <rdf:RDF>
      <cc:Work
         rdf:about="">
        <dc:format>image/svg+xml</dc:format>
        <dc:type
           rdf:resource="http://purl.org/dc/dcmitype/StillImage" />
        <dc:title></dc:title>
        <cc:license
           rdf:resource="http://creativecommons.org/licenses/by-sa/4.0/" />
      </cc:Work>
      <cc:License
         rdf:about="http://creativecommons.org/licenses/by-sa/4.0/">
        <cc:permits
           rdf:resource="http://creativecommons.org/ns#Reproduction" />
        <cc:permits
           rdf:resource="http://creativecommons.org/ns#Distribution" />
        <cc:requires
           rdf:resource="http://creativecommons.org/ns#Notice" />
        <cc:requires
           rdf:resource="http://creativecommons.org/ns#Attribution" />
        <cc:permits
           rdf:resource="http://creativecommons.org/ns#DerivativeWorks" />
        <cc:requires
           rdf:resource="http://creativecommons.org/ns#ShareAlike" />
      </cc:License>
    </rdf:RDF>
  </metadata>
  <g
     inkscape:label="Layer 1"
     inkscape:groupmode="layer"
     id="layer1"
     transform="translate(0,-11.249975)">
    <rect
       style="color:#000000;clip-rule:nonzero;display:inline;overflow:visible;visibility:visible;opacity:1;isolation:auto;mix-blend-mode:normal;color-interpolation:sRGB;color-interpolation-filters:linearRGB;solid-color:#000000;solid-opacity:1;vector-effect:none;fill:#232323;fill-opacity:1;fill-rule:nonzero;stroke:none;stroke-width:0.3055087;stroke-linecap:round;stroke-linejoin:round;stroke-miterlimit:4;stroke-dasharray:none;stroke-dashoffset:0;stroke-opacity:1;color-rendering:auto;image-rendering:auto;shape-rendering:auto;text-rendering:auto;enable-background:accumulate"
       id="rect2926"
       width="512.95203"
       height="292.72192"
       x="-2.0354033"
       y="8.4516382" />
    <text
       xml:space="preserve"
       style="font-style:normal;font-variant:normal;font-weight:normal;font-stretch:normal;font-size:25.40000153px;line-height:6.61458349px;font-family:'Century Schoolbook L';-inkscape-font-specification:'Century Schoolbook L';letter-spacing:0px;word-spacing:0px;fill:#000000;fill-opacity:1;stroke:none;stroke-width:0.26458335px;stroke-linecap:butt;stroke-linejoin:miter;stroke-opacity:1;"
       x="238.13715"
       y="144.99043"
       id="text9454"><tspan
         sodipodi:role="line"
         id="tspan9452"
         x="238.13715"
         y="154.26672"
         style="font-style:normal;font-variant:normal;font-weight:normal;font-stretch:normal;font-family:'Century Schoolbook L';-inkscape-font-specification:'Century Schoolbook L';stroke-width:0.26458335px;" /></text>
    <flowRoot
       transform="matrix(0.42305208,0,0,0.42305208,-30.171396,-23.993117)"
       xml:space="preserve"
       id="flowRoot17214"
       style="font-style:normal;font-weight:normal;font-size:20px;line-height:25px;font-family:Sans;letter-spacing:0px;word-spacing:0px;fill:#000000;fill-opacity:1;stroke:none;stroke-width:1px;stroke-linecap:butt;stroke-linejoin:miter;stroke-opacity:1"><flowRegion
         id="flowRegion17216"><rect
           id="rect17218"
           width="32.251968"
           height="32.251968"
           x="378.96063"
           y="282.20471"
           style="fill:none;stroke:#000000;stroke-linecap:round;stroke-linejoin:round;stroke-miterlimit:10" /></flowRegion><flowPara
         id="flowPara17220" /></flowRoot>    <text
       xml:space="preserve"
       style="font-style:normal;font-variant:normal;font-weight:normal;font-stretch:normal;font-size:11.99654388px;line-height:0%;font-family:'League Gothic';-inkscape-font-specification:'League Gothic';text-align:start;letter-spacing:0px;word-spacing:0px;text-anchor:start;fill:#ffbf2d;fill-opacity:1;stroke:none;stroke-width:0.29991367;stroke-linecap:butt;stroke-linejoin:miter;stroke-miterlimit:4;stroke-dasharray:none;stroke-opacity:1"
       x="81.530411"
       y="106.104"
       id="text4140-4-6"><tspan
         sodipodi:role="line"
         x="81.530411"
         y="106.104"
         style="font-style:normal;font-variant:normal;font-weight:normal;font-stretch:normal;font-size:34.98992157px;line-height:100%;font-family:'League Gothic';-inkscape-font-specification:'League Gothic';text-align:start;text-anchor:start;fill:#ffbf2d;fill-opacity:1;stroke:none;stroke-width:0.29991367;stroke-miterlimit:4;stroke-dasharray:none;stroke-opacity:1"
         id="tspan14806"><tspan
   style="line-height:100%;text-align:start;text-anchor:start;fill:#ffffff"
   id="tspan14783">guix package</tspan> --install<tspan
   style="line-height:100%;fill:#ffffff"
   id="tspan14804"> foo</tspan></tspan><tspan
         sodipodi:role="line"
         x="81.530411"
         y="141.09392"
         style="font-style:normal;font-variant:normal;font-weight:normal;font-stretch:normal;font-size:34.98992157px;line-height:100%;font-family:'League Gothic';-inkscape-font-specification:'League Gothic';text-align:start;text-anchor:start;fill:#ffbf2d;fill-opacity:1;stroke:none;stroke-width:0.29991367;stroke-miterlimit:4;stroke-dasharray:none;stroke-opacity:1"
         id="tspan14820">                        --with-input <tspan
   style="line-height:100%;fill:#ffffff"
   id="tspan14822">hello=bye</tspan></tspan></text>
    <g
       id="g25174"
       transform="matrix(1.3414568,0,0,1.3414568,-534.23385,-581.0547)">
      <g
         transform="matrix(0.18404895,0,0,0.18313389,371.00057,638.29516)"
         id="node2"
         class="node"
         style="fill:#e6e6e6">
        <title
           id="title4151">29060672</title>
        <text
           style="font-size:14px;line-height:0%;font-family:Helvetica, sans-Serif;text-anchor:middle;fill:#e6e6e6"
           x="533.71997"
           y="-31.480301"
           font-size="14.00"
           id="text4155">perl-5.16.1</text>
      </g>
      <g
         transform="matrix(0.18404895,0,0,0.18313389,371.00057,638.29516)"
         id="node3"
         class="node"
         style="fill:#e6e6e6">
        <title
           id="title4165">34407360</title>
        <text
           style="font-size:14px;line-height:0%;font-family:Helvetica, sans-Serif;text-anchor:middle;fill:#e6e6e6"
           x="284.69501"
           y="-166.89"
           font-size="14.00"
           id="text4169">perl-clone-0.37</text>
      </g>
      <g
         id="node4"
         class="node"
         transform="matrix(0.18404895,0,0,0.18313389,408.75556,642.32724)"
         style="fill:#e6e6e6">
        <title
           id="title4179">35178176</title>
        <text
           x="263.47601"
           y="-357.06387"
           font-size="14.00"
           id="text4183"
           style="font-size:14px;line-height:0%;font-family:Helvetica, sans-Serif;text-anchor:middle;fill:#e6e6e6">hehe-3.14</text>
      </g>
      <g
         transform="matrix(0.18404895,0,0,0.18313389,371.00057,638.29516)"
         id="node5"
         class="node"
         style="fill:#e6e6e6">
        <title
           id="title4193">35301632</title>
        <text
           style="font-size:14px;line-height:0%;font-family:Helvetica, sans-Serif;text-anchor:middle;fill:#e6e6e6"
           x="349.16199"
           y="-16.1605"
           font-size="14.00"
           id="text4197">perl-test-simple-1.001014</text>
      </g>
      <g
         transform="matrix(0.18404895,0,0,0.18313389,360.58093,638.29516)"
         id="node6"
         class="node">
        <title
           id="title4207">50782208</title>
        <text
           style="font-size:14px;line-height:0%;font-family:Helvetica, sans-Serif;text-anchor:middle;fill:#ffbf2d;fill-opacity:1"
           x="803.83002"
           y="-229.718"
           font-size="14.00"
           id="text4211">foo-1.2</text>
      </g>
      <g
         id="node7"
         class="node"
         transform="matrix(0.18404895,0,0,0.18313389,408.75556,643.57807)"
         style="fill:#e6e6e6">
        <title
           id="title4221">35301440</title>
        <text
           x="163.173"
           y="-515.15198"
           font-size="14.00"
           id="text4225"
           style="font-size:14px;line-height:0%;font-family:Helvetica, sans-Serif;text-anchor:middle;fill:#e6e6e6">moo-7</text>
      </g>
      <g
         style="fill:#e6e6e6;fill-opacity:1"
         id="node8"
         class="node"
         transform="matrix(0.18404895,0,0,0.18313389,408.75556,643.57807)">
        <title
           id="title4235">35302976</title>
        <text
           x="85"
           y="-408.72501"
           font-size="14.00"
           id="text4239"
           style="font-size:14px;line-height:0%;font-family:Helvetica, sans-Serif;text-anchor:middle;fill:#e6e6e6;fill-opacity:1">eenee-1.2</text>
      </g>
      <g
         transform="matrix(0.18404895,0,0,0.18313389,351.91177,641.44758)"
         id="node9"
         class="node"
         style="fill:#cccccc">
        <title
           id="title4249">30434432</title>
        <text
           style="font-size:14px;line-height:0%;font-family:Helvetica, sans-Serif;text-anchor:middle;fill:#cccccc"
           x="1028.65"
           y="-170.217"
           font-size="14.00"
           id="text4253">pkg-config-0.28</text>
      </g>
      <g
         transform="matrix(0.18404895,0,0,0.18313389,360.58093,638.29516)"
         id="node10"
         class="node"
         style="fill:#cccccc">
        <title
           id="title4263">46250624</title>
        <text
           style="font-size:14px;line-height:0%;font-family:Helvetica, sans-Serif;text-anchor:middle;fill:#cccccc"
           x="944.42297"
           y="-59.540298"
           font-size="14.00"
           id="text4267">bzip2-1.0.6</text>
      </g>
      <g
         transform="matrix(0.18404895,0,0,0.18313389,360.58093,638.29516)"
         id="node11"
         class="node"
         style="fill:#e6e6e6">
        <title
           id="title4277">36701312</title>
        <text
           style="font-size:14px;line-height:0%;font-family:Helvetica, sans-Serif;text-anchor:middle;fill:#e6e6e6"
           x="813.37"
           y="-14.3"
           font-size="14.00"
           id="text4281">gdbm-1.11</text>
      </g>
      <g
         transform="matrix(0.18404895,0,0,0.18313389,360.58093,638.29516)"
         id="node12"
         class="node"
         style="fill:#cccccc">
        <title
           id="title4291">36701888</title>
        <text
           style="font-size:14px;line-height:0%;font-family:Helvetica, sans-Serif;text-anchor:middle;fill:#cccccc"
           x="984.52698"
           y="-299.71201"
           font-size="14.00"
           id="text4295">libffi-3.1</text>
      </g>
      <g
         transform="matrix(0.18404895,0,0,0.18313389,360.58093,638.29516)"
         id="node13"
         class="node"
         style="fill:#cccccc">
        <title
           id="title4305">59828864</title>
        <text
           style="font-size:14px;line-height:0%;font-family:Helvetica, sans-Serif;text-anchor:middle;fill:#cccccc"
           x="818.98798"
           y="-420.94601"
           font-size="14.00"
           id="text4309">sqlite-3.8.10.2</text>
      </g>
      <g
         transform="matrix(0.18404895,0,0,0.18313389,360.58093,638.29516)"
         id="node14"
         class="node"
         style="fill:#e6e6e6">
        <title
           id="title4319">37402688</title>
        <text
           style="font-size:14px;line-height:0%;font-family:Helvetica, sans-Serif;text-anchor:middle;fill:#e6e6e6"
           x="671.89099"
           y="-97.4702"
           font-size="14.00"
           id="text4323">openssl-1.0.2d</text>
      </g>
      <g
         transform="matrix(0.18404895,0,0,0.18313389,360.58093,638.29516)"
         id="node15"
         class="node"
         style="fill:#cccccc">
        <title
           id="title4333">35415936</title>
        <text
           style="font-size:14px;line-height:0%;font-family:Helvetica, sans-Serif;text-anchor:middle;fill:#cccccc"
           x="939.26599"
           y="-460.186"
           font-size="14.00"
           id="text4337">readline-6.3</text>
      </g>
      <g
         transform="matrix(0.18404895,0,0,0.18313389,360.58093,638.29516)"
         id="node16"
         class="node"
         style="fill:#cccccc">
        <title
           id="title4347">46251584</title>
        <text
           style="font-size:14px;line-height:0%;font-family:Helvetica, sans-Serif;text-anchor:middle;fill:#cccccc"
           x="669.97198"
           y="-359.24701"
           font-size="14.00"
           id="text4351">zlib-1.2.7</text>
      </g>
      <g
         id="node17"
         class="node"
         transform="matrix(0.18404895,0,0,0.18313389,296.55035,661.9538)"
         style="fill:#cccccc">
        <title
           id="title4382">35416128</title>
        <text
           x="1052.6801"
           y="-615.953"
           font-size="14.00"
           id="text4386"
           style="font-size:14px;line-height:0%;font-family:Helvetica, sans-Serif;text-anchor:middle;fill:#cccccc">ncurses-5.9</text>
      </g>
      <g
         style="fill:none;stroke:#f34eaf;stroke-width:10.21002769;stroke-miterlimit:4;stroke-dasharray:none;stroke-opacity:1"
         id="edge17"
         class="edge"
         transform="matrix(0.18404895,0,0,0.18313389,360.58093,638.29516)">
        <title
           id="title4368">59828864-&gt;35415936</title>
        <path
           d="m 869.721,-441.919 c 5.939,-2.011 11.083,-3.744 15.658,-5.272"
           id="path4370"
           inkscape:connector-curvature="0"
           style="fill:none;stroke:#f34eaf;stroke-width:10.21002769;stroke-miterlimit:4;stroke-dasharray:none;stroke-opacity:1" />
        <polygon
           points="884.53,-450.596 895.124,-450.418 886.731,-443.951 "
           id="polygon4372"
           style="fill:none;stroke:#f34eaf;stroke-width:10.21002769;stroke-miterlimit:4;stroke-dasharray:none;stroke-opacity:1" />
      </g>
      <g
         id="edge1"
         class="edge"
         style="fill:none;stroke:#f34eaf;stroke-width:10.21002769;stroke-miterlimit:4;stroke-dasharray:none;stroke-opacity:1"
         transform="matrix(0.18404895,0,0,0.18313389,371.00057,638.29516)">
        <title
           id="title4158">62885888-&gt;29060672</title>
        <path
           inkscape:connector-curvature="0"
           d="m 472.617,-178.834 c 15.96,74.077 20.957,92.9537 39.462,117.5456"
           id="path4160"
           style="fill:none;stroke:#f34eaf;stroke-width:10.21002769;stroke-miterlimit:4;stroke-dasharray:none;stroke-opacity:1" />
        <polygon
           points="509.348,-59.0992 514.849,-63.4284 518.283,-53.4055 "
           id="polygon4162"
           style="fill:none;stroke:#f34eaf;stroke-width:10.21002769;stroke-miterlimit:4;stroke-dasharray:none;stroke-opacity:1" />
      </g>
      <g
         id="edge2"
         class="edge"
         style="fill:none;stroke:#f34eaf;stroke-width:10.21002769;stroke-miterlimit:4;stroke-dasharray:none;stroke-opacity:1"
         transform="matrix(0.18404895,0,0,0.18313389,371.00057,638.29516)">
        <title
           id="title4172">62885888-&gt;34407360</title>
        <path
           inkscape:connector-curvature="0"
           d="m 423.465,-183.545 c -36.327,10.614 -57.28,15.969 -74.878,17.791"
           id="path4174"
           style="fill:none;stroke:#f34eaf;stroke-width:10.21002769;stroke-miterlimit:4;stroke-dasharray:none;stroke-opacity:1" />
        <polygon
           points="348.265,-169.24 348.735,-162.256 338.523,-165.076 "
           id="polygon4176"
           style="fill:none;stroke:#f34eaf;stroke-width:10.21002769;stroke-miterlimit:4;stroke-dasharray:none;stroke-opacity:1" />
      </g>
      <g
         id="edge3"
         class="edge"
         style="fill:none;stroke:#f34eaf;stroke-width:10.21002769;stroke-miterlimit:4;stroke-dasharray:none;stroke-opacity:1"
         transform="matrix(0.18404895,0,0,0.18313389,374.1213,638.29516)">
        <title
           id="title4186">62885888-&gt;35178176</title>
        <path
           d="m 436.45485,-215.64861 c 2.11881,-40.19047 12.00435,-57.10386 6.69028,-97.6188"
           id="path4188"
           inkscape:connector-curvature="0"
           style="fill:none;stroke:#f34eaf;stroke-width:10.21002769;stroke-miterlimit:4;stroke-dasharray:none;stroke-opacity:1"
           sodipodi:nodetypes="cc" />
        <polygon
           points="273.06,-349.399 280.868,-342.238 274.698,-338.932 "
           id="polygon4190"
           transform="rotate(28.876643,301.13237,-3.4051139)"
           style="fill:none;stroke:#f34eaf;stroke-width:10.21002769;stroke-miterlimit:4;stroke-dasharray:none;stroke-opacity:1"
           inkscape:transform-center-x="0.39638497"
           inkscape:transform-center-y="-0.083178062" />
      </g>
      <g
         id="edge4"
         class="edge"
         style="fill:none;stroke:#f34eaf;stroke-width:10.21002769;stroke-miterlimit:4;stroke-dasharray:none;stroke-opacity:1"
         transform="matrix(0.18404895,0,0,0.18313389,371.00057,638.29516)">
        <title
           id="title4200">62885888-&gt;35301632</title>
        <path
           inkscape:connector-curvature="0"
           d="m 456.43,-178.665 c -56.153,83.6723 -69.103,102.9363 -88.935,131.9917"
           id="path4202"
           style="fill:none;stroke:#f34eaf;stroke-width:10.21002769;stroke-miterlimit:4;stroke-dasharray:none;stroke-opacity:1" />
        <polygon
           points="364.428,-48.3884 370.208,-44.4398 361.677,-38.1569 "
           id="polygon4204"
           style="fill:none;stroke:#f34eaf;stroke-width:10.21002769;stroke-miterlimit:4;stroke-dasharray:none;stroke-opacity:1" />
      </g>
      <g
         id="edge5"
         class="edge"
         style="fill:none;stroke:#f34eaf;stroke-width:10.21002769;stroke-miterlimit:4;stroke-dasharray:none;stroke-opacity:1"
         transform="matrix(0.18404895,0,0,0.18313389,360.58093,638.29516)">
        <title
           id="title4214">62885888-&gt;50782208</title>
        <path
           sodipodi:nodetypes="cc"
           inkscape:connector-curvature="0"
           d="m 572.70132,-194.98891 c 68.59745,10.49288 131.72676,9.80987 189.92568,-15.58309"
           id="path4216"
           style="fill:none;stroke:#f34eaf;stroke-width:10.21002769;stroke-miterlimit:4;stroke-dasharray:none;stroke-opacity:1" />
        <polygon
           points="771.415,-215.346 764.299,-207.497 760.957,-213.648 "
           id="polygon4218"
           style="fill:none;stroke:#f34eaf;stroke-width:10.21002769;stroke-miterlimit:4;stroke-dasharray:none;stroke-opacity:1" />
      </g>
      <g
         id="edge6"
         class="edge"
         transform="matrix(0.18404895,0,0,0.18313389,408.75553,643.57806)"
         style="fill:none;stroke:#f34eaf;stroke-width:10.21002769;stroke-miterlimit:4;stroke-dasharray:none;stroke-opacity:1">
        <title
           id="title4228">35178176-&gt;35301440</title>
        <path
           d="M 246.083,-385.852 C 191.77,-442.998 180.838,-456.586 170.65,-490.915"
           id="path4230"
           inkscape:connector-curvature="0"
           style="fill:none;stroke:#f34eaf;stroke-width:10.21002769;stroke-miterlimit:4;stroke-dasharray:none;stroke-opacity:1" />
        <polygon
           points="167.247,-490.086 167.905,-500.66 173.985,-491.983 "
           id="polygon4232"
           style="fill:none;stroke:#f34eaf;stroke-width:10.21002769;stroke-miterlimit:4;stroke-dasharray:none;stroke-opacity:1" />
      </g>
      <g
         id="edge7"
         class="edge"
         transform="matrix(0.18404895,0,0,0.18313389,408.65125,644.65002)"
         style="fill:none;stroke:#f34eaf;stroke-width:10.21002769;stroke-miterlimit:4;stroke-dasharray:none;stroke-opacity:1">
        <title
           id="title4242">35178176-&gt;35302976</title>
        <path
           d="m 194.124,-365.70642 c -13.542,-3.194 -102.664452,12.89719 -105.162109,-27.89642"
           id="path4244"
           inkscape:connector-curvature="0"
           style="fill:none;stroke:#f34eaf;stroke-width:10.21002769;stroke-miterlimit:4;stroke-dasharray:none;stroke-opacity:1"
           sodipodi:nodetypes="cc" />
        <polygon
           points="161.045,-395.338 159.373,-388.54 150.499,-394.328 "
           id="polygon4246"
           style="fill:none;stroke:#f34eaf;stroke-width:10.21002769;stroke-miterlimit:4;stroke-dasharray:none;stroke-opacity:1"
           transform="rotate(67.618703,122.49683,-442.88077)"
           inkscape:transform-center-x="0.7874542"
           inkscape:transform-center-y="-0.076971906" />
      </g>
      <g
         id="edge9"
         class="edge"
         style="fill:none;stroke:#f34eaf;stroke-width:10.21002769;stroke-miterlimit:4;stroke-dasharray:none;stroke-opacity:1"
         transform="matrix(0.18404895,0,0,0.18313389,360.58093,638.29516)">
        <title
           id="title4256">50782208-&gt;30434432</title>
        <path
           inkscape:connector-curvature="0"
           d="m 853.578,-219.579 c 57.597,16.008 121.83983,17.49885 123.95763,41.83645"
           id="path4258"
           style="fill:none;stroke:#f34eaf;stroke-width:10.21002769;stroke-miterlimit:4;stroke-dasharray:none;stroke-opacity:1"
           sodipodi:nodetypes="cc" />
        <polygon
           points="973.44,-187.083 962.886,-186.151 964.609,-192.936 "
           id="polygon4260"
           style="fill:none;stroke:#f34eaf;stroke-width:10.21002769;stroke-miterlimit:4;stroke-dasharray:none;stroke-opacity:1"
           transform="matrix(0.71403844,0.70360467,-0.6966257,0.71403844,151.54542,-731.1396)" />
      </g>
      <g
         id="edge10"
         class="edge"
         style="fill:none;stroke:#f34eaf;stroke-width:10.21002769;stroke-miterlimit:4;stroke-dasharray:none;stroke-opacity:1"
         transform="matrix(0.18404895,0,0,0.18313389,360.58093,638.29516)">
        <title
           id="title4270">50782208-&gt;46250624</title>
        <path
           inkscape:connector-curvature="0"
           d="m 822.533,-215.369 c 74.891,72.34 89.238,87.533 108.384,124.6722"
           id="path4272"
           style="fill:none;stroke:#f34eaf;stroke-width:10.21002769;stroke-miterlimit:4;stroke-dasharray:none;stroke-opacity:1" />
        <polygon
           points="935.648,-81.3006 928.025,-88.6584 934.277,-91.8064 "
           id="polygon4274"
           style="fill:none;stroke:#f34eaf;stroke-width:10.21002769;stroke-miterlimit:4;stroke-dasharray:none;stroke-opacity:1" />
      </g>
      <g
         id="edge11"
         class="edge"
         style="fill:none;stroke:#f34eaf;stroke-width:10.21002769;stroke-miterlimit:4;stroke-dasharray:none;stroke-opacity:1"
         transform="matrix(0.18404895,0,0,0.18313389,360.58093,638.29516)">
        <title
           id="title4284">50782208-&gt;36701312</title>
        <path
           inkscape:connector-curvature="0"
           d="m 809.218,-215.162 c 29.405,99.861 32.327,116.0522 14.113,169.309"
           id="path4286"
           style="fill:none;stroke:#f34eaf;stroke-width:10.21002769;stroke-miterlimit:4;stroke-dasharray:none;stroke-opacity:1" />
        <polygon
           points="819.959,-36.2145 819.958,-46.8094 826.565,-44.4976 "
           id="polygon4288"
           style="fill:none;stroke:#f34eaf;stroke-width:10.21002769;stroke-miterlimit:4;stroke-dasharray:none;stroke-opacity:1" />
      </g>
      <g
         id="edge12"
         class="edge"
         style="fill:none;stroke:#f34eaf;stroke-width:10.21002769;stroke-miterlimit:4;stroke-dasharray:none;stroke-opacity:1"
         transform="matrix(0.18404895,0,0,0.18313389,360.58093,638.29516)">
        <title
           id="title4298">50782208-&gt;36701888</title>
        <path
           inkscape:connector-curvature="0"
           d="m 853.502,-244.865 c 56.632,-13.327 76.565,-19.814 98.968,-34.635"
           id="path4300"
           style="fill:none;stroke:#f34eaf;stroke-width:10.21002769;stroke-miterlimit:4;stroke-dasharray:none;stroke-opacity:1" />
        <polygon
           points="960.908,-285.366 954.695,-276.784 950.699,-282.532 "
           id="polygon4302"
           style="fill:none;stroke:#f34eaf;stroke-width:10.21002769;stroke-miterlimit:4;stroke-dasharray:none;stroke-opacity:1" />
      </g>
      <g
         id="edge13"
         class="edge"
         style="fill:none;stroke:#f34eaf;stroke-width:10.21002769;stroke-miterlimit:4;stroke-dasharray:none;stroke-opacity:1"
         transform="matrix(0.18404895,0,0,0.18313389,360.58093,638.29516)">
        <title
           id="title4312">50782208-&gt;59828864</title>
        <path
           inkscape:connector-curvature="0"
           d="m 812.374,-251.534 c 32.857,-70.06 35.236,-82.844 15.614,-145.256"
           id="path4314"
           style="fill:none;stroke:#f34eaf;stroke-width:10.21002769;stroke-miterlimit:4;stroke-dasharray:none;stroke-opacity:1" />
        <polygon
           points="824.934,-406.371 831.305,-397.906 824.636,-395.781 "
           id="polygon4316"
           style="fill:none;stroke:#f34eaf;stroke-width:10.21002769;stroke-miterlimit:4;stroke-dasharray:none;stroke-opacity:1" />
      </g>
      <g
         id="edge14"
         class="edge"
         style="fill:none;stroke:#f34eaf;stroke-width:10.21002769;stroke-miterlimit:4;stroke-dasharray:none;stroke-opacity:1"
         transform="matrix(0.18404895,0,0,0.18313389,360.58093,638.29516)">
        <title
           id="title4326">50782208-&gt;37402688</title>
        <path
           inkscape:connector-curvature="0"
           d="m 796.384,-215.38 c -23.046,55.343 -32.093,69.636 -75.748,91.598"
           id="path4328"
           style="fill:none;stroke:#f34eaf;stroke-width:10.21002769;stroke-miterlimit:4;stroke-dasharray:none;stroke-opacity:1" />
        <polygon
           points="711.429,-119.273 718.87,-126.814 721.949,-120.528 "
           id="polygon4330"
           style="fill:none;stroke:#f34eaf;stroke-width:10.21002769;stroke-miterlimit:4;stroke-dasharray:none;stroke-opacity:1" />
      </g>
      <g
         id="edge15"
         class="edge"
         style="fill:none;stroke:#f34eaf;stroke-width:10.21002769;stroke-miterlimit:4;stroke-dasharray:none;stroke-opacity:1"
         transform="matrix(0.18404895,0,0,0.18313389,360.58093,638.29516)">
        <title
           id="title4340">50782208-&gt;35415936</title>
        <path
           inkscape:connector-curvature="0"
           d="m 821.976,-251.456 c 92.564,-92.169 102.407,-105.851 113.449,-183.848"
           id="path4342"
           style="fill:none;stroke:#f34eaf;stroke-width:10.21002769;stroke-miterlimit:4;stroke-dasharray:none;stroke-opacity:1" />
        <polygon
           points="936.855,-445.675 938.957,-435.291 932.022,-436.247 "
           id="polygon4344"
           style="fill:none;stroke:#f34eaf;stroke-width:10.21002769;stroke-miterlimit:4;stroke-dasharray:none;stroke-opacity:1" />
      </g>
      <g
         id="edge16"
         class="edge"
         style="fill:none;stroke:#f34eaf;stroke-width:10.21002769;stroke-miterlimit:4;stroke-dasharray:none;stroke-opacity:1"
         transform="matrix(0.18404895,0,0,0.18313389,360.58093,638.29516)">
        <title
           id="title4354">50782208-&gt;46251584</title>
        <path
           inkscape:connector-curvature="0"
           d="m 794.772,-251.617 c -18.86,-36.966 -29.117,-47.37 -88.945,-87.505"
           id="path4356"
           style="fill:none;stroke:#f34eaf;stroke-width:10.21002769;stroke-miterlimit:4;stroke-dasharray:none;stroke-opacity:1" />
        <polygon
           points="697.463,-344.712 707.722,-342.065 703.832,-336.245 "
           id="polygon4358"
           style="fill:none;stroke:#f34eaf;stroke-width:10.21002769;stroke-miterlimit:4;stroke-dasharray:none;stroke-opacity:1" />
      </g>
      <g
         id="edge8"
         class="edge"
         transform="matrix(0.18404895,0,0,0.18313389,408.75553,643.57806)"
         style="fill:none;stroke:#f34eaf;stroke-width:10.21002769;stroke-miterlimit:4;stroke-dasharray:none;stroke-opacity:1">
        <title
           id="title4361">35302976-&gt;35301440</title>
        <path
           d="m 89.2316,-430.64 c 8.0345,-33.279 13.5564,-43.951 40.1824,-64.165"
           id="path4363"
           inkscape:connector-curvature="0"
           style="fill:none;stroke:#f34eaf;stroke-width:10.21002769;stroke-miterlimit:4;stroke-dasharray:none;stroke-opacity:1" />
        <polygon
           points="127.382,-497.655 137.503,-500.786 131.544,-492.027 "
           id="polygon4365"
           style="fill:none;stroke:#f34eaf;stroke-width:10.21002769;stroke-miterlimit:4;stroke-dasharray:none;stroke-opacity:1" />
      </g>
      <g
         id="edge19"
         class="edge"
         style="fill:none;stroke:#f34eaf;stroke-width:10.21002769;stroke-miterlimit:4;stroke-dasharray:none;stroke-opacity:1"
         transform="matrix(0.18404895,0,0,0.18313389,371.00057,638.29516)">
        <title
           id="title4375">37402688-&gt;29060672</title>
        <path
           inkscape:connector-curvature="0"
           d="m 618.34261,-79.638593 c 0,0 -8.19261,36.666493 -33.92061,40.849293"
           id="path4377"
           style="fill:none;stroke:#f34eaf;stroke-width:10.21002769;stroke-miterlimit:4;stroke-dasharray:none;stroke-opacity:1"
           sodipodi:nodetypes="cc" />
        <polygon
           points="583.794,-42.2374 584.69,-35.2949 574.324,-37.4869 "
           id="polygon4379"
           style="fill:none;stroke:#f34eaf;stroke-width:10.21002769;stroke-miterlimit:4;stroke-dasharray:none;stroke-opacity:1" />
      </g>
      <g
         id="edge18"
         class="edge"
         style="fill:none;stroke:#f34eaf;stroke-width:10.21002769;stroke-miterlimit:4;stroke-dasharray:none;stroke-opacity:1"
         transform="matrix(0.18404895,0,0,0.18313389,360.58093,638.29516)">
        <title
           id="title4389">35415936-&gt;35416128</title>
        <path
           d="m 939.72964,-480.96378 c 15.51627,-72.56501 -236.17491,-105.16159 -234.02715,-28.39488"
           id="path4391"
           inkscape:connector-curvature="0"
           style="fill:none;stroke:#f34eaf;stroke-width:10.21002769;stroke-miterlimit:4;stroke-dasharray:none;stroke-opacity:1"
           sodipodi:nodetypes="cc" />
        <polygon
           points="1045.95,-601.468 1045.56,-590.88 1039.04,-593.433 "
           id="polygon4393"
           transform="rotate(163.4014,868.95784,-580.47808)"
           style="fill:none;stroke:#f34eaf;stroke-width:10.21002769;stroke-miterlimit:4;stroke-dasharray:none;stroke-opacity:1" />
      </g>
      <g
         transform="matrix(0.18404895,0,0,0.18313389,371.00057,638.29516)"
         id="node1"
         class="node"
         style="fill:#e6e6e6">
        <title
           id="title4144">62885888</title>
        <text
           style="font-size:14px;line-height:0%;font-family:Helvetica, sans-Serif;text-anchor:middle;fill:#e6e6e6"
           x="468.71899"
           y="-193.27699"
           font-size="14.00"
           id="text4148">bowtie-2.2.4</text>
      </g>
    </g>
  </g>
  <style
     id="style10850"
     type="text/css">
	.st0{opacity:0.15;fill:#292F33;}
	.st1{fill:#FFFFFF;}
</style>
</svg>
